{
    "languages": {
        "American English": "english",
        "English English": "english",
        "British English": "english",
        "Canadian English": "english",
        "White Russian": "russian",
        "Hindi-Urdu": "urdu",
        "Mandarins": "mandarin",
        "Mandarin Chinese": "mandarin",
        "Chinese": "mandarin",
        "Espaniol": "spanish"
    }
}