<?xml version="1.0" encoding="utf-8"?>
<!-- Generator: Adobe Illustrator 16.0.0, SVG Export Plug-In . SVG Version: 6.00 Build 0)  -->
<!DOCTYPE svg PUBLIC "-//W3C//DTD SVG 1.1//EN" "http://www.w3.org/Graphics/SVG/1.1/DTD/svg11.dtd">
<svg version="1.1" id="Layer_1" xmlns="http://www.w3.org/2000/svg" xmlns:xlink="http://www.w3.org/1999/xlink" x="0px" y="0px"
	 width="155.902px" height="25px" viewBox="0 0 155.902 25" enable-background="new 0 0 155.902 25" xml:space="preserve">
<g>
	<g>
		<path fill="#C4E7F2" d="M51.098,16.376c0.187,0.403,0.342,0.816,0.463,1.24c0.119,0.423,0.21,0.849,0.269,1.278
			c-0.744,0.273-1.419,0.45-2.013,0.537c-0.595,0.087-1.236,0.13-1.924,0.13c-1.22,0-2.289-0.198-3.207-0.593
			c-0.918-0.393-1.688-0.945-2.313-1.654c-0.624-0.711-1.095-1.555-1.411-2.529c-0.314-0.975-0.474-2.036-0.474-3.185
			s0.167-2.215,0.497-3.195c0.33-0.983,0.806-1.832,1.432-2.551c0.623-0.717,1.392-1.274,2.301-1.678s1.949-0.604,3.108-0.604
			c0.692,0,1.325,0.044,1.907,0.131c0.578,0.083,1.207,0.265,1.881,0.536c-0.028,0.431-0.113,0.849-0.256,1.259
			c-0.145,0.409-0.303,0.821-0.475,1.238c-0.504-0.173-0.947-0.294-1.334-0.366C49.161,6.3,48.703,6.264,48.17,6.264
			c-1.379,0-2.434,0.448-3.173,1.345c-0.739,0.897-1.108,2.227-1.108,3.992c0,3.5,1.483,5.249,4.457,5.249
			c0.527,0,0.994-0.036,1.396-0.107C50.144,16.672,50.596,16.549,51.098,16.376z"/>
		<path fill="#C4E7F2" d="M54.133,3.573c0.242-0.043,0.494-0.071,0.752-0.086c0.258-0.014,0.51-0.021,0.755-0.021
			c0.241,0,0.493,0.007,0.753,0.021c0.256,0.015,0.514,0.043,0.771,0.086V9.49c0.1-0.128,0.234-0.281,0.4-0.461
			c0.164-0.18,0.369-0.354,0.613-0.516c0.243-0.165,0.539-0.306,0.882-0.42c0.346-0.114,0.737-0.173,1.183-0.173
			c1.234,0,2.171,0.344,2.809,1.031c0.638,0.688,0.956,1.771,0.956,3.251v7.123c-0.257,0.042-0.514,0.069-0.774,0.086
			c-0.256,0.013-0.509,0.02-0.748,0.02c-0.248,0-0.497-0.007-0.758-0.02c-0.258-0.017-0.516-0.044-0.775-0.086v-6.306
			c0-0.776-0.121-1.37-0.363-1.786c-0.244-0.417-0.658-0.624-1.248-0.624c-0.244,0-0.494,0.036-0.754,0.107
			c-0.26,0.072-0.49,0.211-0.699,0.421c-0.207,0.207-0.38,0.499-0.518,0.87c-0.135,0.371-0.205,0.859-0.205,1.465v5.853
			c-0.258,0.042-0.516,0.069-0.771,0.086c-0.26,0.013-0.512,0.02-0.753,0.02c-0.245,0-0.495-0.007-0.745-0.02
			c-0.25-0.017-0.506-0.044-0.762-0.086V3.573z"/>
		<path fill="#C4E7F2" d="M72.336,11.988c0-0.344-0.06-0.625-0.172-0.842c-0.114-0.213-0.273-0.382-0.473-0.504
			c-0.201-0.124-0.449-0.204-0.744-0.249c-0.295-0.044-0.621-0.063-0.977-0.063c-0.774,0-1.603,0.15-2.477,0.453
			c-0.199-0.373-0.352-0.726-0.451-1.056c-0.1-0.327-0.15-0.724-0.15-1.185c0.631-0.213,1.262-0.373,1.893-0.473
			c0.632-0.101,1.222-0.149,1.764-0.149c1.49,0,2.658,0.358,3.496,1.075c0.84,0.717,1.26,1.865,1.26,3.445v6.453
			c-0.5,0.156-1.111,0.31-1.828,0.45c-0.717,0.146-1.529,0.217-2.434,0.217c-0.73,0-1.4-0.063-2.012-0.193
			c-0.608-0.131-1.133-0.346-1.57-0.647c-0.436-0.3-0.773-0.687-1.01-1.159s-0.354-1.058-0.354-1.744
			c0-0.689,0.145-1.265,0.439-1.732c0.293-0.466,0.674-0.839,1.139-1.119c0.469-0.279,0.988-0.479,1.561-0.602
			c0.574-0.121,1.146-0.184,1.721-0.184c0.418,0,0.876,0.022,1.379,0.063V11.988z M72.336,14.512
			c-0.172-0.027-0.359-0.053-0.559-0.076c-0.201-0.021-0.381-0.031-0.537-0.031c-0.707,0-1.262,0.125-1.669,0.376
			c-0.409,0.251-0.61,0.658-0.61,1.217c0,0.373,0.076,0.659,0.235,0.861c0.155,0.201,0.346,0.348,0.567,0.441
			c0.226,0.094,0.461,0.15,0.709,0.17c0.254,0.022,0.471,0.032,0.657,0.032c0.218,0,0.431-0.016,0.647-0.052
			c0.213-0.036,0.398-0.068,0.559-0.098V14.512z"/>
		<path fill="#C4E7F2" d="M78.318,10.502h-1.396l-0.111-0.429l4.023-5.144h0.496v3.25h2.605c0.041,0.215,0.07,0.408,0.086,0.58
			c0.014,0.171,0.02,0.351,0.02,0.537c0,0.203-0.006,0.396-0.02,0.58c-0.016,0.187-0.045,0.396-0.086,0.625H81.33v4.369
			c0,0.443,0.038,0.804,0.107,1.076c0.07,0.271,0.176,0.487,0.312,0.646c0.135,0.158,0.305,0.266,0.504,0.32
			c0.201,0.062,0.438,0.089,0.711,0.089c0.215,0,0.428-0.02,0.637-0.056c0.206-0.034,0.39-0.067,0.547-0.097
			c0.1,0.275,0.174,0.557,0.217,0.85c0.044,0.296,0.064,0.56,0.064,0.786c0,0.159-0.004,0.29-0.013,0.398
			c-0.007,0.105-0.019,0.211-0.032,0.311c-0.658,0.16-1.34,0.237-2.043,0.237c-1.307,0-2.305-0.305-2.992-0.916
			c-0.686-0.605-1.031-1.603-1.031-2.978V10.502z"/>
		<path fill="#C4E7F2" d="M86.559,10.502H85.16l-0.109-0.429l4.027-5.144h0.492v3.25h2.602c0.047,0.215,0.074,0.408,0.088,0.58
			c0.016,0.171,0.024,0.351,0.024,0.537c0,0.203-0.009,0.396-0.024,0.58c-0.014,0.187-0.041,0.396-0.088,0.625H89.57v4.369
			c0,0.443,0.035,0.804,0.109,1.076c0.072,0.271,0.175,0.487,0.311,0.646c0.137,0.158,0.305,0.266,0.508,0.32
			c0.201,0.062,0.438,0.089,0.711,0.089c0.213,0,0.422-0.02,0.632-0.056c0.209-0.034,0.392-0.067,0.55-0.097
			c0.1,0.275,0.17,0.557,0.215,0.85c0.043,0.296,0.062,0.56,0.062,0.786c0,0.159-0.004,0.29-0.008,0.398
			c-0.009,0.105-0.018,0.211-0.03,0.311c-0.661,0.16-1.345,0.237-2.048,0.237c-1.303,0-2.301-0.305-2.99-0.916
			c-0.689-0.605-1.033-1.603-1.033-2.978V10.502z"/>
		<path fill="#C4E7F2" d="M96.93,14.678c0.06,0.86,0.359,1.484,0.907,1.871c0.542,0.389,1.259,0.582,2.147,0.582
			c0.492,0,0.986-0.047,1.496-0.141c0.512-0.094,0.992-0.226,1.455-0.397c0.156,0.286,0.293,0.632,0.408,1.032
			c0.114,0.403,0.178,0.832,0.193,1.293c-1.117,0.427-2.382,0.644-3.787,0.644c-1.033,0-1.92-0.143-2.656-0.429
			c-0.742-0.289-1.344-0.687-1.806-1.196c-0.47-0.508-0.815-1.115-1.034-1.817c-0.223-0.701-0.336-1.472-0.336-2.302
			c0-0.816,0.115-1.586,0.346-2.303c0.229-0.717,0.569-1.342,1.024-1.874c0.448-0.53,1.007-0.949,1.675-1.259
			c0.67-0.307,1.447-0.461,2.334-0.461c0.775,0,1.467,0.138,2.064,0.409c0.605,0.273,1.117,0.645,1.541,1.118
			c0.424,0.473,0.742,1.037,0.958,1.69c0.217,0.651,0.323,1.351,0.323,2.096c0,0.273-0.012,0.543-0.035,0.809
			c-0.02,0.264-0.045,0.479-0.071,0.635H96.93z M101.299,12.548c-0.027-0.69-0.217-1.246-0.57-1.669
			c-0.352-0.424-0.844-0.635-1.472-0.635c-0.72,0-1.265,0.202-1.638,0.603c-0.373,0.401-0.594,0.968-0.666,1.701H101.299z"/>
		<path fill="#C4E7F2" d="M106.594,8.18c0.213-0.046,0.42-0.077,0.611-0.098c0.193-0.021,0.406-0.031,0.635-0.031
			c0.215,0,0.428,0.013,0.635,0.043c0.207,0.028,0.412,0.064,0.614,0.106c0.045,0.07,0.081,0.176,0.116,0.313
			c0.036,0.136,0.07,0.278,0.1,0.429s0.053,0.303,0.074,0.453s0.041,0.275,0.057,0.375c0.314-0.444,0.699-0.842,1.158-1.195
			c0.461-0.35,1.032-0.524,1.721-0.524c0.147,0,0.311,0.008,0.498,0.02c0.186,0.014,0.322,0.037,0.409,0.063
			c0.026,0.146,0.049,0.31,0.063,0.498c0.014,0.187,0.021,0.379,0.021,0.58c0,0.242-0.014,0.509-0.031,0.795
			c-0.023,0.287-0.064,0.561-0.119,0.816c-0.158-0.025-0.336-0.04-0.527-0.04c-0.195,0-0.314,0-0.354,0
			c-0.246,0-0.518,0.022-0.82,0.075c-0.303,0.05-0.588,0.183-0.861,0.397c-0.271,0.215-0.496,0.538-0.678,0.967
			c-0.178,0.432-0.27,1.034-0.27,1.811v5.293c-0.258,0.042-0.513,0.069-0.772,0.086c-0.261,0.013-0.511,0.02-0.754,0.02
			s-0.491-0.007-0.741-0.02c-0.253-0.017-0.512-0.044-0.785-0.086V8.18z"/>
		<path fill="#C4E7F2" d="M117.131,8.33c0.084-0.014,0.191-0.024,0.322-0.031c0.129-0.01,0.234-0.013,0.322-0.013
			c0.086,0,0.191,0.003,0.32,0.013c0.131,0.007,0.238,0.018,0.322,0.031l0.132,1.505c0.302-0.459,0.733-0.868,1.302-1.229
			c0.565-0.355,1.301-0.536,2.204-0.536c0.675,0,1.292,0.105,1.854,0.312c0.558,0.209,1.035,0.536,1.431,0.98
			c0.393,0.445,0.699,1.005,0.924,1.679c0.221,0.674,0.334,1.483,0.334,2.433c0,0.946-0.129,1.796-0.387,2.549
			c-0.26,0.753-0.636,1.392-1.131,1.914c-0.494,0.526-1.104,0.927-1.828,1.207c-0.727,0.278-1.555,0.418-2.484,0.418
			c-0.345,0-0.719-0.029-1.121-0.087c-0.401-0.056-0.768-0.143-1.097-0.257v5.164c-0.085,0.014-0.207,0.025-0.364,0.033
			c-0.158,0.005-0.273,0.011-0.345,0.011c-0.087,0-0.206-0.006-0.354-0.011c-0.152-0.008-0.271-0.02-0.355-0.033V8.33z
			 M118.55,17.904c0.329,0.13,0.669,0.227,1.021,0.289c0.354,0.066,0.824,0.102,1.412,0.102c0.559,0,1.09-0.092,1.593-0.271
			c0.501-0.181,0.938-0.462,1.31-0.85c0.373-0.389,0.668-0.878,0.883-1.475c0.217-0.596,0.324-1.31,0.324-2.142
			c0-1.318-0.246-2.351-0.74-3.098c-0.498-0.747-1.297-1.119-2.402-1.119c-0.346,0-0.719,0.06-1.117,0.173
			c-0.404,0.114-0.772,0.312-1.11,0.591c-0.339,0.28-0.616,0.647-0.839,1.098s-0.333,1.021-0.333,1.713V17.904z"/>
		<path fill="#C4E7F2" d="M130.252,3.487c0.086-0.014,0.203-0.025,0.354-0.033c0.153-0.005,0.271-0.011,0.355-0.011
			c0.07,0,0.186,0.006,0.344,0.011c0.16,0.008,0.283,0.02,0.367,0.033v13.277c0,0.373,0.043,0.664,0.129,0.872
			c0.086,0.206,0.193,0.358,0.325,0.449c0.124,0.095,0.271,0.153,0.429,0.174c0.156,0.021,0.303,0.035,0.43,0.035
			c0.159,0,0.323-0.015,0.496-0.035c0.172-0.021,0.313-0.046,0.429-0.075c0.071,0.174,0.122,0.359,0.15,0.561
			c0.03,0.2,0.052,0.388,0.065,0.56c-0.203,0.07-0.426,0.12-0.678,0.149c-0.252,0.028-0.484,0.044-0.701,0.044
			c-0.299,0-0.6-0.035-0.903-0.098c-0.302-0.063-0.569-0.187-0.808-0.364c-0.236-0.18-0.426-0.424-0.568-0.733
			c-0.146-0.308-0.215-0.714-0.215-1.214V3.487z"/>
		<path fill="#C4E7F2" d="M141.432,19.562c-0.816,0-1.531-0.148-2.148-0.441c-0.617-0.295-1.132-0.699-1.541-1.216
			c-0.408-0.517-0.713-1.125-0.914-1.829c-0.202-0.701-0.301-1.453-0.301-2.258c0-0.803,0.099-1.557,0.301-2.26
			c0.201-0.704,0.506-1.313,0.914-1.83c0.409-0.516,0.924-0.921,1.541-1.214c0.617-0.295,1.332-0.443,2.148-0.443
			c0.818,0,1.533,0.148,2.143,0.443c0.609,0.293,1.118,0.698,1.527,1.214c0.41,0.517,0.719,1.126,0.928,1.83
			c0.207,0.703,0.31,1.457,0.31,2.26c0,0.805-0.103,1.557-0.31,2.258c-0.209,0.704-0.518,1.312-0.928,1.829
			c-0.409,0.517-0.918,0.921-1.527,1.216C142.965,19.413,142.25,19.562,141.432,19.562z M141.432,18.314
			c1.146,0,2.006-0.401,2.572-1.205c0.567-0.804,0.854-1.901,0.854-3.292c0-1.394-0.286-2.49-0.854-3.293
			c-0.566-0.804-1.426-1.207-2.572-1.207s-2.002,0.403-2.572,1.207c-0.564,0.803-0.846,1.899-0.846,3.293
			c0,1.391,0.281,2.488,0.846,3.292C139.43,17.913,140.285,18.314,141.432,18.314z"/>
		<path fill="#C4E7F2" d="M151.342,9.533h-1.871c-0.013-0.069-0.027-0.162-0.031-0.279c-0.01-0.114-0.01-0.227-0.01-0.343
			c0-0.117,0-0.221,0.01-0.323c0.004-0.101,0.019-0.188,0.031-0.258h1.871V6.264l1.334-1.312h0.086V8.33h2.971
			c0.013,0.069,0.026,0.157,0.035,0.258c0.003,0.103,0.008,0.206,0.008,0.323c0,0.116-0.005,0.229-0.008,0.343
			c-0.009,0.117-0.022,0.21-0.035,0.279h-2.971v7.145c0,0.36,0.047,0.643,0.141,0.852c0.092,0.206,0.215,0.369,0.365,0.482
			c0.15,0.115,0.323,0.191,0.518,0.228c0.191,0.033,0.391,0.056,0.593,0.056c0.5,0,0.937-0.066,1.311-0.196
			c0.1,0.373,0.173,0.773,0.214,1.206c-0.514,0.157-1.117,0.236-1.807,0.236c-0.814,0-1.48-0.219-1.988-0.657
			c-0.51-0.438-0.766-1.148-0.766-2.142V9.533z"/>
	</g>
	<g>
		<g>
			<linearGradient id="SVGID_1_" gradientUnits="userSpaceOnUse" x1="24.7456" y1="0.1006" x2="20.0492" y2="26.7351">
				<stop  offset="0" style="stop-color:#52B7E8"/>
				<stop  offset="1" style="stop-color:#0984C2"/>
			</linearGradient>
			<path fill="url(#SVGID_1_)" d="M30.871,3.583c-1.635-2.013-3.959-3.267-6.538-3.528c-0.063-0.009-0.13-0.009-0.194-0.016
				C23.869,0.019,23.598,0,23.332,0c-0.023,0-0.044,0.006-0.064,0.006c-0.294,0-0.588,0.021-0.878,0.049
				c-3.448,0.337-6.491,2.509-7.913,5.73c-0.199,0.446-0.379,0.908-0.489,1.381c-0.44,1.949-1.628,7.582-2.613,12.275
				c-0.062,0.293-0.126,0.588-0.186,0.874c-0.062,0.296-0.122,0.585-0.182,0.87c-0.315,1.52-0.597,2.856-0.798,3.814l10.105-3.814
				l2.141-0.809l3.529-1.336c3.853-1.094,6.604-4.366,7.01-8.339C33.262,8.125,32.508,5.594,30.871,3.583z M23.343,13.572
				c-0.11,0-0.216-0.011-0.323-0.016c-0.256-0.021-0.506-0.068-0.747-0.138c-0.261-0.077-0.505-0.175-0.735-0.296
				c-1.225-0.65-2.058-1.935-2.058-3.413c0-1.707,1.106-3.151,2.643-3.662c0.247-0.082,0.505-0.145,0.774-0.167
				c0.146-0.021,0.297-0.033,0.446-0.033c0.106,0,0.212,0.008,0.314,0.018c1.985,0.161,3.544,1.819,3.544,3.845
				C27.201,11.845,25.477,13.572,23.343,13.572z"/>
		</g>
		<linearGradient id="SVGID_2_" gradientUnits="userSpaceOnUse" x1="10.0708" y1="-4.2285" x2="5.7524" y2="20.2624">
			<stop  offset="0" style="stop-color:#52B7E8"/>
			<stop  offset="1" style="stop-color:#0984C2"/>
		</linearGradient>
		<path fill="url(#SVGID_2_)" d="M12.002,7.108c0.129-0.577,0.311-1.181,0.548-1.721c0.021-0.048,0.089-0.206,0.103-0.234
			c0.945-2.143,2.504-3.891,4.412-5.074H9.678C4.34,0.079,0,4.419,0,9.754c0,5.237,4.186,9.512,9.385,9.667
			C10.34,14.878,11.512,9.321,12.002,7.108z"/>
	</g>
</g>
</svg>
