<?xml version="1.0" encoding="utf-8"?>
<!-- Generator: Adobe Illustrator 16.0.3, SVG Export Plug-In . SVG Version: 6.00 Build 0)  -->
<!DOCTYPE svg PUBLIC "-//W3C//DTD SVG 1.1//EN" "http://www.w3.org/Graphics/SVG/1.1/DTD/svg11.dtd">
<svg version="1.1" xmlns="http://www.w3.org/2000/svg" xmlns:xlink="http://www.w3.org/1999/xlink" x="0px" y="0px" width="175px"
	 height="175px" viewBox="0 0 175 175" enable-background="new 0 0 175 175" xml:space="preserve">
<g id="Layer_8">
</g>
<g id="BG">
</g>
<g id="Footer">
</g>
<g id="Boxes">
</g>
<g id="Layout">
</g>
<g id="swatches">
</g>
<g id="notes">
</g>
<g id="Layer_11">
</g>
<g id="Overlay">
</g>
<g id="Header">
</g>
<g id="Modal">
</g>
<g id="Fold">
	<g>
		<circle fill="#E5F4FC" cx="87.5" cy="87.5" r="64.871"/>
	</g>
	<g>
		<g>
			<path fill="#1EA6E6" d="M91.276,71.576l47.323-3.835c2.183-0.134,4.078,0.482,5.677,1.847c1.608,1.363,2.524,3.134,2.739,5.309
				l2.736,33.767c0.138,2.18-0.481,4.073-1.848,5.677c-1.357,1.606-3.13,2.52-5.305,2.737l-6.711,0.544
				c0,0,1.713,7.348,3.927,11.594c-13.558,0.229-25.023-9.884-25.023-9.884l-19.516,1.582c-2.228,0.139-4.136-0.478-5.744-1.844
				c-1.609-1.36-2.517-3.13-2.733-5.304l-2.738-33.767c-0.135-2.182,0.478-4.073,1.845-5.68
				C87.272,72.715,89.057,71.8,91.276,71.576z"/>
		</g>
		<path fill="#E5F4FC" d="M133.626,97.522c1.419-0.154,2.562-0.741,3.424-1.764c0.866-1.016,1.243-2.257,1.125-3.723
			c-0.119-1.463-0.69-2.615-1.706-3.458c-1.014-0.845-2.234-1.212-3.658-1.097c-1.422,0.115-2.575,0.682-3.467,1.702
			c-0.886,1.02-1.271,2.24-1.155,3.662c0.114,1.424,0.685,2.577,1.702,3.468C130.909,97.197,132.159,97.601,133.626,97.522z"/>
		<path fill="#E5F4FC" d="M117.305,98.846c1.416-0.155,2.564-0.745,3.425-1.765c0.866-1.013,1.242-2.257,1.123-3.722
			c-0.118-1.461-0.688-2.616-1.704-3.459c-1.013-0.844-2.238-1.212-3.657-1.097c-1.423,0.116-2.581,0.683-3.467,1.703
			c-0.881,1.019-1.267,2.237-1.15,3.661c0.114,1.424,0.679,2.576,1.694,3.468C114.597,98.519,115.839,98.926,117.305,98.846z"/>
		<path fill="#E5F4FC" d="M100.983,100.17c1.415-0.155,2.564-0.745,3.426-1.767c0.865-1.015,1.242-2.254,1.123-3.72
			c-0.119-1.464-0.689-2.616-1.704-3.461c-1.014-0.844-2.238-1.211-3.658-1.096c-1.423,0.116-2.579,0.684-3.459,1.701
			c-0.888,1.02-1.274,2.239-1.158,3.663c0.116,1.422,0.676,2.577,1.702,3.468C98.274,99.842,99.518,100.247,100.983,100.17z"/>
		<g>
			<g>
				<path fill="#4FB7E8" d="M98.988,49.841c1.618,1.809,2.377,3.972,2.28,6.483l-2.213,38.933c-0.188,2.508-1.186,4.568-2.998,6.179
					c-1.814,1.619-3.992,2.38-6.559,2.278L67,102.438c0,0-12.522,12.735-29.6,15.882c4.849-8.648,5.276-17.266,5.276-17.266
					l-7.736-0.439c-2.511-0.187-4.576-1.188-6.18-3.001c-1.619-1.807-2.384-3.968-2.288-6.481L28.686,52.2
					c0.188-2.507,1.192-4.568,3.006-6.183c1.8-1.616,3.963-2.375,6.479-2.282l54.56,3.097C95.291,47.029,97.37,48.032,98.988,49.841
					z"/>
			</g>
			<path fill="#FFFFFF" d="M48.987,76.371c1.146-1.055,1.77-2.398,1.862-4.037c0.094-1.642-0.384-3.034-1.433-4.182
				c-1.054-1.15-2.395-1.771-4.038-1.863c-1.641-0.095-3.036,0.363-4.177,1.362c-1.146,0.998-1.771,2.342-1.868,4.027
				c-0.096,1.689,0.373,3.107,1.398,4.252c1.02,1.15,2.351,1.798,3.99,1.935C46.412,77.917,47.839,77.415,48.987,76.371z"/>
			<path fill="#FFFFFF" d="M67.805,77.439c1.144-1.054,1.763-2.397,1.854-4.038c0.094-1.641-0.384-3.032-1.425-4.181
				c-1.051-1.15-2.398-1.769-4.036-1.862c-1.639-0.094-3.038,0.362-4.18,1.36c-1.146,1.001-1.771,2.342-1.865,4.028
				c-0.098,1.691,0.371,3.108,1.396,4.251c1.02,1.152,2.356,1.797,3.99,1.938C65.229,78.985,66.647,78.483,67.805,77.439z"/>
			<path fill="#FFFFFF" d="M86.612,78.507c1.159-1.052,1.771-2.397,1.864-4.035c0.093-1.64-0.386-3.034-1.435-4.184
				c-1.041-1.148-2.387-1.769-4.027-1.861c-1.638-0.094-3.039,0.363-4.178,1.361c-1.146,0.999-1.773,2.343-1.866,4.029
				c-0.097,1.691,0.371,3.108,1.396,4.25c1.02,1.152,2.355,1.798,3.991,1.937C84.046,80.056,85.465,79.554,86.612,78.507z"/>
		</g>
	</g>
</g>
<g id="Reference">
</g>
</svg>
