<?xml version="1.0" encoding="utf-8"?>
<!-- Generator: Adobe Illustrator 16.0.0, SVG Export Plug-In . SVG Version: 6.00 Build 0)  -->
<!DOCTYPE svg PUBLIC "-//W3C//DTD SVG 1.1//EN" "http://www.w3.org/Graphics/SVG/1.1/DTD/svg11.dtd">
<svg version="1.1" id="Layer_1" xmlns="http://www.w3.org/2000/svg" xmlns:xlink="http://www.w3.org/1999/xlink" x="0px" y="0px"
	 width="19.346px" height="19.822px" viewBox="0 0 19.346 19.822" enable-background="new 0 0 19.346 19.822" xml:space="preserve">
<g id="BG">
</g>
<g id="Layout">
</g>
<g id="Footer">
</g>
<g id="Header">
</g>
<g id="Menus">
</g>
<g id="Layer_11">
</g>
<g id="_x39_60x670">
</g>
<g id="icons">
</g>
<path fill="#6DC3EC" d="M19.345,4.912c-0.064,0.084-6.431,8.435-6.431,14.91h-0.13H9.678h-0.13c0-4.828-3.534-10.691-5.362-13.401
	L0,9.103L1.993,0l8.677,2.268L6.917,4.672c1.201,1.781,3.021,4.748,4.315,8.047c2.029-5.169,5.35-9.521,5.55-9.781L19.345,4.912z"/>
</svg>
