<?xml version="1.0" encoding="utf-8"?>
<!-- Generator: Adobe Illustrator 16.0.0, SVG Export Plug-In . SVG Version: 6.00 Build 0)  -->
<!DOCTYPE svg PUBLIC "-//W3C//DTD SVG 1.1//EN" "http://www.w3.org/Graphics/SVG/1.1/DTD/svg11.dtd">
<svg version="1.1" id="Layer_1" xmlns="http://www.w3.org/2000/svg" xmlns:xlink="http://www.w3.org/1999/xlink" x="0px" y="0px"
	 width="350px" height="390px" viewBox="0 0 350 390" enable-background="new 0 0 350 390" xml:space="preserve">
<g>
	<path fill="#F58045" d="M175.709,174.328c-4.156,0.882-9.093,1.46-12.064-1.462c-6.882-6.81,0.054-20.469,1.483-27.999
		c-6.581,5.384-10.273,19.064-8.941,27.011c1.558,9.281,19.314,10.726,22.794,1.679C178.013,173.782,176.9,174.076,175.709,174.328z
		"/>
	<g>
		<path opacity="0.2" fill="#52B7E8" d="M342.787,184.359c0,92.67-75.117,167.793-167.789,167.793
			c-92.663,0-167.786-75.123-167.786-167.793c0-92.66,75.123-167.787,167.786-167.787C267.67,16.572,342.787,91.699,342.787,184.359
			z"/>
	</g>
	<path fill="#B86C2A" d="M119.024,139.855c3.225-3.279,7.094-4,12.63-5.114c5.328-1.076,5.476-4.72,8.497,2.853
		c2.459,6.146,0.778,14.761,0.272,20.915c-0.976,11.842-0.082,20.457-9.155,19.658c-17.618-1.548-22.414-20.797-15.407-33.859
		C116.863,142.432,117.906,140.991,119.024,139.855z"/>
	<path fill="#B86C2A" d="M238.616,139.855c-3.225-3.279-7.094-4-12.628-5.114c-5.33-1.076-5.485-4.72-8.507,2.853
		c-2.453,6.146-0.776,14.761-0.264,20.915c0.972,11.842,0.075,20.457,9.154,19.658c17.614-1.548,22.412-20.797,15.405-33.859
		C240.77,142.432,239.729,140.991,238.616,139.855z"/>
	<path fill="#B2BBC2" d="M122.931,166.302c-2.123-14.857-6.18-25.464-9.989-47.4c-7.118-40.941,29.77-66.228,67.295-65.792
		c30.422,0.354,48.3,13.924,57.767,29.818c9.472,15.893,10.147,30.316,7.318,43.758c-0.884,4.197-3.009,11.492-3.753,16.948
		c4.638-5.96-4.733,9.935-6.858,23.377C226.929,171.963,144.862,175.5,122.931,166.302z"/>
	<path fill="#CCD8DE" d="M138.333,83.184c-0.128-0.578-0.694-0.934-1.252-0.954c-6.562-0.254-5.048-6-2.567-9.865
		c0.202-0.314-0.226-0.566-0.478-0.368c-2.777,2.175-6.102,7.333-2.755,10.607c1.791,1.752,4.751,1.287,4.841,4.049
		c0.13,3.914-2.281,7.22,0.172,10.78c0.408,0.598,1.494,0.62,1.665-0.218C138.836,92.917,139.303,87.481,138.333,83.184z"/>
	<path fill="#CCD8DE" d="M147.857,96.305c-3.107-2.065-3.677-8.219-2.899-12.152c0.374-1.896,0.562-4.333-0.696-5.826
		c-1.685-1.995-5.306-0.772-4.265-5.136c0.658-2.761,1.09-5.314,0.542-8.113c-0.054-0.264-0.346-0.174-0.368,0.058
		c-0.326,3.531-3.465,7.933-2.603,11.646c0.992,4.283,6.412,1.098,4.847,8.323c-0.888,4.125-0.05,14.511,5.286,12.614
		C148.229,97.533,148.364,96.641,147.857,96.305z"/>
	<path fill="#CCD8DE" d="M153.914,90.765c-1.021-2.539-2.729-5.479-1.521-8.493c0.24-0.6,0.576-1.305,0.544-1.991
		c-0.092-1.845-0.63-2.765-1.769-4.005c-0.658-0.708-1.526-1.222-2.279-1.767c-1.685-1.21-1.792-5.322-2.221-7.353
		c-0.082-0.368-0.542-0.372-0.616,0c-0.462,2.285-1.16,5.68-0.1,7.877c1.244,2.577,4.938,2.921,3.563,7.296
		c-1.36,4.335,2.509,13.088,4.954,16.113c0.534,0.658,1.541,0.182,1.517-0.764C155.924,95.076,154.848,93.1,153.914,90.765z"/>
	<path fill="#CCD8DE" d="M164.607,94.208c-1.809-1.433-3.983-2.219-4.885-4.518c-0.851-2.175-0.557-4.833-0.524-7.114
		c0.046-3.567-0.502-7.597-3.471-9.909c-0.302-0.238-0.79,0.058-0.564,0.432c2.947,4.839,0.996,10.155,1.452,15.447
		c0.338,3.883,3.151,7.608,7.351,7.216C164.653,95.696,165.305,94.752,164.607,94.208z"/>
	<path fill="#CCD8DE" d="M168.566,89.258c-1.873-2.485-3.949-4.956-4.939-7.953c-0.132-0.406-0.765-0.35-0.756,0.104
		c0.032,2.639,0.94,4.793,2.381,6.974c0.896,1.363,1.866,2.667,2.739,4.042c0.874,1.382,1.342,2.953,2.187,4.341
		c0.508,0.831,1.873,0.508,1.855-0.5C171.985,93.598,170.111,91.307,168.566,89.258z"/>
	<path fill="#CCD8DE" d="M233.707,95.762c-4.025,1.995-5.246,4.654-4.87,9.061c0.337,3.965,0.064,7.283-2.553,10.547
		c-2.036,2.545-5.134,3.839-7.446,6.052c-1.032,0.986,0.021,2.829,1.396,2.407c4.254-1.314,8.259-4.959,9.936-9.115
		c1.04-2.579,1.452-4.92,1.192-7.691c-0.412-4.407-1.265-7.06,2.933-10.257C234.879,96.318,234.396,95.426,233.707,95.762z"/>
	<path fill="#CCD8DE" d="M236.972,100.512c-0.02-0.18-0.264-0.184-0.28,0c-0.243,3.117-0.487,6.244-0.728,9.379
		c-0.381,5.018-3.161,7.466-6.891,10.301c-3.493,2.655-6.25,5.472-6.466,10.031c-0.08,1.717,2.477,1.989,2.929,0.396
		c1.784-6.266,7.022-7.942,10.275-13.016C239.177,112.348,237.628,106.292,236.972,100.512z"/>
	<path fill="#CCD8DE" d="M241.27,113.952c-0.024-0.244-0.372-0.252-0.389,0c-0.576,9.637-14.616,14.389-13.752,24.054
		c0.107,1.21,1.561,1.65,2.265,0.612c1.34-1.985,2.057-4.293,3.337-6.338c1.457-2.321,3.474-4.211,5.014-6.468
		C240.393,121.927,241.766,118.66,241.27,113.952z"/>
	<path fill="#CCD8DE" d="M240.529,126.367c-1.532,2.688-3.47,5.104-5.438,7.484c-1.665,2.013-3.945,3.937-5.042,6.328
		c-0.484,1.064,0.6,2.601,1.776,1.778c2.253-1.57,3.854-4.215,5.414-6.446c1.889-2.689,3.381-5.552,4.449-8.657
		C241.93,126.165,240.877,125.75,240.529,126.367z"/>
	<path fill="#CCD8DE" d="M137.82,122.717c-1.759-3.711-3.363-7.564-6.854-9.925c-1.853-1.249-4.281-1.769-6.254-2.783
		c-2.765-1.421-3.537-4.718-4.077-7.525c-0.128-0.658-1.028-0.426-1.086,0.15c-0.466,4.542,0.816,7.915,4.877,10.121
		c2.929,1.591,5.934,2.125,7.938,5.09c1.482,2.188,2.011,4.505,4.284,6.042C137.422,124.412,138.154,123.425,137.82,122.717z"/>
	<path fill="#CCD8DE" d="M118.902,113.034c-0.138-0.208-0.46-0.026-0.412,0.206c0.76,3.741,3.956,5.828,6.922,8.021
		c1.606,1.185,3.153,2.389,4.436,3.891c1.484,1.743,2.121,3.976,3.603,5.692c0.446,0.512,1.515,0.31,1.482-0.51
		C134.579,121.441,123.182,119.338,118.902,113.034z"/>
	<path fill="#CCD8DE" d="M125.994,126.626c-0.848-0.814-1.714-1.517-2.731-2.103c-0.952-0.548-2.252-0.778-3.129-1.437
		c-0.07-0.054-0.144,0.068-0.07,0.122c0.736,0.558,1.218,1.59,1.807,2.297c0.798,0.964,1.646,1.827,2.522,2.719
		c0.814,0.836,1.557,1.739,2.235,2.689c0.6,0.838,0.893,1.402,1.963,1.497c0.362,0.036,0.628-0.264,0.744-0.566
		C130.04,130.016,127.157,127.737,125.994,126.626z"/>
	<path fill="none" stroke="#A15F26" stroke-miterlimit="10" d="M144.862,215.12c0,17.008,10.612,54.474,31.834,55.889
		c21.223,1.416,37.384-36.264,35.319-60.58C209.951,186.114,144.862,173.378,144.862,215.12z"/>
	<path fill="#A15F26" d="M144.862,215.828c0,17.008,10.612,54.475,31.834,55.887c21.223,1.419,37.384-36.264,35.319-60.58
		C209.951,186.82,144.862,174.084,144.862,215.828z"/>
	<path fill="#CCD8DE" d="M203.329,79.163c-0.2-0.581-1.017-0.346-0.908,0.246c0.712,3.905-0.82,6.482-3.537,9.107
		c-1.533,1.477-4.065,3.339-4.082,5.625c-0.004,0.634,0.641,1.148,1.261,0.96c2.517-0.766,4.781-4.558,6.206-6.708
		C204.173,85.517,204.425,82.386,203.329,79.163z"/>
	<path fill="#CCD8DE" d="M207.214,73.569c-0.056-0.096-0.212-0.054-0.208,0.058c0.088,3.485,0.74,6.873,0.921,10.339
		c0.22,4.262-1.921,7.491-3.474,11.248c-0.524,1.264,1.309,2.097,2.169,1.262C212.932,90.325,211.075,80.461,207.214,73.569z"/>
	<path fill="#CCD8DE" d="M213.504,73.607c-0.016-0.02-0.056,0-0.044,0.024c1.389,4.824,1.881,9.379,0.797,14.313
		c-1.028,4.682-4.038,7.818-6.234,11.854c-0.648,1.196,0.692,2.717,1.933,1.929C218.706,96.163,219.842,81.213,213.504,73.607z"/>
	<path fill="#CCD8DE" d="M221.999,79.979c-0.012-0.022-0.052-0.014-0.052,0.014c-0.072,3.715,0.388,7.298-0.408,10.976
		c-0.496,2.327-1.604,4.41-3.193,6.16c-1.396,1.53-3.409,2.002-4.701,3.541c-0.336,0.408-0.276,1.174,0.344,1.294
		c4.277,0.824,7.53-4.208,8.855-7.628C224.512,90.028,224.5,83.948,221.999,79.979z"/>
	<path fill="#CCD8DE" d="M139.437,98.243c-2.613-0.724-4.455-1.334-5.998-3.711c-1.229-1.891-1.839-4.171-2.519-6.302
		c-0.148-0.452-0.672-0.853-1.167-0.66c-2.033,0.778-1.683-1.19-2.857-2.347c-0.486-0.48-1.326,0.14-0.956,0.736
		c0.574,0.913,0.266,2.475,1.124,3.209c0.708,0.61,1.458,0.645,2.259,0.479c1.329,5.014,3.729,11.558,10.113,10.301
		C140.323,99.776,140.243,98.463,139.437,98.243z"/>
	<path fill="#F7981D" d="M290.174,319.424c-3.249-8.661-3.113-22.947-15.138-44.879c-16.693-16.525-36.735-26.721-56.298-32.947
		c-4.134,4.304-8.427,8.485-13.037,12.431c-7.074,4.247-14.148,9.905-22.635,8.488c-16.363-1.256-31.596-12.596-35.761-30.02
		c-2.037,0.088-3.829,0.196-5.271,0.306c-18.394,1.417-65.087,29.008-75.271,39.869c-4.527,8.739-12.698,31.515-17.512,47.388
		c-9.301,30.654,104.106,53.848,127.445,53.36C210.659,372.713,299.093,343.17,290.174,319.424z"/>
	<path fill="#5D2828" d="M144.862,215.12c2.121,9.195,16.27,40.325,29.714,45.983c-12.736-0.706-13.444,2.125-19.811,9.905
		c-6.366,7.782-6.366,7.782-8.491,11.319c-2.119,3.537-7.074,4.954-9.195-0.708c-2.123-5.66-10.612-29.712-11.32-35.374
		c-0.708-5.659-2.121-12.025,3.539-19.1c5.658-7.076,11.318-17.688,19.809-19.809C155.284,205.791,144.862,215.12,144.862,215.12z"
		/>
	<path fill="#5D2828" d="M211.716,219.885c-3.045,8.895-20.035,38.213-33.547,42.31c12.292,0.745,13.304,3.636,19.354,12.093
		c6.051,8.456,6.051,8.456,8.051,12.21c2.001,3.757,6.782,5.726,8.936,0.344c2.145-5.382,10.815-28.313,12.116-33.857
		c1.3-5.544,3.356-11.707-1.297-19.38s-8.919-18.856-16.83-21.932C202.74,209.434,211.716,219.885,211.716,219.885z"/>
	<path fill="#BD793F" d="M231.174,150.738c3.537,14.151,2.137,21.335-2.12,31.839c-6.427,15.807-13.737,27.589-23.196,38.911
		c-6.754,14.857-13.452,13.9-26.328,14.15c-13.534,0.255-20.962,0-27.042-14.15c-1.761-2.274-5.51-5.288-8.115-8.847
		c-10.372-14.169-23.842-36.935-17.196-55.535c-2.833-24.052-1.685-30.718,7.074-41.033c1.741-2.045-3.125-23.672-0.708-25.469
		c5.614-4.169,20.515,3.537,36.788,1.415c24.503-3.195,31.129-9.901,52.353-0.706c1.864,6.452,3.537,23.344,3.537,23.344
		S236.836,129.514,231.174,150.738z"/>
	<path fill="#B86C2A" d="M166.173,180.452c-5.55-0.708-9.519-5.304-3.587-11.496c5.934-6.188,5.934-6.188,5.934-6.188l1.668-17.736
		c0,0-4.976-4.902-0.198-7.737c4.778-2.827,11.039-1.414,14.548,0.71c3.509,2.125,0.188,7.781,0.188,7.781s2.396,13.44,2.497,17.688
		c4.913,2.827,9.604,8.489,8.579,12.264c-1.417,5.188-6.715,3.189-6.715,3.189s-2.776,4.354-7.618,4.354
		C176.624,183.281,171.119,184.7,166.173,180.452z"/>
	<path fill="#945123" d="M171.877,145.111c-0.068-0.404-0.692-0.457-0.826-0.078c-1,2.909-1.506,5.938-2.039,8.985
		c-0.524,2.983-1.721,6.886-0.514,9.755c0.344,0.81,1.188,0.886,1.65,0.154c1.532-2.418,1.344-6.314,1.639-9.211
		C172.122,151.481,172.434,148.342,171.877,145.111z"/>
	<g>
		<path fill="#38221C" d="M215.608,148.686c-2.328,0.864-4.037-1.19-6.189-1.477c-0.072-0.01-0.132,0.004-0.196,0.006
			c-1.841-1.435-4.098-2.135-6.538-2.423c-2.697-0.32-7.351-0.234-8.387,2.997c-0.824,2.593,1.797,5.516,4.373,3.593
			c0.993-0.74,2.605-0.756,4.13-0.616c1.881,0.172,4.293,0.23,6.05,0.912c0.78,0.302,1.593,0.022,2.081-0.512
			c2.044,0.601,4.489,0.264,5.426-1.506C216.605,149.188,216.193,148.47,215.608,148.686z"/>
		<path fill="#38221C" d="M150.34,144.562c-2.997,0.354-5.706,1.334-7.721,3.521c-0.906,0.082-1.831,0.344-2.727,0.394
			c-0.586,0.034-1.157-0.112-1.739-0.112c-1.018,0-1.44,0.472-2.281-0.504c-0.062-0.076-0.174,0.046-0.088,0.108
			c0.754,0.554,1.125,1.07,1.495,1.918c0.248,0.562,1.336,0.792,1.848,0.95c0.904,0.274,2.053,0.375,3.117,0.232
			c0.498,0.438,1.216,0.652,1.925,0.374c1.756-0.678,4.169-0.74,6.048-0.91c1.528-0.142,3.141-0.122,4.131,0.616
			c2.577,1.922,5.198-1,4.372-3.591C157.693,144.324,153.031,144.242,150.34,144.562z"/>
	</g>
	<path fill="#9A5E2D" d="M205.317,158.643c-2.601-1.014-5.693-1.016-8.395-1.849c-3.558-1.098-4.798-2.793-6.878-5.612
		c-0.269-0.364-0.812-0.336-0.961,0.126c-1.028,3.183,2.309,5.866,4.762,7.141c3.021,1.578,8.183,2.581,11.472,1.364
		C205.901,159.602,205.886,158.865,205.317,158.643z"/>
	<path fill="#9A5E2D" d="M160.586,153.529c-1.545,0.134-2.535,1.447-3.87,2.161c-1.338,0.714-3.135,0.849-4.622,0.893
		c-0.494,0.012-0.752,0.734-0.266,0.976c1.777,0.895,3.397,0.944,5.278,0.362c1.757-0.546,3.965-1.692,4.224-3.641
		C161.38,153.899,160.952,153.5,160.586,153.529z"/>
	<path fill="#9A5E2D" d="M223.539,151.929c-0.888-1.002-2.044-1.592-3.337-1.882c-0.764-0.17-1.316,0.944-0.552,1.316
		c0.956,0.464,1.881,1.06,2.601,1.854c0.62,0.688,0.856,2.153,1.837,2.381c0.308,0.072,0.536-0.056,0.72-0.292
		C225.572,154.308,224.18,152.657,223.539,151.929z"/>
	<path fill="#9A5E2D" d="M226.196,149.018c-0.736-1.017-2.076-1.717-3.357-1.715c-0.8,0-0.756,1.128,0,1.217
		c0.881,0.096,1.805,0.866,2.525,1.33C225.86,150.167,226.561,149.518,226.196,149.018z"/>
	<path fill="#9A5E2D" d="M157.959,171.201c-1.885,1.42-2.695,4.105-3.793,6.134c-1.515,2.793-3.547,5.375-6.594,6.562
		c-0.988,0.386-0.62,1.807,0.442,1.601c3.001-0.584,4.974-2.325,6.786-4.708c1.752-2.303,4.206-5.898,4.489-8.827
		C159.349,171.333,158.475,170.809,157.959,171.201z"/>
	<path fill="#945123" d="M162.842,177.841c-0.284-0.22-0.534-0.466-0.712-0.742c-1.363-2.125-0.25-6.64,0.63-8.857
		c-2.429,0.046-4.353,3.179-5.171,5.16c-1.812,4.401,3.257,8.439,7.228,5.698C164.269,178.72,163.473,178.335,162.842,177.841z"/>
	<path fill="#945123" d="M187.275,176.935c-1.444,2.401-4.638,3.521-7.803,3.807c-4.106,0.37-9.096-1.756-12.819-3.377
		c1.778,4.54,6.302,6.69,10.867,7.132c3.649,0.352,7.902-0.456,10.779-2.847c1.244-1.035,1.98-1.853,2.041-3.633
		c0.063-1.945-2.229-3.203-2.277-4.377C188.116,174.938,187.819,176.031,187.275,176.935z"/>
	<path fill="#9A5E2D" d="M148.67,202.803c-2.281-4.936-3.583-9.15-1.733-14.41c0.164-0.474-0.44-0.937-0.85-0.66
		c-7.778,5.27,2.395,17.914,5.218,23.157c0.016,0.024,0.05,0.01,0.054-0.018C151.475,207.889,149.932,205.539,148.67,202.803z"/>
	<path fill="#9A5E2D" d="M206.894,185.004c-4.093-5.414-9.431-9.963-11.512-16.629c-0.056-0.166-0.344-0.2-0.376,0
		c-0.748,4.381,2.173,8.219,4.729,11.49c2.237,2.867,4.726,5.51,6.866,8.457c1.957,2.689,2.541,5.654,3.821,8.601
		c0.112,0.257,0.557,0.253,0.669,0C212.932,192.844,209.23,188.091,206.894,185.004z"/>
	<path fill="#9A5E2D" d="M207.519,204.094c-4.014,4.691-6.522,10.966-11.908,14.465c-0.12,0.082-0.016,0.248,0.108,0.191
		c2.74-1.206,4.961-3.038,6.954-5.231c2.253-2.48,4.985-5.56,5.813-8.856C208.618,204.128,207.914,203.636,207.519,204.094z"/>
	<path fill="#945123" d="M196.19,171.005c-0.76-1.623-1.9-2.881-3.957-2.731c1.4,1.807,1.477,3.883,1.444,6.088
		c-0.028,1.767-1.097,2.865-2.869,2.613c-2.257-0.318-3.237,3.131-0.956,3.455C195.254,181.194,198.631,176.211,196.19,171.005z"/>
	<g>
		<defs>
			<path id="SVGID_1_" d="M177.576,205.626c-9.462,0.282-24.957-1.146-28.988-12.484c10.113,7.926,18.206-0.662,28.996,5.442
				c12.152-6.126,19.562,3.163,31.715-5.782C202.877,205.212,192.434,205.182,177.576,205.626z"/>
		</defs>
		<clipPath id="SVGID_2_">
			<use xlink:href="#SVGID_1_"  overflow="visible"/>
		</clipPath>
		<g clip-path="url(#SVGID_2_)">
			<path fill="#952221" d="M137.564,205.439c-0.808-2.474-2.385-23.344,1.21-22.586c3.604,0.766,66.083-8.631,69.084-7.969
				c3.013,0.641,10.14,16.746,8.519,24.032c-1.62,7.271-25.736,33.805-33.139,36.036
				C175.814,237.161,150.16,244.959,137.564,205.439z"/>
			<path fill="#F15F60" d="M202.324,219.157c-1.616,7.251-15.957,15.273-26.216,13.461c-13.118-2.335-22.661-9.182-21.05-16.43
				c1.608-7.212,13.64-11.594,26.86-9.739C195.162,208.282,203.929,211.926,202.324,219.157z"/>
			<path fill="#FEFDEE" d="M142.902,179.394c1.254,5.362,0.47,12.25,0.6,17.784c6.172,14.128,44.438,14.742,72.815,3.085
				l-0.328-12.763L142.902,179.394z"/>
			<path fill="#FEFDEE" d="M206.966,223.155c3.573-3.655,7.858-7.267,5.99-11.146c-2.741-5.724-12.601-6.199-15.602,0.774
				c1.497,2.381,1.265,4.361-0.288,5.893c-5.798,1.536-12.932,3.041-19.73,3.513c-6.799-0.472-13.933-1.977-19.735-3.513
				c-1.556-1.531-1.78-3.512-0.282-5.893c-3.009-6.974-12.864-6.498-15.605-0.774c-1.864,3.88,2.421,7.491,5.992,11.146l1.264,4.533
				c2.735,0.958,5.298,1.729,7.783,2.421c4.902,1.62,11.474,3.415,20.583,3.253c9.111,0.162,15.682-1.633,20.579-3.253
				c2.489-0.692,5.054-1.463,7.782-2.421L206.966,223.155z"/>
		</g>
	</g>
	<path fill="#A36C3C" d="M222.731,139.947c-0.961-6.812-7.69-11.846-14.725-11.5c-7.639,0.378-12.192,5.338-19.479,5.602
		c0.172,3.439,2.917,7.316,6.441,5.878c15.121-6.164,18.654-10.413,27.714,3.679C222.888,142.328,222.892,141.102,222.731,139.947z"
		/>
	<path fill="#A36C3C" d="M131.9,139.215c4.881-17.864,15.933-10.408,34.093-3.109c-1.4,6.825-13.975,1.223-17.764-0.72
		c-2.046-0.628-4.123-1.102-6.338-1.35c-4.317-0.482-5.382,3.915-8.857,6.054C132.455,140.445,131.72,139.863,131.9,139.215z"/>
	<path fill="#9A5E2D" d="M224.168,185.406c0-0.082-0.12-0.098-0.137-0.018c-2.345,9.463-7.851,16.505-12.016,25.04
		c-0.452,0.918,0.616,1.727,1.389,1.072C220.595,205.42,224.472,194.641,224.168,185.406z"/>
	<path fill="#9A5E2D" d="M145.447,210.008c-1.479-3.913-3.743-7.343-5.836-10.941c-2.611-4.5-4.231-9.321-5.2-14.411
		c-0.04-0.2-0.308-0.128-0.326,0.044c-1.104,9.367,4.751,18.654,10.253,25.774C144.716,210.968,145.711,210.71,145.447,210.008z"/>
	<path fill="#A36C3C" d="M192.146,110.695c-9.663,2.517-18.476,1.739-28.23,0.358c-7.05-0.998-14.337-1.486-21.195,0.707
		c-0.07,0.026-0.062,0.15,0.02,0.14c16.443-2.075,33.772,6.072,49.637-0.353C192.897,111.339,192.709,110.549,192.146,110.695z"/>
	<path fill="#A36C3C" d="M207.03,103.021c-9.115,1.544-17.742,1.818-26.777-0.457c-0.088-0.022-0.124,0.106-0.036,0.136
		c8.979,2.905,17.818,3.363,26.989,0.958C207.626,103.549,207.446,102.951,207.03,103.021z"/>
	<path fill="#CCD8DE" d="M198.579,77.82c-0.236,0.236-0.472,0.472-0.708,0.707c-0.064,0.066,0.036,0.166,0.096,0.102
		c0.24-0.234,0.477-0.472,0.709-0.707C198.743,77.856,198.644,77.756,198.579,77.82z"/>
	<path fill="#E28726" d="M171.155,286.193c-0.438-4.585-0.957-9.167-1.278-13.765c-0.234-3.341,0.372-6.172-1.301-9.12
		c-0.504-0.895-1.606-0.707-2.148,0c-3.607,4.711-0.982,13.346,0.004,18.792c1.765,9.753,3.221,19.294,3.163,29.233
		c0,0.036,0.042,0.036,0.054,0.008C172.992,303.287,171.967,294.69,171.155,286.193z"/>
	<path fill="#E28726" d="M177.24,269.76c-1.054-1.15-3.034-0.251-3.018,1.248c0.004,0.528,0.048,1.078,0.13,1.626
		c-0.118,0.154-0.226,0.335-0.292,0.574c-0.142,0.521,0.008,0.963,0.22,1.425c0.072,0.145,0.146,0.284,0.21,0.428
		c-0.132-0.292,0.048,0.36,0.036,0.192c0.144,1.812,2.79,1.896,2.906,0.122c0.479-0.336,0.836-0.893,0.836-1.536
		c0.004-0.183-0.028-0.358-0.088-0.522c0.032-0.082,0.068-0.164,0.096-0.244C178.725,271.875,178.017,270.608,177.24,269.76z"/>
	<path fill="#E28726" d="M180.842,287.93c-0.004-0.011-0.009-0.011-0.013-0.015c-0.008-0.027-0.016-0.065-0.036-0.124
		c-0.092-0.324-0.184-0.644-0.268-0.97c-0.101-0.362-0.192-0.723-0.28-1.083c-0.04-0.158-0.076-0.315-0.104-0.472
		c-0.009-0.038-0.013-0.061-0.021-0.08c0-0.01,0-0.015,0-0.028c-0.096-1.2-1.776-1.887-2.425-0.654
		c-0.48,0.919-1.344,2.457-0.748,3.453c-0.252,0.404-0.32,0.925-0.24,1.393c0,0.032,0.008,0.061,0.012,0.09
		c0.116,0.704,0.853,1.081,1.489,1.137c0.403,0.028,0.775-0.088,1.1-0.326c-0.188,0.138,0.553-0.068,0.625-0.088
		C180.785,289.915,181.449,288.734,180.842,287.93z"/>
	<path fill="#E28726" d="M180.926,301.188c-0.104-0.092-0.208-0.162-0.316-0.22c-0.048-0.446-0.156-0.9-0.309-1.362
		c-0.527-1.621-3.032-1.375-3.021,0.408c0.008,1.31-0.052,2.622,0.18,3.913c0.145,0.802,1.037,1.112,1.733,0.982
		c0.071-0.011,0.144-0.026,0.216-0.038c0.016-0.002,0.02-0.002,0.036-0.006c0.012,0,0.023,0,0.056-0.002
		c0.477-0.034,0.916-0.219,1.16-0.658c0.216-0.383,0.393-0.791,0.549-1.203C181.43,302.411,181.434,301.636,180.926,301.188z"/>
	<path fill="#E28726" d="M186.823,264.644c0-0.26-0.356-0.294-0.432-0.062c-2.438,7.14,0.896,14.725,1.128,21.989
		c0.021,0.569,0.809,0.672,0.977,0.134C190.937,278.991,186.812,272.344,186.823,264.644z"/>
	<path fill="#E28726" d="M73.205,271.15c0.1-0.563-0.643-0.954-0.958-0.403c-6.15,10.646-8.339,24.107-2.265,35.277
		c0.312,0.57,1.371,0.35,1.289-0.351C69.842,293.555,71.16,283.086,73.205,271.15z"/>
	<path fill="#E28726" d="M273.32,276.432c-0.192-0.44-0.889-0.206-0.877,0.236c0.32,11.157-3.053,21.049-5.989,31.614
		c-0.261,0.934,1.008,1.414,1.516,0.642C274.068,299.572,277.974,287.122,273.32,276.432z"/>
	<path fill="#E28726" d="M271.308,334.505c-3.962-2.463-7.415-4.62-9.84-8.773c-0.488-0.84-1.648-1.414-2.612-1.062
		c-3.39,1.239-5.426,3.289-7.318,6.328c-1.533,2.461-2.394,6.286-6.299,5.67c-3.068-0.485-5.201-4.983-6.586-7.31
		c-3.573-5.984-8.599-12.669-15.609-6.484c-3.312,2.921-5.905,6.474-8.49,10.027c-1.652,2.274-3.277,4.251-5.33,6.182
		c-4.653,4.378-8.734,3.049-13.044-0.568c-6.418-5.392-11.933-17.352-21.046-9.643c-3.639,3.074-6.526,6.96-9.415,10.719
		c-3.231,4.204-7.208,7.849-11.84,3.271c-2.939-2.905-5.556-6.588-6.98-10.479c-2.549-6.99-9.585-3.719-13.925,0.522
		c-1.993,1.95-3.641,4.273-5.564,6.304c-4.211,4.436-8.835,2.354-12.784-0.994c-4.489-3.812-7.922-8.479-12.854-11.824
		c-3.045-2.061-6.276-1.69-9.283,0.101c-2.217,1.316-4.095,3.421-5.92,5.188c-0.308,0.296-5.994,5.569-5.924,5.79
		c-0.056-0.172-0.344-0.15-0.326,0.042c0.024,0.292,0.05,0.58,0.074,0.87c0.012,0.14,0.108,0.262,0.262,0.26
		c2.185-0.016,6.106-4.539,7.353-5.525c3.779-2.987,7.184-7.068,12.274-4.174c3.067,1.743,5.634,5.164,7.918,7.811
		c6.236,7.239,13.723,12.961,22.105,5.353c1.566-1.425,11.068-13.312,12.544-8.602c1.621,5.152,5.394,9.768,9.173,13.537
		c7.765,7.75,15.827-3.319,20.396-8.917c2.151-2.642,4.294-5.14,7.284-6.854c3.077-1.765,4.865,2.322,6.727,4.298
		c3.356,3.566,8.187,9.028,13.096,10.517c9.627,2.922,15.993-6.712,20.959-13.374c1.877-2.519,3.897-5.071,6.431-6.977
		c3.253-2.448,5.59,2.312,6.962,4.607c2.305,3.865,4.394,7.627,8.291,10.088c8.935,5.655,11.283-6.65,16.517-10.506
		c2.894,4.124,7.175,8.009,12.381,6.454C271.92,336.118,272.063,334.975,271.308,334.505z"/>
	<path fill="#E28726" d="M121.907,331.46c-0.022-0.03-0.064-0.088-0.104-0.143c0.39-0.61,0.37-1.42-0.196-1.984
		c-0.312-0.318-0.802-0.484-1.292-0.542c-0.048-0.092-0.102-0.179-0.15-0.271c-0.054-0.094-0.102-0.192-0.154-0.292
		c-0.088-1.889-3.203-1.562-2.727,0.442c0.026,0.107,0.072,0.22,0.104,0.328c0.034,0.502,0.084,1,0.166,1.498
		c-0.188,0.591-0.166,1.253,0.162,1.898c0.344,0.688,0.946,1.148,1.54,1.601c0.554,0.421,1.349,0.158,1.965,0.064
		C122.505,333.857,122.547,332.258,121.907,331.46z"/>
	<path fill="#E28726" d="M163.995,333.573c-0.182-0.612-0.276-1.263-0.43-1.885c-0.098-0.392-0.2-0.784-0.291-1.178
		c-0.042-0.171-0.08-0.341-0.12-0.513c-0.018-0.086-0.034-0.174-0.052-0.262c0-0.004,0,0,0-0.008
		c-0.08-1.019-1.354-1.771-2.155-0.891c-0.266,0.29-0.514,0.586-0.75,0.886c-0.616,0.093-1.181,0.421-1.539,1.035
		c-0.51,0.87-0.34,2.166,0.47,2.811c0.136,0.271,0.292,0.578,0.17,0.39c0.298,0.463,0.766,1.113,1.287,1.371
		c0.85,0.428,1.502,0.315,2.363,0.092C163.727,335.217,164.227,334.351,163.995,333.573z"/>
	<path fill="#E28726" d="M141.255,343.984c-0.256-0.492-0.833-0.764-1.396-0.764c-0.402-0.666-0.902-1.36-1.612-1.568
		c-0.973-0.288-1.657,0.523-1.753,1.395c-0.05,0.478,0.362,0.906,0.6,1.282c0.04,0.069,0.094,0.114,0.144,0.176
		c-0.008,0.004-0.018,0.008-0.024,0.014c-0.74,0.545-1.256,1.221-1.256,2.191c0,1.028,0.764,2.276,1.865,2.444
		c0.004,0,0.012,0.004,0.014,0.004c1.062,0.162,2.017-0.107,2.626-0.852c0.917-0.354,1.292-1.267,1.033-2.107
		C141.658,345.458,141.618,344.682,141.255,343.984z"/>
	<path fill="#E28726" d="M182.346,343.17c-0.032-1.07-1.16-1.745-2.112-1.213c-0.088,0.05-0.172,0.106-0.261,0.158
		c-1.107-0.052-1.968,1.034-2.072,2.091c-0.028,0.069-0.072,0.122-0.104,0.196c-0.129,0.361-0.173,0.726-0.196,1.105
		c-0.004,0.017-0.004,0.011-0.004,0.024c-0.028,0.162-0.08,0.309-0.08,0.484c0,0.078,0.004,0.128,0.008,0.178
		c-0.024,0.024-0.048,0.059-0.08,0.12c-0.344,0.67,0.348,1.44,1.036,1.07c0.601,1.619,3.149,1.589,3.585-0.17
		C182.406,345.845,182.397,344.569,182.346,343.17z"/>
	<path fill="#E28726" d="M208.37,326.598c-0.872-0.174-1.572,0.059-2.341,0.45c0,0,0,0.004-0.004,0.004
		c-0.436-0.149-0.916-0.119-1.252,0.221c-0.965-0.066-1.969,0.452-2.465,1.302c-0.429,0.732-0.412,1.541-0.188,2.323
		c-0.04,0.308,0.004,0.61,0.12,0.895c0.013,0.042,0.024,0.078,0.036,0.12c0.024,0.046,0.052,0.088,0.08,0.134
		c0.152,0.316,0.368,0.586,0.652,0.79c0.024,0.044,0.048,0.092,0.076,0.134c0.728,1.211,2.465,1.479,3.477,0.446
		c0.028-0.029,0.057-0.06,0.089-0.09c0.151-0.01,0.312-0.02,0.472-0.02c1,0.01,1.585-0.931,1.404-1.843
		c-0.004-0.01-0.008-0.022-0.008-0.03c0.604-0.582,1.248-1.187,1.465-1.999C210.291,328.267,209.623,326.848,208.37,326.598z"/>
	<path fill="#E28726" d="M231.662,338.917c0.792-1.145-0.76-2.639-1.893-1.893c-0.452,0.286-0.88,0.606-1.312,0.914
		c-1.013,0.019-2.101,0.53-2.797,1.074c-0.868,0.679-1.312,1.599-1.053,2.705c0.049,0.212,0.101,0.425,0.148,0.637
		c0.356,1.524,2.713,2.339,3.762,0.994c0.243-0.309,0.472-0.624,0.704-0.937c0.107,0.028,0.216,0.064,0.328,0.088
		c0.708,0.16,1.376-0.752,0.756-1.292c-0.032-0.026-0.06-0.057-0.088-0.082c0.108-0.19,0.208-0.382,0.32-0.566
		C230.882,339.999,231.286,339.46,231.662,338.917z"/>
	<path fill="#E28726" d="M248.908,321.523c-1.181,0.718-3.054,1.423-3.058,3.075c0,0.386,0.192,0.802,0.477,1.15
		c0.008,0.006,0.016,0.014,0.023,0.021c0.316,0.374,0.753,0.658,1.201,0.683c0.008,0.004,0.023,0.01,0.031,0.016
		c0.104,0.057,0.076,0.042,0.028-0.021c0.008,0,0.017-0.002,0.028-0.002c0.252,0.42,1,0.504,1.096-0.093
		c0.017-0.08-0.004-0.153-0.004-0.231c1.104-0.572,1.869-2.019,2.097-3.117C251.057,321.923,249.944,320.893,248.908,321.523z"/>
	<path fill="#E28726" d="M262.553,339.953c-0.229-0.608-0.937-0.778-1.489-0.52c-0.212,0.096-0.476,0.202-0.74,0.324
		c-0.696,0.119-1.316,0.401-1.868,0.981c-0.54,0.57-0.568,1.467,0,2.031c0.604,0.604,1.416,0.486,2.032,0
		c0.028-0.022,0.068-0.028,0.104-0.05c0.112,0.155,0.304,0.246,0.504,0.1c0.156-0.112,0.236-0.248,0.288-0.386
		c0.068-0.009,0.137-0.032,0.212-0.04c0.673-0.061,1.417-0.566,1.345-1.347C262.896,340.595,262.801,340.247,262.553,339.953z"/>
	<path fill="#E28726" d="M273.996,326.449c-0.032-0.166-0.04-0.162-0.024,0.012c-0.02-0.178-0.031-0.358-0.056-0.536
		c-0.036-0.278-0.088-0.562-0.132-0.84c0.176-0.917-0.632-1.733-1.581-1.823c-0.504-0.052-1.056,0.311-1.336,0.782
		c-0.216,0.15-0.437,0.294-0.656,0.437c-0.601,0.388-1.196,0.766-1.749,1.214c-0.892,0.721-0.66,2.253,0.509,2.549
		c0.372,0.093,0.788,0.068,1.164-0.056c0.056,0.328,0.204,0.637,0.48,0.853c1.061,0.826,2.553,0.664,3.221-0.603
		C274.181,327.777,274.152,327.157,273.996,326.449z"/>
	<path fill="#E28726" d="M100.6,343.238c-0.178-1.406-0.066-2.893-0.076-4.312c-0.016-1.296-1.376-1.986-2.479-1.42
		c-0.038,0.018-0.088,0.04-0.13,0.06c-0.418,0.048-0.81,0.244-1.114,0.572c-0.3,0.185-0.57,0.395-0.732,0.683
		c-0.342,0.6-0.278,1.164,0,1.59c-0.028,1.349,0.462,2.771,1.289,3.676c0.172,0.274,0.426,0.502,0.722,0.656
		c0.07,0.042,0.144,0.076,0.224,0.104c0.192,0.072,0.382,0.116,0.574,0.116c0.188,0,0.382-0.044,0.572-0.116
		c0.082-0.027,0.154-0.062,0.226-0.104C100.238,344.449,100.684,343.882,100.6,343.238z"/>
	<path fill="#E28726" d="M81.28,330.728c-0.06-0.408-0.118-0.814-0.178-1.223c-0.074-0.506-0.072-0.626-0.102-1.192
		c-0.078-1.414-1.925-1.618-2.401-0.33c-0.394,0.038-0.778,0.206-1.108,0.464c-0.636,0.498-0.67,1.379-0.548,2.105
		c0.236,1.422,1.57,2.729,2.891,2.15c0.12-0.019,0.238-0.036,0.354-0.054C81.104,332.516,81.39,331.484,81.28,330.728z"/>
	<path fill="#E28726" d="M130.234,268.769c-6-2.028-14.309,0.051-20.673-0.13c-8.749-0.244-18.296-1.326-26.111-5.651
		c-0.266-0.145-0.578,0.226-0.332,0.436c5.888,5.034,12.408,7.152,20.125,8.113c7.641,0.948,20.197,2.705,27.195-1.203
		C131.12,269.956,130.91,268.998,130.234,268.769z"/>
	<path fill="#E28726" d="M255.126,261.841c-4.817,2.274-9.479,4.636-14.601,6.182c-5.582,1.685-11.376,1.732-17.134,2.185
		c-0.881,0.07-1.12,1.312-0.212,1.575c11.18,3.203,24.239-0.704,33.562-7.171C258.451,263.425,256.994,260.958,255.126,261.841z"/>
	<path fill="#E28726" d="M93.164,259.035c-0.634-0.673-1.604-0.621-2.431-0.442c-0.685,0.14-1.215,0.698-1.675,1.185
		c-0.6,0.632-0.704,1.514-0.294,2.274c0.326,0.608,0.68,1.148,1.116,1.683c0.386,0.482,1.114,0.568,1.672,0.444
		c0.22-0.051,0.428-0.104,0.619-0.17c0.878,0.107,1.862-0.395,2.083-1.314C94.568,261.365,94.084,260.008,93.164,259.035z"/>
	<path fill="#E28726" d="M103.453,262.809c-0.152-0.088-0.326-0.124-0.504-0.155c-0.002-0.044-0.004-0.091-0.008-0.137
		c-0.044-0.836-1.053-1.668-1.859-1.064c-0.794,0.595-2.066,1.227-2.143,2.341c-0.07,1.005,0.79,1.139,1.557,1.051
		c0.028,0.054,0.042,0.11,0.074,0.162c0.656,1.059,1.977,0.88,2.785,0.162c0.022-0.01,0.034-0.017,0.098-0.05
		c0.304-0.179,0.576-0.524,0.642-0.877C104.213,263.662,103.975,263.116,103.453,262.809z"/>
	<path fill="#E28726" d="M111.319,260.752c-0.128,0.116-0.212,0.265-0.282,0.412c-0.292,0.185-0.586,0.354-0.853,0.583
		c-0.196,0.164-0.34,0.346-0.456,0.538c-0.33,0.172-0.638,0.388-0.888,0.658c-0.767,0.826-0.842,1.862-0.404,2.853
		c0.274,0.616,1.16,1.206,1.861,1.114c0.766-0.098,1.444-0.346,1.854-1.05c0.062-0.104,0.13-0.271,0.184-0.435
		c0.008-0.004,0.01-0.004,0.014-0.008c-0.004,0.014-0.006,0.028-0.01,0.038c0.004-0.012,0.01-0.024,0.016-0.042
		c0.176-0.104,0.34-0.234,0.504-0.364c0.542-0.418,0.67-1.194,0.729-1.822c0.01-0.103-0.004-0.198-0.02-0.288
		c0.116-0.248,0.216-0.501,0.27-0.753C114.138,260.663,112.48,259.73,111.319,260.752z"/>
	<path fill="#E28726" d="M112.34,265.457C112.294,265.598,112.274,265.695,112.34,265.457L112.34,265.457z"/>
	<path fill="#E28726" d="M126.499,262.889c0.208-0.946-0.312-2.022-1.19-2.427c-0.47-0.542-1.176-0.832-2.101-0.554
		c-0.578,0.174-1.057,0.564-1.312,1.103c-0.016,0.016-0.034,0.029-0.052,0.042c-0.032,0.012-0.062,0.029-0.094,0.04
		c-0.692,0.298-1.345,0.66-1.993,1.038c-1.225,0.714-1.497,2.975,0,3.604c0.296,0.128,0.588,0.266,0.882,0.403
		c0.258,0.383,0.634,0.69,1.164,0.909c0.811,0.33,1.759-0.118,2.323-0.692c0.524-0.528,0.922-1.243,1.235-1.973
		c0.004,0,0.006-0.004,0.01-0.004c0.256-0.042,0.43-0.175,0.57-0.339c0.012-0.004,0.028-0.008,0.042-0.01
		C126.51,263.886,126.679,263.314,126.499,262.889z"/>
	<path fill="#E28726" d="M232.627,262.335c-0.181-1.095-1.665-1.869-2.505-0.866c-0.024,0.034-0.04,0.054-0.053,0.072
		c-0.02,0.004-0.052,0.012-0.092,0.023c-0.34,0.104-0.616,0.254-0.889,0.477c-0.228,0.189-0.372,0.436-0.472,0.702
		c0,0.008-0.004,0.012-0.008,0.018c-0.072,0.206-0.128,0.423-0.148,0.648c-0.26,0.198-0.504,0.408-0.732,0.62
		c-0.607,0.568-0.704,1.555-0.292,2.263c0.536,0.912,1.648,1.133,2.557,0.67c0.585-0.3,1.197-0.72,1.609-1.26
		c0.08-0.072,0.16-0.122,0.235-0.192c0.568-0.532,0.988-1.229,1.188-1.965C233.163,263.047,232.967,262.605,232.627,262.335z"/>
	<path fill="#E28726" d="M239.989,259.31c-0.673,0.656-1.192,1.479-1.709,2.297c-0.668,0.076-1.349,0.324-1.66,0.986
		c-0.364,0.79-0.393,1.793,0.319,2.427c0.152,0.141,0.32,0.278,0.501,0.382c0.195,0.097,0.392,0.183,0.596,0.261
		c0.568,0.084,0.708,0.102,0.429,0.052c1.016,0.154,1.948-0.242,2.269-1.29c0.044-0.143,0.088-0.282,0.136-0.425
		c0.048-0.149,0.096-0.304,0.152-0.454c-0.124,0.36,0.104-0.218,0.14-0.29c0.196-0.384,0.4-0.766,0.612-1.145
		c0.092-0.168,0.196-0.33,0.3-0.494c0.032-0.052,0.072-0.105,0.108-0.159C243.458,259.997,241.409,257.926,239.989,259.31z"/>
	<path fill="#E28726" d="M251.137,260.92c0.236-0.382,0.176-0.936-0.141-1.244c-0.02-0.021-0.039-0.042-0.056-0.058
		c0.024-0.08,0.061-0.156,0.068-0.238c0.22-1.433-1.324-2.559-2.501-1.459c-0.656,0.614-1.148,1.549-0.904,2.438
		c-0.056,0.242-0.096,0.486-0.104,0.744c-0.016,0.908,0.881,1.515,1.721,1.309c0.172-0.038,0.332-0.114,0.484-0.192
		c-0.444,0.23-0.096,0.046,0.152,0.021c0.324-0.034,0.652-0.059,0.972-0.12C251.369,262.023,251.497,261.279,251.137,260.92z"/>
	<path fill="#E28726" d="M122.639,255.435c-2.987-1.339-6.142-1.272-9.397-1.37c-4.798-0.145-9.583-0.379-14.365-0.78
		c-0.85-0.072-1.002,1.262-0.2,1.464c3.631,0.929,7.256,1.453,10.974,1.877c4.137,0.47,8.719,1.389,12.794,0.328
		C123.089,256.784,123.317,255.739,122.639,255.435z"/>
	<path fill="#E28726" d="M243.91,251.76c-2.608-0.104-5.094,1.224-7.671,1.685c-3.057,0.546-6.218,0.55-9.311,0.742
		c-0.616,0.038-0.761,0.897-0.148,1.084c4.942,1.482,14.085,2.603,17.73-2.053C244.967,252.646,244.711,251.79,243.91,251.76z"/>
	<path fill="#9A5E2D" d="M211.243,183.405c-1.517-1.71-4.161-2.463-6.142-3.573c-2.153-1.207-4.262-2.511-6.406-3.741
		c-0.116-0.072-0.26,0.068-0.184,0.186c1.26,2.065,2.828,3.621,4.781,5.032c2.053,1.482,4.741,3.557,7.366,3.513
		C211.407,184.81,211.716,183.939,211.243,183.405z"/>
	<path fill="#9A5E2D" d="M130.48,178.054c-4.468-9.491-3.175-18.29-0.208-27.947c0.08-0.256-0.282-0.484-0.462-0.268
		c-6.956,8.141-7.807,20.955-0.194,28.883C130.072,179.2,130.736,178.594,130.48,178.054z"/>
	<path fill="#9A5E2D" d="M227.697,150.705c-0.057-0.07-0.16-0.012-0.124,0.072c2.225,4.806,2.673,10.171,1.912,15.343
		c-0.664,4.498-3.257,8.295-4.169,12.668c-0.185,0.869,0.892,1.649,1.568,0.915C233.931,172.038,233.699,158.621,227.697,150.705z"
		/>
</g>
</svg>
