{
    "splashHead": "landing.HEAD_1",
    "splashSub": "landing.SUBHEAD_1",
    "dd1Actn": "activities.EVENTS",
    "dd1Copy": "landing.EVENT_TEXT_A",
    "dd2Actn": "activities.TANDEM_PARTNERS",
    "dd2Copy": "tandem.TANDEM-COPY_1",
    "dd3Actn": "activities.TEACHERS",
    "dd3Copy": "landing.TEACHER-INTRO_TEXT",
    "regionsHead": "landing.CHOOSE_LANGUAGE",
    "hiwHead": "landing.ROOT-SLIDE_HEAD_1",
    "hiw1Actn": "misc.CHOOSE_ACTN",
    "hiw1Copy": "landing.CHOOSE_LANG_LOC",
    "hiw2Actn": "misc.FIND_ACTN",
    "hiw2Copy": "landing.TANDEM_SPEAKS_LEARN",
    "hiw3Actn": "misc.MEET_UP_ACTN",
    "hiw3Copy": "landing.PRACTICE_LOC_BY",
    "videoHead": "landing.SEARCHABLE_SKILLS"
}