{
    "source": "profile",
    "prefix": "INTEREST-",
    "topics": [
        "ASPIRE",
        "TRAVEL_MEM",
        "PRFCT_MEAL",
        "PRFCT_LANG",
        "PRFCT_TAND",
        "DATE",
        "LEARN",
        "BOOKS",
        "EXPRESS",
        "MUSIC",
        "DEST",
        "TV_MOV",
        "WORD",
        "HOBBIES"
    ]
}
