{
    "1": {
        "value": "Ask Chatterplot",
        "key": "CONTACT-CAT_ASK"
    },
    "2": {
        "value": "Press Inquiries",
        "key": "CONTACT-CAT_PRESS"
    },
    "3": {
        "value": "Comments",
        "key": "CONTACT-CAT_COMMENT"
    },
    "4": {
        "value": "Support/Feedback",
        "key": "CONTACT-CAT_SUPPORT"
    },
    "5": {
        "value": "Partnerships",
        "key": "CONTACT-CAT_PARTNER"
    },
    "6": {
        "value": "Jobs",
        "key": "CONTACT-CAT_JOBS"
    },
    "7": {
        "value": "Other",
        "key": "CONTACT-CAT_OTHER"
    }
}