<?xml version="1.0" encoding="utf-8"?>
<!-- Generator: Adobe Illustrator 16.0.0, SVG Export Plug-In . SVG Version: 6.00 Build 0)  -->
<!DOCTYPE svg PUBLIC "-//W3C//DTD SVG 1.1//EN" "http://www.w3.org/Graphics/SVG/1.1/DTD/svg11.dtd">
<svg version="1.1" id="Layer_1" xmlns="http://www.w3.org/2000/svg" xmlns:xlink="http://www.w3.org/1999/xlink" x="0px" y="0px"
	 width="256.199px" height="173.128px" viewBox="0 0 256.199 173.128" enable-background="new 0 0 256.199 173.128"
	 xml:space="preserve">
<g>
	<path fill="#A8DEF9" d="M228.32,45.165c0.356,0.4,0.992,0.107,0.923-0.404c-0.03-0.243-0.231-0.501-0.347-0.697
		c-0.567-0.973-1.188-1.884-1.969-2.716c-1.712-1.878-3.934-3.104-6.427-3.582c-2.404-0.464-5.147-0.192-7.444,0.629
		c-1.477,0.458-4.021,1.122-4.56,2.805c-0.621,1.939,1.408,3.772,3.284,2.948c0.629-0.28,1.177-0.816,1.76-1.183
		c0.995-0.648,2.059-1.168,3.149-1.574c2.176-0.801,4.846-0.979,6.964,0.034C225.574,42.081,227.044,43.696,228.32,45.165z"/>
	<path fill="#A8DEF9" d="M180.262,49.307c0.233-0.189,0.342-0.617,0.473-0.863c0.524-0.948,1.105-1.796,1.777-2.653
		c1.148-1.267,2.649-2.234,4.386-2.391c1.932-0.178,3.81,0.454,5.479,1.402c1.328,0.789,3.002,1.124,3.961-0.464
		c1.015-1.712-0.28-3.205-1.865-3.731c-2.123-0.706-4.44-1.095-6.683-0.71c-4.765,0.774-7.21,4.488-8.367,8.858
		C179.285,49.262,179.889,49.632,180.262,49.307z"/>
	<path fill="#A8DEF9" d="M194.025,58.801c0.623-2.466-1.596-8.532-4.737-5.324c-0.147,0.147-0.28,0.305-0.403,0.467
		c-0.604,0.389-1.538,0.647-2.172,0.445c-0.302-0.088-0.559,0.324-0.269,0.508c0.524,0.331,1.055,0.62,1.61,0.717
		C186.847,60.058,192.399,65.183,194.025,58.801z"/>
	<path fill="#A8DEF9" d="M213.983,50.329c-4.667,4.755,2.977,13.435,4.958,5.585c0.244-0.937,0.092-2.368-0.364-3.657
		c0.957-0.078,1.373-0.594,1.928-1.34c0.086-0.11-0.049-0.289-0.179-0.212c-0.491,0.273-1.245,0.234-1.778,0.093
		c-0.364-0.097-0.676-0.289-0.997-0.47C216.655,49.238,215.407,48.87,213.983,50.329z"/>
	<path fill="#A8DEF9" d="M197.263,64.422c-0.312,0.43-0.545,0.913-0.667,1.453c-0.147,0.039-0.275,0.135-0.364,0.298
		c-1.538,3.058,2.834,4.926,4.989,4.941c2.328,0.033,6.814-1.592,7.305-4.415c0.036-0.158-0.124-0.278-0.253-0.18
		c-1.884,1.426-3.708,2.501-6.105,2.585c-0.997,0.032-1.969-0.033-2.911-0.409c-0.575-0.239-0.843-0.673-1.056-1.156
		c0.275-1.01,0.627-2.049,0.992-3.11c0.029-0.036,0.054-0.066,0.09-0.09c0.197-0.177,0.248-0.446,0.175-0.675
		c1.383-4.138,2.712-8.519,1.178-12.545c-0.084-0.217-0.45-0.146-0.434,0.103c0.188,3.214-0.097,6.015-1.236,8.989
		C198.415,61.602,197.774,62.991,197.263,64.422z"/>
	<path fill="#A8DEF9" d="M180.286,37.812c-0.043,0.018-0.018,0.088,0.021,0.071C180.359,37.865,180.329,37.793,180.286,37.812z"/>
	<path fill="#A8DEF9" d="M217.821,48.724l0.007,0.038C217.852,48.761,217.846,48.718,217.821,48.724z"/>
	<path fill="#A8DEF9" d="M199.657,16.421c-0.021-0.18-0.268-0.177-0.305-0.008c-1.354,6.151,3.896,8.943,8.947,10.725
		c3.495,1.234,7.571,1.923,11.456,2.997c1.722,0.94,3.508,1.663,5.295,2.067c0.13,0.03,0.24,0.013,0.34-0.022
		c1.673,0.814,3.215,1.821,4.534,3.131c0.386,0.384,0.853-0.21,0.627-0.606c-1.612-2.816-4.398-4.486-7.655-5.67
		c-1.711-1.075-3.549-2-5.218-3.074c-2.978-1.916-5.782-4.254-8.177-6.87c-0.386-0.422-0.997,0.036-0.704,0.521
		c1.524,2.59,3.734,5.157,6.304,7.319C207.757,25.267,200.601,23.635,199.657,16.421z"/>
	<path fill="#A8DEF9" d="M178.296,23.692c-0.021-0.061-0.12-0.043-0.11,0.021c0.558,4.695,3.069,7.786,6.57,9.656
		c-0.627,0.874-1.018,1.95-1.531,2.877c-0.757,1.369-1.529,2.718-2.413,4.012c-0.515,0.757,0.59,1.457,1.149,0.782
		c0.998-1.199,1.947-2.445,2.758-3.78c0.566-0.93,1.323-2.032,1.59-3.156c8.278,3.353,20.719,1.015,27.27-3.159
		c0.552-0.35,0.283-1.402-0.426-1.273C202.296,31.63,183.293,38.593,178.296,23.692z"/>
	<path fill="#A8DEF9" d="M208.622,88.812c9.245-0.542,14.798-9.389,16.396-17.609c0.26-1.337-2.06-1.81-2.351-0.481
		c-0.3,1.364-0.676,2.71-1.139,4.008c-8.759,2.361-17.175,6.868-26.448,4.442c-1.07-1.583-1.996-3.263-2.79-4.89
		c-0.079-0.165-0.321-0.071-0.294,0.101C193.312,82.677,199.977,89.322,208.622,88.812z M220.813,76.51
		c-2.129,4.844-5.66,8.764-11.325,10.023c-6.18,1.376-10.705-2.17-13.965-6.738C203.318,82.521,213.416,80.315,220.813,76.51z"/>
	<path fill="#A8DEF9" d="M192.343,72.571c-0.285-0.134-0.478,0.303-0.24,0.477c9.426,6.821,22.114,0.272,31.537-3.386
		c1.19-0.462,0.301-2.215-0.877-1.767C213.255,71.503,202.445,77.355,192.343,72.571z"/>
	<path fill="#A8DEF9" d="M169.778,26.69c0.539,0.111,1.189-0.05,1.577-0.425c0.039-0.038,0.072-0.084,0.103-0.133
		c-0.177,1.85,0.057,3.874,0.063,5.43c0.01,2.062,0.204,4.125,0.233,6.188c0.013,0.848,0.534,2.229,0.396,3.042
		c-0.004,0.026,0.035,0.031,0.043,0.01c0.284-0.754,0.783-1.136,1.041-2.025c0.48-1.646,0.469-3.479,0.604-5.179
		c0.171-2.157,0.197-4.322,0.354-6.479c0.07-0.968,0.233-1.861,0.21-2.76c0.248,0.526,0.611,0.999,1.148,1.179
		c0.188,0.062,0.439,0.037,0.584-0.112c0.104-0.107,0.216-0.185,0.322-0.286c0.146-0.141,0.038-0.37-0.134-0.385
		c-0.123-0.735-0.164-1.458-0.127-2.217c0.031-0.617,0.068-1.134-0.332-1.657c-0.024-0.032-0.055-0.059-0.082-0.09
		c7.701-7.334,18.306-11.347,29.3-12.667c5.991-0.722,12.164-0.248,17.977,1.314c4.751,1.277,7.856,4.228,11.946,6.236
		c0.187,1.304,0.189,2.679,0.184,3.955c-0.01,1.572-0.334,2.887,0.304,4.375c0.234,0.541,1.087,0.602,1.392,0.095
		c1.407-2.359,0.831-5.46-0.204-8.035c0.438-0.24,0.676-0.821,0.453-1.271c-4.541-9.104-21.98-10.227-31.072-9.562
		c-12,0.876-24.51,5.759-31.826,14.565c-0.262,0.315-0.185,0.677,0.038,0.95c-0.441,0.429-0.483,1.116-0.388,1.781
		c-0.325-0.223-0.842-0.231-1.102,0.052c-0.717,0.78-1.078,1.819-1.252,2.955c-0.165-0.409-0.63-0.704-1.063-0.418
		c-0.244,0.159-0.419,0.45-0.69,0.545c-0.39,0.136-0.611,0.04-0.925-0.215c-0.22-0.18-0.518,0.103-0.315,0.317
		C168.888,26.136,169.266,26.584,169.778,26.69z"/>
	<path fill="#A8DEF9" d="M45.309,44.712c-0.026-0.003-0.027,0.04-0.003,0.039L45.309,44.712z"/>
	<path fill="#A8DEF9" d="M31.604,32.94l-0.699-0.522C30.731,32.839,31.271,33.37,31.604,32.94z"/>
	<path fill="#A8DEF9" d="M65.806,14.264l0.765,0.428C66.798,14.174,66.133,13.797,65.806,14.264z"/>
	<path fill="#A8DEF9" d="M59.51,83.314c8.641-0.591,14.407-8.026,14.664-16.419c0.006-0.175-0.246-0.236-0.305-0.062
		c-0.581,1.713-1.287,3.496-2.148,5.201c-8.892,3.58-17.811,0.178-26.797-1.055c-0.624-1.229-1.167-2.518-1.638-3.834
		c-0.457-1.279-2.696-0.518-2.271,0.775C43.643,75.875,50.27,83.945,59.51,83.314z M71.361,72.712
		c-2.655,4.942-6.696,9.033-12.999,8.453c-5.779-0.532-9.779-3.974-12.504-8.51C53.679,75.491,63.974,76.4,71.361,72.712z"/>
	<path fill="#A8DEF9" d="M42.835,64.355c-1.227-0.295-1.886,1.557-0.648,1.862c9.811,2.438,23.228,7.325,31.713-0.635
		c0.214-0.2-0.032-0.611-0.298-0.442C64.186,71.167,52.723,66.73,42.835,64.355z"/>
	<path fill="#A8DEF9" d="M65.077,7.422c-5.482-0.702-12.812-1.348-16.79,3.324c-0.495,0.583,0.313,1.166,0.859,0.978
		c11.786-4.077,24.159-0.788,35.294,4c0.38,0.164,0.715-0.033,0.896-0.331c0.117,0.773,0.345,1.536,0.512,2.363
		c0.429,2.122,0.73,4.266,1.174,6.383c0.348,1.668,0.567,3.489,1.252,5.061c0.369,0.85,0.913,1.167,1.288,1.879
		c0.012,0.021,0.05,0.01,0.042-0.015c-0.239-0.789,0.104-2.227,0.008-3.07c-0.23-2.05-0.299-4.12-0.552-6.167
		c-0.329-2.684-0.151-6.865-2.39-8.751c-0.398-0.337-1.204-0.083-1.312,0.439c-0.067,0.321-0.091,0.63-0.093,0.934
		c-0.042-0.041-0.075-0.085-0.131-0.118C79.067,10.813,72.05,8.314,65.077,7.422z"/>
	<path fill="#A8DEF9" d="M22.465,14.704c-0.699,2.686-0.88,5.835,0.815,7.996c0.366,0.464,1.206,0.297,1.368-0.27
		c0.443-1.557-0.045-2.818-0.251-4.378c-0.171-1.266-0.34-2.63-0.32-3.947c3.803-2.51,6.508-5.829,11.06-7.699
		c5.567-2.284,11.631-3.536,17.667-3.578c11.143-0.083,22.24,2.583,30.83,8.971c0.813,0.603,1.97-0.623,1.246-1.299
		C76.508,2.691,63.48-0.569,51.465,0.081C42.363,0.574,25.208,3.897,21.856,13.5C21.69,13.974,22.001,14.521,22.465,14.704z"/>
	<path fill="#A8DEF9" d="M62.263,21.116c0.174,0.016,0.626,0.04,0.39-0.123c0.087,0.061,0.224,0.054,0.312,0
		c0.664-0.408,0.543-1.431,0.334-2.129c-0.251-0.831-0.668-2.136-1.64-2.292c-0.349-0.056-0.812,0.156-0.767,0.584
		c0.086,0.824,0.679,1.373,1.062,2.095c0.184,0.346,0.361,0.71,0.452,1.092c0.06,0.245,0.094,0.136,0.086,0.296
		c-0.002,0.029,0.006,0.059,0.009,0.089c-0.08,0.059-0.167,0.102-0.274,0.124C62.069,20.884,62.121,21.102,62.263,21.116z"/>
	<path fill="#A8DEF9" d="M77.911,28.977c0.045,0.461,0.117,0.898,0.183,1.251c0.045,0.239,0.426,0.233,0.475,0
		c0.186-0.858,0.544-1.64,0.773-2.479c0.127-0.459,0.335-0.891,0.314-1.38c-0.024-0.536-0.595-0.714-0.982-0.406
		c-0.212,0.168-0.359,0.388-0.48,0.627c-1.266-2.391-4.062-4.75-5.68-6.2c-2.491-2.229-5.455-3.973-8.786-2.708
		c-0.243,0.093-0.231,0.506,0.065,0.484c3.413-0.236,6.44,2.27,8.694,4.529C74.256,24.469,75.693,27.774,77.911,28.977z"/>
	<path fill="#A8DEF9" d="M66.94,101.323c0.013-0.368,0.02-0.734,0.024-1.099c3.717,1.933,7.552,3.621,11.301,5.495
		c4.028,2.013,7.849,4.811,12.11,6.264c0.698,0.237,1.259-0.747,0.72-1.238c-3.324-3.023-7.881-4.714-11.937-6.552
		c-3.975-1.801-8.002-3.49-12.189-4.717c0.008-2.407-0.057-4.771,0.403-7.193v-0.001c12.662-4.207,15.671-16.618,16.139-29.517
		c1.964,0.257,4.531-1.066,5.775-2.423c0.69-0.754,1.207-1.546,1.538-2.518c0.185-0.547,0.085-0.929-0.037-1.332
		c3.752-4.242,2.163-13.928-0.406-18.031c-0.435-0.693-1.643-0.538-1.758,0.186c-0.114-6.695-1.957-13.155-6.908-18.156
		c-0.127-0.13-0.322,0.081-0.223,0.219c5.032,7.131,5.479,14.76,5.032,22.83c-0.038,0.063-0.089,0.111-0.11,0.191
		c-0.361,1.395-0.281,2.835-0.201,4.286c-0.014,0.172-0.026,0.342-0.04,0.515c-0.013,0.167,0.028,0.301,0.088,0.42
		c0.044,1.064,0.038,2.129-0.19,3.184c-0.559,2.568-1.37,5.234-2.488,7.631c0.046-5.032-0.207-10.04-0.34-14.579
		c1.516-0.335,2.908-1.547,2.406-2.965c-0.629-1.759-1.71-3.443-3.142-4.803c0.095-0.076,0.158-0.194,0.143-0.37
		c-0.273-3.295-1.523-6.886-2.616-9.995c-0.078-0.223-0.379-0.131-0.345,0.096c0.437,2.984,0.697,6.473,1.745,9.363
		c-1.853-1.383-4.151-2.245-6.758-2.17c-2.32,0.069-4.7,1.206-6.492,2.668c-1.516,1.215-2.768,3.952-0.995,5.546
		c0.695,0.629,1.646,0.867,2.524,0.436c1.206-0.6,2.361-2.123,3.522-2.521c3.802-1.321,5.676,0.973,7.152,3.732
		c0.499,0.927,1.561,1.191,2.609,1.027c-1.336,16.438,0.594,43.532-21.769,45.521c-10.261,0.913-19.039-5.066-24.697-13.278
		c-2.398-3.481-4.634-7.092-6.232-11.005c2.431-1.31,3.825-4.018,4.35-6.776c1.149-6.042,0.17-13.425-3.104-19.099
		c0.216-0.749,0.448-1.492,0.717-2.221c1.723-4.651,4.967-7.235,8.938-9.887c0.164-0.109,0.258-0.244,0.308-0.383
		c1.369-0.325,2.735-0.661,4.11-0.989c2.429-0.577,5.551-0.604,7.679-1.939c0.296-0.187,0.273-0.696-0.103-0.779
		c-0.183-0.04-0.37-0.055-0.556-0.077c-0.113-0.124-0.232-0.248-0.373-0.344c-0.628-0.425-1.255-0.835-1.894-1.242
		c-0.613-0.39-1.207-0.813-1.765-1.28c-0.146-0.122-0.287-0.249-0.429-0.375c2.209-0.296,4.439-0.311,6.671-0.17
		c2.261,0.146,4.551,0.934,6.797,0.614c0.483-0.068,0.54-0.82,0.134-1.024c-2.031-1.021-4.697-0.938-6.931-1.066
		c-2.679-0.153-5.277,0.016-7.807,0.811c-0.24-0.029-0.484,0.048-0.648,0.223c-0.104,0.037-0.209,0.068-0.313,0.107
		c-0.483,0.184-0.331,0.857,0.153,0.823c0.18,0.804,1.045,1.346,1.732,1.764c0.806,0.492,1.643,0.907,2.512,1.239
		c-1.445,0.239-2.902,0.753-4.237,1.092c-1.938,0.49-3.816,1.035-5.661,1.701c-1.758,0.255-3.295,0.924-4.628,1.895l-0.577-0.958
		c-0.335,0.391-0.119,1.048,0.342,1.137c-2.728,2.098-4.567,5.473-5.655,9.105c-1.668-2.195-3.746-4.015-6.278-5.192
		c-0.042-0.019-0.09-0.001-0.117,0.032c1.163-3.589,2.571-7.066,4.587-10.178c3.869-5.957,10.382-9.913,16.839-12.187
		c0.482-0.166,0.2-0.973-0.296-0.898c-13.132,1.958-23.002,12.071-23.824,25.712c-0.658,0.477-1.312,0.96-1.965,1.444
		c0.604-5.465,1.817-10.746,3.133-16.124c0.019-0.073-0.078-0.106-0.107-0.038c-2.378,5.415-5.374,11.436-4.968,17.551
		c-0.946,0.599-2.048,1.201-2.575,2.129c-0.259,0.459-0.04,1.184,0.577,1.187c1.083,0,2.076-0.647,2.967-1.343
		c0.307-0.028,0.591-0.221,0.685-0.547c0.11-0.089,0.219-0.178,0.325-0.262c0.679-0.536,1.294-1.086,1.87-1.675
		c0.015,1.017,0.078,2.049,0.194,3.099c0.014,0.155,0.245,0.183,0.287,0.039c0.704-2.62,1.418-5.268,2.256-7.859
		c0,0.014,0,0.028,0.011,0.043c1.583,2.281,3.141,4.382,4.489,6.536c-0.551,0.41-1.233,0.57-1.878,0.066
		c-0.334-0.261-0.773,0.146-0.476,0.476c0.817,0.901,1.98,0.826,2.808,0.196c1.883,3.151,3.27,6.473,3.568,10.693
		c0.208,2.943,0.126,5.98-0.402,8.886c-0.896,4.909-5.174,4.951-8.555,3.093c0.324-0.248,0.46-0.644,0.436-1.041
		c0.385-0.278,0.724-0.628,0.993-1.034c0.236-0.355,0.399-0.7,0.52-1.047c0.117-0.027,0.226-0.08,0.312-0.172
		c2.297-2.485,2.599-6.398,2.02-10.415c0.444,0.038,0.889,0.076,1.333,0.114c0.586,0.05,1.313,0.124,1.862-0.092
		c0.234-0.092,0.234-0.384,0-0.476c-0.565-0.223-1.26-0.115-1.862-0.092c-0.463,0.018-0.929,0.064-1.393,0.111
		c-0.557-3.49-1.75-7.009-2.879-9.723c0-0.004,0.007-0.002,0.006-0.006c-0.017-0.245-0.108-0.45-0.258-0.596
		c-0.183-0.425-0.363-0.83-0.536-1.203c-0.371-0.797-1.576-0.345-1.431,0.489c0.662,3.823,1.844,7.573,2.249,11.437
		c0.359,3.451-0.696,6.687-0.363,10.028c0.012,0.122,0.066,0.228,0.14,0.318c-0.161,0.23-0.332,0.444-0.513,0.627
		c-0.254,0.258-0.535,0.455-0.824,0.634c-0.232-0.14-0.52-0.205-0.86-0.138c-0.486,0.097-1.017,0.178-1.57,0.236
		c-0.051-0.056-0.109-0.108-0.159-0.165c-0.409-0.469-0.958-0.194-1.163,0.25c-2.006,0.043-4.119-0.319-5.533-1.556
		c6.901-3.244,2.333-14.568-0.146-19.207c-0.083-0.157-0.3-0.04-0.242,0.119c1.198,3.214,1.89,7.367,1.767,10.81
		c-0.076,2.11-0.666,3.845-1.436,5.618c-0.056-2.846-0.689-5.727-0.667-8.59c0.021-2.598,0.301-5.222-0.008-7.807
		c-0.033-0.277-0.496-0.32-0.562-0.039c-1.185,5.162-2.086,13.247,0.189,18.193c0.039,0.085,0.098,0.144,0.163,0.191
		c-0.021,0.046-0.042,0.09-0.063,0.136c-0.224,0.483,0.373,0.859,0.78,0.685c0.013-0.005,0.024-0.012,0.037-0.018
		c0.953,1.301,1.715,2.474,3.356,3.129c0.95,0.38,1.896,0.588,2.854,0.662c1.327,2.783,4.51,3.877,7.75,3.644
		c0.089-0.006,0.172-0.023,0.259-0.032c2.11,5.312,5.231,10.381,8.086,13.791c0.055,0.066,0.115,0.13,0.17,0.196
		c0.249,2.815,0.287,5.645,0.341,8.469c0.032,1.635-0.067,3.317,0.093,4.946c-3.402,1.543-6.68,3.237-9.889,5.062
		c-1.665-9.17-1.368-18.883,0.033-28.223c0.073-0.492-0.58-0.689-0.754-0.207c-3.256,9.071-3.618,19.693-1.514,29.729
		c-1.834,1.09-3.657,2.21-5.464,3.393c-4.43,2.901-10.181,6.318-13.598,10.711c-0.286-0.177-0.65-0.187-0.914,0.122
		c-4.003,4.707-3.745,13.666-4.155,19.701c-0.26,3.825-0.268,7.665-0.083,11.53c0.098,2.058-0.07,5.203,1.412,6.944
		c0.031,0.037,0.097,0.046,0.117-0.004c0.511-1.38,0.198-3.131,0.151-4.625c-0.121-3.962,0.225-7.916,0.525-11.827
		c0.49-6.382,2.473-12.53,3.187-18.811c5.818-3.245,10.801-8.604,16.335-12.427c1.03-0.712,2.057-1.417,3.082-2.122
		c1.894,7.429,5.152,14.424,9.605,20.086c5.089,6.471,12.392,11.217,18.788,16.273c6.483,5.126,13.944,10.93,15.488,19.544
		c0.099,0.553,0.902,0.307,0.828-0.229c-1.945-14.125-18.188-22.528-27.815-31.125c-8.033-7.173-12.592-16.232-14.771-26.021
		c3.238-2.259,6.412-4.575,9.438-7.162c0.118,0.982,0.338,1.943,0.758,2.856c0.159,0.348,0.615,0.368,0.893,0.167
		c3.373,9.201,11.162,19.642,20.869,22.386c0.633,0.18,1.235-0.707,0.677-1.161c-3.944-3.205-8.368-5.515-12.087-9.105
		c-3.667-3.541-6.883-7.857-9.256-12.402c0.002-0.01,0.009-0.018,0.011-0.027c0.644-2.93,0.005-6.251-0.109-9.248
		c-0.071-1.885-0.276-3.701-0.696-5.483c6.154,6.598,14.476,11.676,23.846,10.636c1.727-0.191,3.31-0.508,4.783-0.919
		c-0.703,2.809-1.045,5.798-0.948,8.678C65.273,102.42,66.902,102.419,66.94,101.323z M83.786,60.442
		c2.474-2.113,4.158-4.559,4.772-7.809c0.472-2.501,0.986-5.819-0.229-8.216c0.213-1.865,0.321-3.738,0.298-5.595
		c0.005,0.073,0.002,0.143,0.029,0.225c1.076,3.246,1.703,6.451,1.43,9.895c-0.217,2.747-1.33,5.186-1.665,7.875
		c-0.07,0.562,0.396,0.839,0.85,0.803c-0.353,0.488-0.753,0.936-1.258,1.28c-0.851,0.577-1.865,1.069-2.838,1.403
		c-0.575,0.197-1.108,0.334-1.612,0.562c0.002-0.134,0.005-0.268,0.007-0.402C83.64,60.493,83.715,60.501,83.786,60.442z"/>
	<path fill="#A8DEF9" d="M199.104,98.899c-0.776,5.044-0.43,10.107,0.174,15.151c0.324,2.717,0.439,8.48,3.109,10.112
		c0.484,0.297,1.054-0.092,1.079-0.619c0.146-2.977-1.662-6.758-2.152-9.768c-0.777-4.78-1.274-9.871-1.021-14.717
		C200.327,98.386,199.208,98.22,199.104,98.899z"/>
	<path fill="#A8DEF9" d="M60.17,119.839c0.049,0.297,0.441,0.508,0.717,0.408c2.371-0.861,3.338-5.425,4.024-7.585
		c1.086-3.411,1.803-7.479-0.218-10.655c-0.077-0.119-0.314-0.086-0.293,0.079c0.457,3.482-0.052,6.803-1.186,10.109
		C62.458,114.399,59.779,117.47,60.17,119.839z"/>
	<path fill="#A8DEF9" d="M241.074,94.17c0.131-0.143,0.195-0.34,0.111-0.604c-2.209-6.861-0.258-12.593,2.014-19.12
		c1.2-3.449,1.736-6.659,0.963-10.009c1.446-0.111,2.812-0.473,4.139-1.21c1.545-0.859,2.152-2.119,2.932-3.529
		c0.015,0.004,0.026,0.01,0.04,0.014c0.425,0.121,0.97-0.328,0.688-0.778c-0.027-0.043-0.053-0.084-0.08-0.127
		c0.059-0.055,0.109-0.12,0.138-0.209c1.629-5.195-0.289-13.102-2.116-18.072c-0.103-0.27-0.556-0.17-0.552,0.11
		c0.021,2.604,0.629,5.171,0.979,7.745c0.384,2.834,0.121,5.773,0.426,8.603c-0.988-1.661-1.792-3.307-2.136-5.39
		c-0.557-3.398-0.396-7.605,0.385-10.946c0.037-0.165-0.194-0.252-0.255-0.088c-1.868,4.909-4.961,16.691,2.253,19.062
		c-1.888,2.116-5.58,2.48-8.168,2.302c-0.346-0.023-0.622,0.077-0.834,0.245c-0.311-0.141-0.613-0.301-0.898-0.524
		c-0.203-0.158-0.399-0.349-0.589-0.557c0.062-0.1,0.103-0.211,0.1-0.334c-0.005-0.167-0.026-0.331-0.037-0.496
		c0.027-0.044,0.06-0.09,0.085-0.134c0.09-0.155,0.005-0.316-0.124-0.382c-0.308-2.971-1.481-5.772-1.555-8.889
		c-0.088-3.884,0.609-7.753,0.782-11.629c0.038-0.845-1.214-1.142-1.481-0.303c-0.051,0.16-0.104,0.342-0.155,0.511
		c-0.322-0.131-0.645-0.26-0.968-0.397c-0.658-0.277-1.464-0.492-2.045-0.913c0.906-0.999,1.957-1.881,3.154-2.617
		c0.996,2.184,1.908,4.417,2.816,6.625c0.061,0.137,0.286,0.081,0.28-0.075c-0.018-1.055-0.087-2.088-0.2-3.098
		c0.646,0.511,1.324,0.979,2.066,1.424c0.115,0.07,0.235,0.144,0.354,0.218c0.135,0.313,0.442,0.469,0.752,0.458
		c0.973,0.577,2.039,1.093,3.112,0.954c0.611-0.079,0.736-0.826,0.421-1.248c-0.64-0.855-1.81-1.312-2.823-1.786
		c-0.372-6.117-4.106-11.708-7.149-16.781c-0.038-0.063-0.131-0.019-0.103,0.052c1.987,5.167,3.857,10.253,5.148,15.598
		c-0.708-0.396-1.418-0.793-2.131-1.183c-2.523-13.321-13.441-22.066-26.576-22.476c-4.551-3.295-11.223-1.83-16.267-0.519
		c-6.804,1.768-13.449,5.134-19.021,9.392c-0.707,0.54,0.098,1.748,0.865,1.296c10.439-6.16,22.295-10.989,34.503-8.438
		c0.346,0.073,0.747-0.154,0.883-0.458c6.231,1.56,12.53,4.572,16.789,9.6c2.491,2.945,4.382,6.363,6.034,9.925
		c-8.612,2.494-10.163,13.66-8.797,21.621c0.619,3.601,4.11,10.213,8.225,12.074c-0.633-0.196-1.261-0.41-1.874-0.662
		c-1.083,4.229-2.904,8.218-4.902,12.096c-0.312,0.606-0.645,1.201-0.988,1.789c-0.249,0.126-0.489,0.269-0.744,0.383
		c-0.02,0.319-0.053,0.639-0.079,0.958c-4.725,7.338-11.959,12.822-21.006,13.167c-11.245,0.432-17.23-6.173-20.837-14.896
		c0.004-0.02,0.014-0.039,0.018-0.059c0.033-0.188-0.075-0.367-0.229-0.459c-3.514-8.807-4.704-19.637-6.438-27.587
		c-0.021-0.1-0.185-0.064-0.175,0.038c0.465,4.661,0.851,9.869,1.562,15.057c-1.412-2.236-2.555-4.777-3.434-7.254
		c-0.36-1.016-0.502-2.072-0.593-3.132c0.045-0.126,0.069-0.266,0.035-0.43c-0.036-0.173-0.071-0.344-0.107-0.516
		c-0.104-1.446-0.209-2.881-0.742-4.217c-0.03-0.076-0.088-0.116-0.132-0.174c-1.467-7.949-1.988-15.574,2.1-23.283
		c0.082-0.15-0.139-0.335-0.249-0.19c-3.657,4.78-4.929,10.326-4.763,15.995c0.659,2.054,0.927,4.185,0.784,6.398
		c-0.004,0.03-0.01,0.062-0.014,0.094c0.107,0.539,0.25,1.073,0.375,1.609c-0.845-0.197-1.661-0.324-2.329-0.381
		c-1.833-0.157-24.245-0.52-24.366,1.368c0.018-0.274-0.358-0.5-0.798-0.398c-6.75,1.528-8.436,9.103-3.405,13.456
		c0.029,0.025,0.062,0.038,0.093,0.055c2.784,7.953,8.218,14.718,14.132,20.688c5.435,5.488,12.035,11.648,18.929,16.237
		c-0.095,0.208-0.177,0.417-0.275,0.625c-3.157,6.664-7.026,12.982-10.813,19.3c-6.77,11.29-13.668,22.717-15.132,36.017
		c-0.021,0.199,0.302,0.237,0.346,0.047c3.231-14.153,11.43-26.563,18.895-38.774c3.185-5.21,6.253-10.483,8.942-15.961
		c0.575,0.354,1.15,0.694,1.728,1.021c0.133,1.991,0.113,4.079-0.153,6.051c-0.048,0.363,0.442,0.522,0.563,0.154
		c0.59-1.799,0.879-3.577,0.952-5.453c0.283,0.149,0.566,0.29,0.85,0.432c-0.034,0.176-0.066,0.351-0.101,0.517
		c-0.195,0.967-0.369,1.886-0.438,2.842c-4.178,8.72-10.162,17.938-1.877,26.404c0.389,0.398,0.973-0.105,0.739-0.57
		c-2.86-5.71-3.779-10.147-1.678-16.263c1.195-3.477,2.639-6.475,3.414-10.026c0.232-0.571,0.437-1.152,0.636-1.765
		c0.08-0.246,0.168-0.5,0.259-0.757c0.429-0.048,0.781-0.595,0.437-0.964c-0.023-0.025-0.05-0.048-0.073-0.073
		c0.406-1.184,0.774-2.421,0.762-3.582c-0.003-0.359-0.436-0.426-0.626-0.17c-0.561,0.754-0.884,1.759-1.119,2.773
		c-0.379-0.38-0.747-0.767-1.14-1.135c-0.033-1.183-0.209-2.39-0.833-3.259c-0.091-0.126-0.244-0.191-0.399-0.217
		c2.29-5.101,4.646-10.914,4.807-16.583c3.679,8.357,10.134,14.36,22.098,14.162c8.22-0.136,15.059-4.785,20.17-10.828
		c-0.584,3.397-1.429,6.763-2.363,10.021c-3.091,10.784-11.365,19.074-20.642,24.871c-1.296,0.81-0.113,2.854,1.199,2.051
		c8.518-5.207,16.067-12.259,19.829-21.715c2.223-5.583,3.306-11.584,4.053-17.531c0.017-0.136,0.022-0.272,0.038-0.408
		c0.507-0.703,1-1.414,1.463-2.135c2.389-3.728,4.855-9.119,6.281-14.627c1.526,0.5,3.12,0.302,4.673-0.953
		c-1.745,8.382-7.903,16.417-3.776,24.625c-2.393-1.691-4.882-3.131-7.363-4.266c-0.022-0.009-0.045,0.016-0.027,0.035
		c4.851,5.277,10.724,9.365,15.354,14.898c5.486,6.558,6.147,13.968,7.862,21.957c0.108,0.504,0.944,0.524,1.038,0
		C257.95,113.202,250.595,101.694,241.074,94.17z M163.522,90.248c-7.659-6.79-13.509-14.494-18.529-23.222
		c-0.002-0.052-0.013-0.104-0.036-0.155c-0.945-2.043-1.798-3.982-1.42-6.233c1.194-7.04,14.029-4.996,19.529-5.288
		c3.271-0.174,8.081-0.535,11.691,0.303c-0.144,2.152,0.554,4.522,1.164,6.404c1.021,3.147,3.003,5.359,5.724,7.143
		c0.077,0.05,0.151,0.032,0.215-0.006c0.557,3.896,1.31,7.762,2.426,11.364c-1.941-0.636-2.891-5.037-3.41-6.637
		c-0.452-1.393-1.564-7.016-3.644-6.842c-0.304,0.025-0.492,0.178-0.603,0.459c-0.044,0.113-0.054,0.243-0.062,0.375
		c-0.011-0.003-0.02-0.01-0.031-0.013c-3.812-0.807-7.976,0.928-11.597,2.049c-6.719,2.079-10.476,1.438-16.409-2.448
		c-0.018-0.011-0.047,0.005-0.035,0.027c2.314,4.35,6.005,6.165,10.86,6.061c2.621-0.056,5.329-0.984,7.811-1.765
		c0.024-0.008,0.049-0.014,0.073-0.021c0.876,0.774,1.784,1.528,2.766,2.268c3.216,2.428,6.393,5.333,9.797,7.45
		c0.036,0.022,0.073,0.034,0.109,0.046c-0.076,0.045-0.145,0.106-0.187,0.189c-1.236,2.445-1.812,5.237-3.006,7.734
		c-1.019,2.13-2.587,5.437-4.899,6.451c-0.146,0.063-0.08,0.26,0.067,0.257c2.26-0.029,3.943-2.758,4.939-4.449
		c1.632-2.766,3.916-6.534,3.8-9.864c-0.008-0.219-0.145-0.339-0.31-0.379c0.158-0.123,0.229-0.351,0.087-0.581
		c-1.783-2.891-5.167-4.864-7.955-6.689c-1.355-0.886-2.734-1.803-4.089-2.757c2.785-0.742,5.646-1.108,8.371-1.991
		c0.075-0.024,0.132-0.063,0.189-0.101c0.416,0.971,1.064,1.99,1.301,2.614c0.807,2.12,1.575,4.259,2.518,6.323
		c0.712,1.558,2.385,3.895,3.919,3.408c0.111,0.331,0.234,0.652,0.354,0.978c-0.011,0.012-0.02,0.024-0.03,0.036
		c-0.182,0.071-0.344,0.208-0.428,0.437c-0.008,0.021-0.015,0.043-0.022,0.064c-0.143,0.149-0.283,0.3-0.432,0.444
		c-0.384,0.372-0.797,0.746-1.22,1.074c-0.23,0.179-0.399,0.424-0.688,0.497c-0.206,0.051-0.126,0.35,0.066,0.35
		c0.594-0.001,1.127-0.191,1.618-0.492c-1.902,5.562-3.275,11.149-5.451,16.62C173.529,97.83,168.13,94.331,163.522,90.248z
		 M180.359,103.334c0.057-0.122,0.115-0.244,0.172-0.367c0.003,0.181,0.012,0.361,0.027,0.542
		C180.492,103.452,180.427,103.392,180.359,103.334z M234.953,64.559c-2.411-2.402-3.413-6.087-3.999-9.32
		c-1.076-5.93,0.104-12.564,4.051-17.006c0.621,0.867,1.771,1.717,2.913,1.896c-0.364,1.263-0.729,2.723-1.039,4.282
		c-1.141-0.564-2.493-0.612-3.779-0.679c-0.521-0.025-0.575,0.763-0.055,0.807c1.283,0.11,2.464,0.393,3.678,0.713
		c-0.28,1.556-0.49,3.185-0.58,4.808c-1.656-0.059-3.21,0.708-3.85,2.4c-0.075,0.2,0.202,0.41,0.358,0.243
		c0.951-1.019,2.17-1.375,3.451-1.614c-0.053,2.413,0.197,4.75,0.941,6.721c-0.381-0.016-0.761-0.022-1.135-0.023
		c-0.966-0.005-2.057,0.223-2.998,0.086c-0.073-0.011-0.082,0.115-0.008,0.114c0.952-0.009,2.002,0.362,2.959,0.488
		c0.508,0.066,1.028,0.133,1.549,0.166c0.395,0.82,0.895,1.554,1.511,2.185c-1.399,0.945-2.987,1.497-4.738,1.002
		c-0.027-0.006-0.04,0.031-0.015,0.044c1.097,0.516,2.232,0.774,3.443,0.662c0.725-0.066,1.431-0.528,2.013-1.097
		c0.043,0.013,0.086,0.021,0.13,0.025c0.164,0.329,0.369,0.649,0.647,0.972c0.319,0.368,0.699,0.672,1.116,0.9
		c0.037,0.577,0.407,1.116,1.145,1.137c0.174,0.005,0.345,0.003,0.516,0.003c-0.015,0.539-0.061,1.076-0.124,1.612
		C239.912,66.562,237.609,67.205,234.953,64.559z"/>
	<path fill="#A8DEF9" d="M234.372,133.008c-0.052,0.026-0.086,0.062-0.122,0.096c0.037-0.034,0.083-0.06,0.104-0.107
		c0.802-1.725,0.534-3.763,0.731-5.638c0.293-2.771,1.001-5.701,2.136-8.247c0.163-0.367-0.31-0.654-0.543-0.318
		c-1.605,2.325-2.5,4.689-3.069,7.442c-0.438,2.115-1.069,4.736-0.183,6.761c0.12,0.278,0.511,0.327,0.757,0.177
		c-0.131,0.181-0.104,0.414,0.016,0.596c-0.083,0.075-0.15,0.173-0.171,0.313c-0.807,5.444-1.67,10.878-2.373,16.337
		c-0.704,5.476-1.926,11.47-0.709,16.917c0.146,0.652,1.14,0.632,1.298,0c1.193-4.793,1.006-9.955,1.539-14.868
		c0.657-6.075,1.45-12.092,1.521-18.213c0.002-0.128-0.044-0.233-0.105-0.326c2.719-0.672,4.998-1.944,7.493-3.237
		c1.868-0.968,3.735-1.661,5.843-1.815c1.209-0.088,2.363,0.254,3.532,0.51c-0.558,7.178-1.376,14.288-2.677,21.382
		c-1.295,7.062-3.422,14.527-3.121,21.745c0.029,0.696,1.047,0.869,1.233,0.167c2.013-7.58,2.776-15.806,3.94-23.575
		c0.979-6.543,1.678-13.058,1.063-19.626c0.422,0.081,0.846,0.144,1.277,0.161c0.661,0.027,0.958-0.817,0.523-1.264
		C248.713,122.654,239.476,130.333,234.372,133.008z"/>
	<path fill="#A8DEF9" d="M232.965,134.255c-0.077-3.803-0.857-7.672-1.168-11.478c-0.021-0.259-0.383-0.26-0.403,0
		c-0.302,3.743-0.92,8.017,0.382,11.638C231.998,135.035,232.979,134.971,232.965,134.255z"/>
	<path fill="#A8DEF9" d="M203.787,144.042c-2.764-1.045-5.736-1.502-8.361-2.917c-0.415-0.224-0.727,0.35-0.36,0.619
		c2.508,1.847,5.529,2.822,8.597,3.223C204.226,145.039,204.245,144.213,203.787,144.042z"/>
	<path fill="#A8DEF9" d="M179.09,137.951c-0.772,3.003-1.106,6.113-1.552,9.176c-0.093,0.644,0.785,0.923,0.995,0.273
		c0.957-2.976,0.879-6.141,1.508-9.187C180.169,137.595,179.249,137.331,179.09,137.951z"/>
	<path fill="#A8DEF9" d="M102.095,142.476c0.252-0.14,0.445-0.425,0.386-0.744c-0.5-2.682-1.203-5.388-2.038-8.09
		c0.104-0.153,0.042-0.365-0.126-0.405c-2.21-7.035-5.327-14.031-8.292-20.476c-0.067-0.144-0.278-0.038-0.247,0.104
		c1.544,6.955,3.646,14.268,6.205,21.201c-3.905,1.594-7.646,3.686-11.597,5.172c-0.513-1.817-1.201-3.537-2.162-5.008
		c-0.027-0.042-0.097-0.017-0.082,0.034c1.55,5.31,1.238,10.903,2.694,16.169c0.128,0.467,0.834,0.369,0.836-0.113
		c0.013-3.197-0.214-6.928-1.073-10.35c3.951-1.241,8.077-2.846,11.725-4.967c0.708,1.881,1.46,3.718,2.235,5.521
		c0.602,1.562,1.198,3.13,1.94,4.626c0.488,0.984,1.068,2.919,2.237,3.264c0.317,0.094,0.549-0.206,0.496-0.495
		c-0.205-1.129-1.27-2.296-1.839-3.291C102.978,143.901,102.537,143.188,102.095,142.476z"/>
	<path fill="#A8DEF9" d="M56.416,37.53c-3.405-3.79-9.354-6.049-14.956-3.55c-2.403,1.079-4.419,3.309-5.675,5.598
		c-1.072,1.957-1.198,5.376,1.353,6.282c1.002,0.343,2.104,0.19,2.843-0.64c1.011-1.149,1.571-3.244,2.61-4.161
		c3.428-3.039,6.4-1.451,9.145,0.835C54.075,43.812,58.404,39.751,56.416,37.53z"/>
	<path fill="#A8DEF9" d="M69.634,55.855c-0.177-0.459-0.443-0.885-0.765-1.233c-0.606-1.221-1.35-2.4-1.994-3.593
		c-1.362-2.569-1.933-5.048-2.11-7.991c-0.011-0.206-0.347-0.242-0.394-0.033c-0.948,3.79,0.742,7.603,2.443,11.171
		c-0.034,0.219,0.016,0.454,0.228,0.599c0.02,0.017,0.054,0.047,0.084,0.066c0.449,0.93,0.876,1.837,1.249,2.701
		c-0.145,0.464-0.346,0.871-0.833,1.154c-0.818,0.455-1.664,0.615-2.583,0.7c-2.166,0.18-3.935-0.58-5.786-1.667
		c-0.13-0.075-0.264,0.052-0.207,0.208c0.762,2.465,4.977,3.447,7.072,3.161c1.936-0.256,5.679-2.417,3.964-5.003
		C69.896,55.956,69.773,55.889,69.634,55.855z"/>
	<path fill="#A8DEF9" d="M23.568,147.621c-0.195-0.162-0.411-0.308-0.62-0.46c-0.049-0.531-0.091-1.059-0.111-1.577
		c-0.161-4.31-0.059-8.601-0.317-12.915c-0.001-0.021-0.036-0.025-0.038-0.005c-0.558,4.475-0.913,8.992-1.027,13.535
		c-5.71-3.171-14.481-3.44-19.344-0.609c-0.091,0.054-0.029,0.221,0.08,0.207c3.756-0.438,7.275-0.504,11.115,0.124
		c2.778,0.454,5.387,1.798,8.086,2.452c-0.066,2.526-0.043,5.527,1.308,7.567c0.247,0.376,0.92,0.301,0.949-0.155
		c0.138-2.255-0.246-4.702-0.536-7.101C23.676,148.717,24.114,148.072,23.568,147.621z"/>
	<path fill="#A8DEF9" d="M75.804,46.553c-3.462-2.991-5.189,3.357-4.339,5.811C74.023,59.752,80.688,50.77,75.804,46.553z"/>
	<path fill="#A8DEF9" d="M50.414,46.405c-3.65-3.131-5.447,3.54-4.562,6.102C48.54,60.276,55.548,50.834,50.414,46.405z"/>
	<path fill="#A8DEF9" d="M29.868,56.962c-0.324,0.122-0.664,0.195-1.009,0.213c-0.607,0.029-1.12-0.417-1.251-0.979
		c-0.01-0.04-0.079-0.045-0.087,0c-0.034,0.225-0.141,0.776,0.002,0.962c0.228,0.298,0.491,0.473,0.856,0.569
		c0.652,0.171,2.08-0.016,2.42-0.651c0.057-0.106,0.013-0.272-0.12-0.297C30.354,56.72,30.182,56.845,29.868,56.962z"/>
	<path fill="#A8DEF9" d="M126.994,110.99c-1.645-7.763-8.326-11.733-12.938-18.196c-0.146-0.204-0.422,0.058-0.306,0.268
		c0.027,0.049,0.055,0.093,0.082,0.142c-1.459-1.417-3.024-2.767-4.432-4.172c-2.684-2.682-5.521-4.952-8.607-7.197
		c-0.106-0.076-0.255,0.093-0.157,0.178c0.16,0.141,0.316,0.29,0.474,0.435c-0.083-0.003-0.167-0.006-0.263,0.02
		c-1.041,0.283-1.905,0.786-2.352,1.739c-0.445,0.955,0.121,2.075,0.675,2.827c0.19,0.257,0.501,0.284,0.741,0.179
		c1.838,4.272,4.003,9.746,8.045,12.312c0.33,0.209,0.854-0.215,0.612-0.538c-1.558-2.091-3.303-3.995-4.706-6.203
		c-1.235-1.946-2.382-3.915-3.674-5.822c0.067-0.127,0.082-0.282-0.006-0.453c-0.261-0.507-0.514-1.101-0.341-1.686
		c0.173-0.578,0.749-0.795,1.326-0.934c0.47-0.112,0.637-0.492,0.588-0.836c4.682,4.546,8.4,10.735,14.117,14.043
		c0.121,0.069,0.26,0.078,0.392,0.049c4.145,6.203,8.292,10.443,10.389,19.039c0.085,0.357,0.665,0.225,0.688-0.142
		c0.022-0.339,0.01-0.65,0.016-0.977c2.27,9.37,7.516,28.346,9.59,34.802c0.196,0.61,1.239,0.231,1.183-0.397
		C137.581,143.289,129.207,117.654,126.994,110.99L126.994,110.99z"/>
	<path fill="#A8DEF9" d="M121.898,119.547c-1.275-0.09-2.565-0.718-3.668-1.327c-0.371-0.205-0.682-0.578-1.039-0.838
		c1.012-0.888,1.826-1.98,2.247-3.289c0.069-0.216-0.208-0.348-0.359-0.209c-0.767,0.699-1.72,1.105-2.615,1.609
		c-0.846,0.477-1.767,0.91-2.664,1.283c-0.894,0.37-0.997,1.237-0.644,1.811c-0.635-0.212-1.374-0.32-1.886-0.604
		c-0.076-0.042-0.147-0.094-0.22-0.145c0.043-0.177,0.003-0.387-0.125-0.496c-0.217-0.184-0.475-0.291-0.748-0.369
		c-0.151-0.198-0.291-0.405-0.419-0.616c0.871-1.055,1.644-2.219,2.594-3.203c1.527-1.582,3.1-3.124,4.685-4.647
		c0.159-0.152-0.049-0.432-0.236-0.307c-1.876,1.24-3.765,2.456-5.446,3.955c-1.263,1.126-2.794,2.491-3.523,4.094
		c-0.728-0.475-1.254-1.16-1.593-1.975c-0.12-0.288-0.474-0.295-0.624-0.114c0.323-0.948,0.513-1.951,1.016-2.864
		c0.729-1.326,1.917-2.401,3.042-3.387c1.902-1.665,3.601-3.003,4.275-5.527c0.016-0.059-0.059-0.084-0.091-0.039
		c-1.641,2.281-4.361,3.693-6.485,5.474c-0.838,0.702-1.748,1.71-2.438,2.839c-0.147-1.21-0.369-2.385-0.421-3.589
		c0.132,0.013,0.272-0.011,0.409-0.091c0.998-0.584,1.593-2,2.288-2.891c0.334-0.429,0.672-0.863,1.015-1.294
		c0.826-0.614,1.551-1.616,2.147-2.308c0.985-1.143,1.758-2.229,2.087-3.72c0.061-0.272-0.271-0.388-0.428-0.181
		c-0.854,1.134-1.931,2.164-2.982,3.115c-0.709,0.64-1.841,1.472-2.238,2.429c-0.266,0.253-0.525,0.514-0.773,0.784
		c-0.22,0.24-0.497,0.522-0.779,0.828c-1.959-0.694-4.164,1.131-4.98,2.78c-0.946,1.911-0.762,4.231-0.23,6.228
		c0.642,2.413,4.162,7.453,6.092,3.213c0.285,0.559,0.647,1.069,1.145,1.469c0.465,0.373,1.149,0.735,1.842,0.895
		c0.276,0.385,0.625,0.734,1.055,1.039c0.508,0.36,1.393,0.762,2.226,0.855c0.3,0.208,0.683,0.334,1.193,0.372
		c0.899,0.066,2.015-0.238,2.848-0.799c0.39,0.278,0.802,0.512,1.233,0.691c-0.461,8.393-1.754,18.407,1.265,26.391
		c0.239,0.633,1.331,0.604,1.266-0.172c-0.731-8.665-1.048-17.199-1.417-25.88c1.057,0.212,2.167,0.135,3.235-0.315
		C122.527,120.296,122.477,119.587,121.898,119.547z M105.664,115.468c-2.122,2.678-3.765-1.752-4.155-3.477
		c-0.334-1.48-0.318-3.165,0.329-4.559c0.491-1.056,1.284-1.427,2.137-1.777c-0.078,0.238-0.129,0.477-0.112,0.713
		c0.006,0.089,0.031,0.17,0.064,0.247c-0.511,1.766-0.662,3.803,0.235,5.323c0.022,0.038,0.052,0.066,0.082,0.095
		c-0.416,1.058-0.573,2.154-0.261,3.163c0.154,0.499,0.832,0.603,1.106,0.145c0.19-0.316,0.336-0.648,0.461-0.99
		c0,0.036-0.001,0.071,0.011,0.111c0.086,0.3,0.188,0.599,0.302,0.892C105.794,115.358,105.725,115.391,105.664,115.468z
		 M115.353,118.7c-0.124,0.053-0.248,0.105-0.372,0.159c0.121-0.062,0.241-0.123,0.36-0.188
		C115.345,118.681,115.349,118.69,115.353,118.7z M114.352,119.109c-0.072,0.025-0.144,0.052-0.215,0.074
		c-0.008-0.011-0.008-0.024-0.017-0.035c-0.005-0.006-0.013-0.01-0.018-0.016C114.182,119.133,114.265,119.125,114.352,119.109z"/>
</g>
</svg>
