<?xml version="1.0" encoding="utf-8"?>
<!-- Generator: Adobe Illustrator 16.0.3, SVG Export Plug-In . SVG Version: 6.00 Build 0)  -->
<!DOCTYPE svg PUBLIC "-//W3C//DTD SVG 1.1//EN" "http://www.w3.org/Graphics/SVG/1.1/DTD/svg11.dtd">
<svg version="1.1" xmlns="http://www.w3.org/2000/svg" xmlns:xlink="http://www.w3.org/1999/xlink" x="0px" y="0px"
	 width="33.047px" height="25px" viewBox="0 0 33.047 25" enable-background="new 0 0 33.047 25" xml:space="preserve">
<g id="Layer_2">
</g>
<g id="Layer_1">
	<g>
		<g>
			<linearGradient id="SVGID_1_" gradientUnits="userSpaceOnUse" x1="24.7441" y1="0.1006" x2="20.0477" y2="26.7356">
				<stop  offset="0" style="stop-color:#4FB7E8"/>
				<stop  offset="1" style="stop-color:#0083C2"/>
			</linearGradient>
			<path fill="url(#SVGID_1_)" d="M30.871,3.583c-1.635-2.013-3.959-3.267-6.538-3.528c-0.063-0.009-0.13-0.009-0.194-0.016
				C23.869,0.019,23.599,0,23.332,0c-0.023,0-0.044,0.006-0.064,0.006c-0.294,0-0.588,0.021-0.878,0.049
				c-3.449,0.337-6.491,2.509-7.913,5.73c-0.199,0.446-0.379,0.908-0.489,1.381c-0.44,1.949-1.629,7.582-2.613,12.275
				c-0.062,0.293-0.125,0.588-0.186,0.874c-0.062,0.296-0.122,0.585-0.182,0.87c-0.316,1.52-0.597,2.856-0.799,3.814l10.106-3.814
				l2.141-0.809l3.529-1.336c3.853-1.094,6.604-4.366,7.01-8.339C33.261,8.125,32.509,5.594,30.871,3.583z M23.343,13.572
				c-0.11,0-0.216-0.011-0.323-0.016c-0.256-0.021-0.506-0.068-0.747-0.138c-0.261-0.077-0.505-0.175-0.735-0.296
				c-1.225-0.65-2.058-1.935-2.058-3.413c0-1.707,1.107-3.151,2.643-3.662c0.248-0.082,0.505-0.145,0.774-0.167
				c0.146-0.021,0.297-0.033,0.446-0.033c0.106,0,0.212,0.008,0.314,0.018c1.985,0.161,3.544,1.819,3.544,3.845
				C27.201,11.845,25.477,13.572,23.343,13.572z"/>
		</g>
		<linearGradient id="SVGID_2_" gradientUnits="userSpaceOnUse" x1="10.0713" y1="-4.2295" x2="5.7528" y2="20.262">
			<stop  offset="0" style="stop-color:#4FB7E8"/>
			<stop  offset="1" style="stop-color:#0083C2"/>
		</linearGradient>
		<path fill="url(#SVGID_2_)" d="M12.002,7.108c0.129-0.577,0.311-1.181,0.548-1.721c0.021-0.048,0.089-0.206,0.103-0.234
			c0.945-2.143,2.504-3.891,4.412-5.074H9.677C4.341,0.079,0,4.419,0,9.754c0,5.237,4.186,9.512,9.385,9.667
			C10.34,14.878,11.512,9.321,12.002,7.108z"/>
	</g>
</g>
</svg>
