{
    "locations": [
        {
            "key": "cities.BERLIN_LOC",
            "value": "berlin"
        },
        {
            "key": "cities.NEW_YORK_LOC",
            "value": "new-york-city"
        },
        {
            "key": "cities.PARIS_LOC",
            "value": "paris"
        },
        {
            "key": "cities.MOSCOW_LOC",
            "value": "moscow"
        },
        {
            "key": "cities.VILNIUS_LOC",
            "value": "vilnius"
        },
        {
            "key": "cities.POTSDAM_LOC",
            "value": "potsdam"
        },
        {
            "key": "cities.BARRANQUILLA_LOC",
            "value": "barranquilla"
        },
        {
            "key": "cities.SAVANNAH_LOC",
            "value": "savannah"
        }
    ],
    "languages": [
        {
            "key": "languages2.GERMAN",
            "value": "german"
        },
        {
            "key": "languages2.ESPERANTO",
            "value": "esperanto"
        },
        {
            "key": "languages2.SPANISH",
            "value": "spanish"
        },
        {
            "key": "languages2.ENGLISH",
            "value": "english"
        },
        {
            "key": "languages2.RUSSIAN",
            "value": "russian"
        },
        {
            "key": "languages2.LITHUANIAN",
            "value": "lithuanian"
        },
        {
            "key": "languages2.FRENCH",
            "value": "french"
        }
    ],
    "resources": [
        {
            "key": "standalone.PAGES-TRANSLATOR",
            "link": "standalone.translator",
            "label": "translate"
        }, {
            "key": "standalone.PAGES-FAQ",
            "link": "standalone.FAQ",
            "label": "FAQ page"
        }, {
            "key": "teacher.TEACH_CLASS",
            "link": "standalone.classLearn",
            "label": "teach a class"
        }, {
            "key": "standalone.PAGES-EVENT_IDEAS",
            "link": "standalone.eventIdeas",
            "label": "event ideas"
        }
    ]
}