<?xml version="1.0" encoding="utf-8"?>
<!-- Generator: Adobe Illustrator 16.0.0, SVG Export Plug-In . SVG Version: 6.00 Build 0)  -->
<!DOCTYPE svg PUBLIC "-//W3C//DTD SVG 1.1//EN" "http://www.w3.org/Graphics/SVG/1.1/DTD/svg11.dtd">
<svg version="1.1" id="Layer_1" xmlns="http://www.w3.org/2000/svg" xmlns:xlink="http://www.w3.org/1999/xlink" x="0px" y="0px"
	 width="323.777px" height="275.23px" viewBox="0 0 323.777 275.23" enable-background="new 0 0 323.777 275.23"
	 xml:space="preserve">
<g id="Layer_1_1_">
	<g>
		<path opacity="0.2" fill="#4FB7E8" enable-background="new    " d="M285.943,136.316c0,65.62-53.2,118.819-118.823,118.819
			c-65.617,0-118.816-53.199-118.816-118.819c0-65.618,53.198-118.818,118.816-118.818
			C232.741,17.497,285.943,70.698,285.943,136.316z"/>
		<path fill="#B1B8BD" d="M266.183,165.455c2.108-25.628,4.312-76.209,5.658-98.015c0.566-9.175,0.713-14.188-8.668-15.219
			c-16.069-1.771-147.391-1.919-157.605-0.85c-9.142,0.956-10.042-1.362-10.579,5.928c-0.898,12.156-6.948,105.716-6.948,105.716
			l120.422,26.559c0,0,50.039-14.824,53.088-15.789C264.59,172.822,265.773,170.419,266.183,165.455z"/>
		<path fill="#CBD3D9" d="M260.181,170.832c0,0,5.289-87.913,6.201-105.708c0.462-9.024-0.428-11.798-9.453-12.792
			c-15.462-1.707-142.946-7.957-152.778-6.928c-8.792,0.92-8.645,4.881-9.162,11.895c-0.862,11.697-6.79,101.647-6.79,101.647
			l115.875,25.555L260.181,170.832z"/>
		<path fill="#4C4F52" d="M91.057,156.803c0.935-14.195,5.861-88.804,6.63-99.307l0.074-0.967c0.444-6.295,0.551-7.789,6.672-8.431
			c0.43-0.044,1.446-0.099,3.836-0.099c23.594,0,134.054,5.447,148.361,7.026c6.88,0.757,7.473,1.595,7.045,9.96
			c-0.823,16.085-5.285,90.487-6.081,103.687l-53.552,13.048L91.057,156.803z"/>
		<polygon opacity="0.2" fill="#4FB7E8" enable-background="new    " points="35.177,181.562 34.965,192.268 214.841,209.074 
			261.965,187.916 317.079,188.593 264.024,173.575 		"/>
		<polygon fill="#878D91" points="36.099,178.85 35.893,189.557 212.037,206.365 259.768,183.455 260.198,170.865 		"/>
		<path fill="#676B6E" d="M36.08,179.912l-0.187,9.645l176.144,16.809l1.961-0.94c0.082-1.53,0.15-3.055,0.226-4.582
			c-46.142-3.741-103.485-8.184-165.826-14.281C39.978,185.739,36.302,180.249,36.08,179.912z"/>
		<path fill="#676B6E" d="M222.15,201.51c-2.643-0.23-5.282-0.454-7.928-0.668c-0.075,1.527-0.143,3.052-0.227,4.582L222.15,201.51z
			"/>
		<polygon fill="#DEE6ED" points="36.099,178.85 212.129,193.409 260.198,170.865 87.422,156.52 		"/>
		<polygon fill="#DEE6ED" points="36.552,178.85 212.58,193.409 260.65,170.865 87.874,156.52 		"/>
		<path opacity="0.2" fill="#214D61" enable-background="new    " d="M87.422,156.52l-5.594,2.709
			c0,0,147.314,13.985,188.831,12.652L87.422,156.52z"/>
		<polygon fill="#4C4F52" points="78.838,170.373 211.61,181.435 231.324,173.107 100.827,162.192 		"/>
		<polygon fill="#878D91" points="114.108,181.773 149.233,184.68 158.827,180.182 124.349,177.317 		"/>
		<g>
			<g>
				<defs>
					<path id="SVGID_1_" d="M253.143,163.653c0,0-156.071-13.399-156.57-12.728c-0.501,0.675,6.016-97.187,6.016-97.187
						l156.819,7.688L253.143,163.653z"/>
				</defs>
				<clipPath id="SVGID_2_">
					<use xlink:href="#SVGID_1_"  overflow="visible"/>
				</clipPath>
				<polygon clip-path="url(#SVGID_2_)" fill="#1EB8E3" points="258.1,172.372 101.953,172.707 108.672,63.053 263.474,70.914 				
					"/>
			</g>
			<g>
				<defs>
					<path id="SVGID_3_" d="M253.143,163.653c0,0-156.071-13.399-156.57-12.728c-0.501,0.675,6.016-97.187,6.016-97.187
						l156.819,7.688L253.143,163.653z"/>
				</defs>
				<clipPath id="SVGID_4_">
					<use xlink:href="#SVGID_3_"  overflow="visible"/>
				</clipPath>
				<polygon clip-path="url(#SVGID_4_)" fill="#F1E4C8" points="258.1,172.372 101.953,172.707 108.672,63.053 263.474,70.914 				
					"/>
			</g>
			<g>
				<defs>
					<path id="SVGID_5_" d="M253.143,163.653c0,0-156.071-13.399-156.57-12.728c-0.501,0.675,6.016-97.187,6.016-97.187
						l156.819,7.688L253.143,163.653z"/>
				</defs>
				<clipPath id="SVGID_6_">
					<use xlink:href="#SVGID_5_"  overflow="visible"/>
				</clipPath>
				<polygon clip-path="url(#SVGID_6_)" fill="#F1E4C8" points="266.725,167.577 91.31,167.952 98.859,44.767 272.761,53.598 				
					"/>
			</g>
			<g>
				<defs>
					<path id="SVGID_7_" d="M253.143,163.653c0,0-156.071-13.399-156.57-12.728c-0.501,0.675,6.016-97.187,6.016-97.187
						l156.819,7.688L253.143,163.653z"/>
				</defs>
				<clipPath id="SVGID_8_">
					<use xlink:href="#SVGID_7_"  overflow="visible"/>
				</clipPath>
				<path clip-path="url(#SVGID_8_)" fill="#B5E58A" d="M119.208,100.794c-2.991,1.518-5.616,3.915-8.653,5.353
					c0.669-2.825,1.025-5.751,2.131-8.497c0.668-1.666-1.312-2.889-2.712-2.4c0.185-2.074,0.25-4.159,0.075-6.268
					c-0.154-1.822-2.737-2.933-3.733-1.055c-0.352-1.177-0.782-2.3-1.288-3.351c-0.558-1.159-2.046-1.225-2.967-0.552
					c-0.073-3.089-0.132-6.18-0.144-9.272c-0.012-2.603-4.008-2.6-4.035,0c-0.099,10.512-1.398,21.249,0.654,31.583
					c0.005,0.539,0.022,1.081,0.025,1.621c0.002,0.716,0.29,1.225,0.709,1.544c0.057,0.215,0.125,0.428,0.188,0.642
					c-0.312,0.398-0.637,0.776-0.984,1.13c-1.819,1.859,1.03,4.713,2.854,2.853c0.242-0.248,0.463-0.524,0.691-0.789
					c0.469-0.013,0.94-0.182,1.339-0.565c0.508-0.489,0.976-0.984,1.42-1.484c0.055,0.131,0.099,0.265,0.156,0.397
					c0.629,1.473,2.764,1.147,3.482,0c0.154-0.243,0.265-0.498,0.399-0.747c4.666-1.2,8.009-4.414,12.431-6.661
					C123.565,103.098,121.521,99.618,119.208,100.794z"/>
			</g>
			<g>
				<defs>
					<path id="SVGID_9_" d="M253.143,163.653c0,0-156.071-13.399-156.57-12.728c-0.501,0.675,6.016-97.187,6.016-97.187
						l156.819,7.688L253.143,163.653z"/>
				</defs>
				<clipPath id="SVGID_10_">
					<use xlink:href="#SVGID_9_"  overflow="visible"/>
				</clipPath>
				<path clip-path="url(#SVGID_10_)" fill="#B5E58A" d="M175.258,54.286c-6.397,2.671-12.57-1.076-18.983-0.429
					c-0.122-0.031-0.228-0.084-0.357-0.096c-7.458-0.577-14.72-2.133-22.054-3.542c-2.54-0.49-3.624,3.4-1.072,3.889
					c5.547,1.067,11.062,2.192,16.641,2.969c-0.212,1.133,0.662,2.478,1.968,2.525c0.331,0.013,0.662,0.008,0.993,0.018
					c3.064,1.866,6.593,2.468,9.914,3.619c-0.585,0.507-0.897,1.414-0.653,2.111c0.048,0.226,0.098,0.452,0.145,0.678
					c-1.233,0.086-2.469,0.226-3.71,0.456c-1.214,0.224-1.926,1.949-1.203,2.961c3.867,5.397,10.825,0.547,16.112,1.379
					c2.545,0.4,3.636-3.486,1.073-3.889c-0.436-0.069-1.108-0.045-1.919,0.026c-0.221-0.453-0.622-0.812-1.242-0.932
					c-0.603-0.118-1.2-0.228-1.795-0.332c1.4-0.613,1.118-2.71,0.017-3.531c-0.668-0.497-1.372-0.905-2.098-1.257
					c2.951-0.296,5.91-0.446,8.845-0.93c1.165-0.19,1.626-1.485,1.373-2.53C178.295,56.026,177.336,53.564,175.258,54.286z"/>
			</g>
			<g>
				<defs>
					<path id="SVGID_11_" d="M253.143,163.653c0,0-156.071-13.399-156.57-12.728c-0.501,0.675,6.016-97.187,6.016-97.187
						l156.819,7.688L253.143,163.653z"/>
				</defs>
				<clipPath id="SVGID_12_">
					<use xlink:href="#SVGID_11_"  overflow="visible"/>
				</clipPath>
				<path clip-path="url(#SVGID_12_)" fill="#B5E58A" d="M176.597,167.294c0.817,3.791-0.128,7.803-2.412,11.04
					c0.677,0.818,0.486,1.532,0.875,2.253c-0.658-1.221-26.721,0.074-30.108,0.067c-10.745-0.023-21.489-0.054-32.23-0.076
					c-10.75-0.025-21.499-0.052-32.248-0.077c3.17,0.008,1.051-41.358,7.42-43.425c2.852-0.927,10.05-0.056,13.281,0.076
					c0.634,2.081,1.181,5.408,3.142,6.719c3.26,2.175,1.533-0.504,4.304-1.789c4.444-2.062,8.98,5.233,13.734,5.484
					c4.978,0.264,11.304-6.705,15.959-2.64c3.746,3.293-0.659,8.516-0.052,12.404c3.989-0.077,8.063,0.533,11.848,1.422
					c-0.025,1.449,0.164,3.036-0.176,4.479c-0.109-0.271,0.059-0.72,0.059-1.035c-0.283,9.229,20.253,3.715,26.36,4.159
					C176.448,166.666,176.527,166.982,176.597,167.294z"/>
			</g>
			<g>
				<defs>
					<path id="SVGID_13_" d="M253.143,163.653c0,0-156.071-13.399-156.57-12.728c-0.501,0.675,6.016-97.187,6.016-97.187
						l156.819,7.688L253.143,163.653z"/>
				</defs>
				<clipPath id="SVGID_14_">
					<use xlink:href="#SVGID_13_"  overflow="visible"/>
				</clipPath>
				<path clip-path="url(#SVGID_14_)" fill="#86CCEF" d="M237.445,181.984c7.697,0.272,15.697-1.464,21.052-7.434
					c2.55-2.841,7.194-15.716,11.857-9.026c3.493,5.006-5.037,10.874-8.549,12.979c-2.955,1.774-15.852,7.331-17.979,5.546
					c-0.6-0.505-8.285,0.508-9.827,0.483c-5.479-0.084-13.488-1.339-17.242,3.812c-5.459,7.494-3.578,17.498-15.53,18.188
					c-7.072,0.408-15.849-2.334-21.52-6.589c-8.398-6.297-19.344-6.634-28.353-11.62c-5.277-2.92-7.47-6.965-9.029-12.62
					c-2.688-9.735-6.894-16.754-15.477-22.388c-7.978-5.235-21.791,7.185-30.918,4.786c-2.513-0.664-1.154-4.463,1.342-3.806
					c9.119,2.4,25.957-10.783,32.503-3.313c3.574,4.079,7.045,8.319,10.404,12.578c3.285,4.165,2.114,6.214,3.374,11.176
					c0.437,1.723,3.991,8.389,5.341,9.309c5.621,3.819,12.942,3.268,18.308,7.737c6.006,5.004,14.213,4.411,20.282,9.002
					c4.205,3.184,12.637,4.736,17.688,3.2c6.639-2.018,4.859-9.647,8.002-14.954C218.676,179.788,228.364,181.665,237.445,181.984z"
					/>
			</g>
			<g>
				<defs>
					<path id="SVGID_15_" d="M253.143,163.653c0,0-156.071-13.399-156.57-12.728c-0.501,0.675,6.016-97.187,6.016-97.187
						l156.819,7.688L253.143,163.653z"/>
				</defs>
				<clipPath id="SVGID_16_">
					<use xlink:href="#SVGID_15_"  overflow="visible"/>
				</clipPath>
				<path clip-path="url(#SVGID_16_)" fill="#B5E58A" d="M260.977,123.855c-6.865,2.607-12.827,0.24-19.091-0.463
					c2.688-3.076,11.34-3.787,7.756-7.574c-2.084-0.235-10.735,0.479-12.524-1.417c-2.981-7.094,5.972-9.464,12.838-12.07
					c2.083,0.238,3.276,5.438,7.75,4.258c0.158-0.863,0.395-2.174,0.631-3.467c7.604-0.267,3.76-8.127,6.243-10.964
					c-9.248,4.025-14.921,0.005-16.409-3.541c-2.334-10.198,18.205-11.326,8.97-22.035l18.531,0.942l-3.782,71.381
					c-5.515-1.609-10.496-4.748-14.198-8.66C255.904,128.348,260.677,125.514,260.977,123.855z"/>
			</g>
			<g>
				<defs>
					<path id="SVGID_17_" d="M253.143,163.653c0,0-156.071-13.399-156.57-12.728c-0.501,0.675,6.016-97.187,6.016-97.187
						l156.819,7.688L253.143,163.653z"/>
				</defs>
				<clipPath id="SVGID_18_">
					<use xlink:href="#SVGID_17_"  overflow="visible"/>
				</clipPath>
				<path clip-path="url(#SVGID_18_)" fill="#86CCEF" d="M122.719,85.343c-8.314-2.3-16.195-6.591-19.67-14.001
					c-1.649-3.524-1.772-17.21-9.261-12.45c-5.604,3.563,1.29,11.927,4.248,15.081c2.489,2.654,14.165,12.177,17.101,11.203
					c0.832-0.277,8.648,3.229,10.306,3.717c5.875,1.74,14.892,3.217,16.96,9.32c3.011,8.884-2.75,17.695,9.74,22.312
					c7.395,2.733,17.785,3.061,25.436,0.932c11.325-3.153,23.131,0.164,34.615-1.548c6.727-1.002,10.586-4.09,14.376-8.907
					c6.523-8.29,13.645-13.513,24.918-15.978c10.479-2.292,21.812-1.401,32.448-0.635c2.934,0.211,2.91-3.824,0-4.034
					c-10.632-0.764-24.905-3.377-34.699,1.496c-5.344,2.661-10.638,5.508-15.819,8.409c-5.068,2.84-4.592,5.161-7.797,9.423
					c-1.115,1.48-7.406,6.588-9.198,7.007c-7.433,1.738-15.035-1.213-22.438,1.222c-8.285,2.725-16.821-0.557-25.019,1.76
					c-5.685,1.605-15.262,0.271-20.073-2.855c-6.328-4.108-1.564-10.712-2.925-16.763C143.573,89.505,132.531,88.057,122.719,85.343
					z"/>
			</g>
			<g>
				<defs>
					<path id="SVGID_19_" d="M253.143,163.653c0,0-156.071-13.399-156.57-12.728c-0.501,0.675,6.016-97.187,6.016-97.187
						l156.819,7.688L253.143,163.653z"/>
				</defs>
				<clipPath id="SVGID_20_">
					<use xlink:href="#SVGID_19_"  overflow="visible"/>
				</clipPath>
				<path clip-path="url(#SVGID_20_)" fill="#FFFFFF" d="M121.918,170.934c-3.924-12.851,6.174-19.405,15.08-25.188
					c7.366-4.78,13.728-8.909,11.142-15.576l-0.267-0.684l0.723-0.129c1.622-0.287,2.526-0.704,3.401-1.105
					c0.835-0.383,1.63-0.749,2.889-0.938c0.479-1.692,1.155-3.4,1.812-5.056c0.732-1.839,1.491-3.744,1.956-5.606l0.085-0.335
					l0.334-0.097c3.064-0.884,4.835-2.27,5.265-4.119c1.283-5.567-9.103-14.95-15.976-21.161c-2.154-1.947-4.016-3.627-5.306-4.971
					c-12.161-12.665-9.789-24.052-7.491-35.06c1.375-6.596,2.796-13.416,1.195-20.603l1.181-0.265
					c1.659,7.443,0.208,14.392-1.193,21.113c-2.334,11.197-4.538,21.772,7.181,33.977c1.262,1.313,3.107,2.981,5.245,4.912
					c7.508,6.783,17.787,16.072,16.342,22.331c-0.516,2.235-2.457,3.885-5.773,4.911c-0.487,1.827-1.214,3.653-1.918,5.423
					c-0.695,1.75-1.417,3.558-1.875,5.309l-0.106,0.401l-0.411,0.046c-1.311,0.145-2.062,0.49-2.932,0.888
					c-0.772,0.356-1.639,0.753-2.994,1.058c2.278,7.183-4.591,11.641-11.849,16.354c-8.964,5.821-18.237,11.842-14.581,23.818
					L121.918,170.934z"/>
			</g>
			<g>
				<defs>
					<path id="SVGID_21_" d="M253.143,163.653c0,0-156.071-13.399-156.57-12.728c-0.501,0.675,6.016-97.187,6.016-97.187
						l156.819,7.688L253.143,163.653z"/>
				</defs>
				<clipPath id="SVGID_22_">
					<use xlink:href="#SVGID_21_"  overflow="visible"/>
				</clipPath>
				<path clip-path="url(#SVGID_22_)" fill="#FFFFFF" d="M162.094,105.568c-0.624-3.872,2.132-5.976,5.046-8.208
					c1.099-0.837,2.236-1.706,3.26-2.711c2.432-2.383,5.859-7.001,9.83-12.349c7.518-10.127,16.876-22.734,25.499-28.384
					l0.663,1.012c-8.441,5.53-17.73,18.04-25.19,28.092c-4,5.389-7.456,10.043-9.954,12.493c-1.079,1.056-2.243,1.946-3.372,2.809
					c-2.848,2.176-5.096,3.896-4.588,7.054L162.094,105.568z"/>
			</g>
			<g>
				<defs>
					<path id="SVGID_23_" d="M253.143,163.653c0,0-156.071-13.399-156.57-12.728c-0.501,0.675,6.016-97.187,6.016-97.187
						l156.819,7.688L253.143,163.653z"/>
				</defs>
				<clipPath id="SVGID_24_">
					<use xlink:href="#SVGID_23_"  overflow="visible"/>
				</clipPath>
				<path clip-path="url(#SVGID_24_)" fill="#FFFFFF" d="M209.041,194.512c-2.514-3.745-8.448-9.899-14.186-15.851
					c-4.696-4.87-9.131-9.47-11.405-12.456c-2.675-3.522-2.032-7.265-1.465-10.563c0.526-3.065,0.98-5.714-0.94-7.936
					c-2.329-2.694-5.663-4.022-8.886-5.309c-4.999-1.991-9.719-3.876-9.527-10.501c0.085-2.862,1.23-5.198,2.341-7.456
					c1.832-3.728,3.414-6.947-0.558-11.6l0.921-0.785c4.488,5.257,2.575,9.151,0.725,12.917c-1.054,2.144-2.143,4.36-2.218,6.958
					c-0.168,5.782,3.974,7.434,8.765,9.345c3.358,1.337,6.831,2.723,9.352,5.641c2.297,2.654,1.748,5.845,1.218,8.93
					c-0.55,3.206-1.121,6.524,1.237,9.629c2.229,2.928,6.641,7.504,11.312,12.347c5.772,5.99,11.744,12.183,14.318,16.017
					L209.041,194.512z"/>
			</g>
			<g>
				<defs>
					<path id="SVGID_25_" d="M253.143,163.653c0,0-156.071-13.399-156.57-12.728c-0.501,0.675,6.016-97.187,6.016-97.187
						l156.819,7.688L253.143,163.653z"/>
				</defs>
				<clipPath id="SVGID_26_">
					<use xlink:href="#SVGID_25_"  overflow="visible"/>
				</clipPath>
				<path clip-path="url(#SVGID_26_)" fill="#FFFFFF" d="M187.464,133.828c-1.588,0-3.265-0.504-5.094-1.755
					c-4.262-2.922-10.82-2.88-17.775-2.825c-2.841,0.02-5.781,0.04-8.712-0.131c-1.465-0.086-3.915-0.138-7.017-0.206
					c-13.237-0.281-37.877-0.807-50.84-5.23l0.39-1.144c12.785,4.362,37.304,4.886,50.476,5.166
					c3.114,0.069,5.573,0.121,7.061,0.208c2.893,0.17,5.809,0.149,8.634,0.129c7.15-0.052,13.895-0.101,18.47,3.038
					c4.774,3.266,8.4,0.679,12.599-2.32c2.945-2.099,5.986-4.271,9.805-4.815c3.467-0.488,5.861,1.691,8.172,3.806
					c2.398,2.199,4.899,4.47,8.765,4.169c8.131-0.652,45.676-1.564,55.031-1.751l0.023,1.209
					c-9.349,0.187-46.854,1.099-54.958,1.747c-4.391,0.333-7.211-2.22-9.68-4.482c-2.293-2.101-4.269-3.913-7.184-3.502
					c-3.525,0.502-6.447,2.585-9.271,4.602C193.439,131.822,190.631,133.827,187.464,133.828z"/>
			</g>
			<g>
				<defs>
					<path id="SVGID_27_" d="M253.143,163.653c0,0-156.071-13.399-156.57-12.728c-0.501,0.675,6.016-97.187,6.016-97.187
						l156.819,7.688L253.143,163.653z"/>
				</defs>
				<clipPath id="SVGID_28_">
					<use xlink:href="#SVGID_27_"  overflow="visible"/>
				</clipPath>
				<path clip-path="url(#SVGID_28_)" fill="#FFFFFF" d="M163.483,149.028c-6.397,0-11.021-0.798-13.745-2.376
					c-4.22-2.442-21.083-18.984-21.083-24.917c0-6.42,3.82-13.244,11.035-12.801c4.06,0.268,6.005-4.451,7.91-9.003
					c1.271-3.043,2.471-5.917,4.297-7.558c3.836-3.453,7.034-3.771,9.604-4.027c0.543-0.055,1.056-0.106,1.541-0.185
					c2.495-0.417,11.505-1.607,19.866-1.607c7.916,0,13.39,1.031,16.271,3.063c8.447,5.963,6.283,27.794,5.665,30.882
					c-0.855,4.276-12.239,24.76-16.255,25.765C186.248,146.848,174.017,149.028,163.483,149.028z M139.015,110.123
					c-6.665,0-9.148,7.123-9.148,11.613c0,4.864,15.583,21.036,20.48,23.87c2.535,1.469,6.955,2.213,13.137,2.213
					c10.424,0,22.5-2.151,24.813-2.73c3.049-0.762,14.371-19.861,15.363-24.828c0.966-4.823,2.128-24.499-5.177-29.655
					c-2.672-1.886-7.912-2.843-15.573-2.843c-8.278,0-17.196,1.178-19.668,1.59c-0.508,0.084-1.048,0.137-1.618,0.194
					c-2.396,0.239-5.375,0.535-8.918,3.723c-1.623,1.46-2.771,4.212-3.99,7.126c-2.06,4.933-4.179,10.048-9.1,9.745
					C139.412,110.129,139.211,110.123,139.015,110.123z"/>
			</g>
			<g>
				<defs>
					<path id="SVGID_29_" d="M253.143,163.653c0,0-156.071-13.399-156.57-12.728c-0.501,0.675,6.016-97.187,6.016-97.187
						l156.819,7.688L253.143,163.653z"/>
				</defs>
				<clipPath id="SVGID_30_">
					<use xlink:href="#SVGID_29_"  overflow="visible"/>
				</clipPath>
				<path opacity="0.2" clip-path="url(#SVGID_30_)" fill="#969CA1" enable-background="new    " d="M170.434,174.766
					c-0.018,0-0.032,0-0.049-0.001l-42.924-1.108c-1.002-0.024-1.79-0.858-1.765-1.86s0.853-1.825,1.859-1.766l42.923,1.107
					c1.001,0.026,1.792,0.859,1.768,1.861C172.219,173.984,171.414,174.766,170.434,174.766z"/>
			</g>
		</g>
		<path opacity="0.2" fill="#214D61" enable-background="new    " d="M93.324,55.395c0,0,23.525-1.02,27.539-0.996
			c1.232,7.298,1.191,19.149-6.023,19.449c-10.837,0.451-15.011,1.145-22.278,1.304C94.367,70.234,93.522,63.953,93.324,55.395z"/>
		<path fill="#FFED99" d="M93.481,51.802c0,0,23.525-1.02,27.54-0.995c1.232,7.297-0.007,20.481-7.227,20.781
			c-10.844,0.451-18.259,1.22-25.527,0.96C92.561,69.782,93.682,60.36,93.481,51.802z"/>
		<path opacity="0.4" fill="#FFFFFF" enable-background="new    " d="M93.416,146.649c-0.08,1.212-0.167,2.489-0.241,3.669
			c-0.087,1.317-0.392,3.038,3.335,3.548c5.398,0.734,126.038,10.334,126.038,10.334S93.502,145.305,93.416,146.649z"/>
		<path fill="#B5E58A" d="M193.412,108.665c-2.601,0-2.601,4.034,0,4.034C196.01,112.699,196.01,108.665,193.412,108.665z"/>
		<path fill="#E96778" d="M178.338,91.755c-5.075-0.312-9.532,3.544-9.938,8.592c-0.189,2.367,0.581,4.308,1.911,6.251
			c2.611,3.805,2.618,3.666,6.17,8.312c4.257-4.167,4.243-4.028,7.433-7.479c1.634-1.761,2.702-3.592,2.893-5.958
			C187.209,96.424,183.408,92.064,178.338,91.755z"/>
		<path fill="#FFFFFF" d="M177.313,104.506c-1.99-0.123-3.484-1.834-3.326-3.819c0.16-1.983,1.911-3.498,3.903-3.376
			c1.993,0.124,3.49,1.835,3.329,3.818C181.061,103.114,179.305,104.628,177.313,104.506z"/>
		<path fill="#86CCEF" d="M215.634,77.325c-2.94-0.729-3.809-4.824-6.679-6.078c-2.999-1.31-6.858-2.039-10.121-1.674
			c-1.725,0.194-3.085,2.871-1.018,3.759c4.588,1.97,10.045,3.194,13.596,6.913c0.582,0.613,1.278,0.718,1.888,0.525
			c0.395,0.179,0.808,0.332,1.262,0.443C217.086,81.837,218.157,77.948,215.634,77.325z"/>
		<path fill="#86CCEF" d="M221.805,71.024c-1.62-2.122-2.263-5.005-4.38-6.734c-1.999-1.629-4.868,1.207-2.854,2.854
			c1.797,1.464,2.357,4.093,3.752,5.916c0.664,0.874,1.723,1.333,2.76,0.725C221.944,73.279,222.474,71.901,221.805,71.024z"/>
		<path fill="#B5E58A" d="M223.332,146.76c-0.9,0.137-1.859,0.242-2.816,0.272c0.41-1.09,0.896-2.13,1.48-3.185
			c0.634-1.137,0.07-2.61-1.205-2.962c-2.906-0.806-5.575-1.101-8.377-0.483c0.144-0.381,0.248-0.751,0.3-1.102
			c0.267-1.803-1.262-3.054-2.963-2.278c-0.778,0.354-1.5,0.777-2.161,1.238c-0.064-0.763-0.151-1.525-0.298-2.291
			c-0.425-2.228-4.155-1.729-3.962,0.535c0.264,3.056-1.048,4.565-2.724,6.326c-0.817,0.036-1.578,0.377-2.243,1.126
			c-1.746-0.494-4.118,0.297-5.736,1.964c-0.689,0.715-0.68,1.587-0.314,2.444c1.864,4.358,6.454,3.844,10.812,1.451
			c0.471,0.013,0.959-0.154,1.391-0.59c0.053-0.055,0.109-0.094,0.163-0.146c1.637,1.614,3.31,3.857,4.21,4.661
			c1.458,1.298,3.953,0.067,3.371-1.962c-0.028-0.074-0.04-0.149-0.069-0.224c4.09-0.264,8.155-0.226,12.215-0.909
			C226.978,150.214,225.865,146.367,223.332,146.76z"/>
		<path fill="#B5E58A" d="M246.487,143.253c0.034-0.5-0.139-1.014-0.453-1.436c-0.024-0.068-0.048-0.136-0.072-0.206
			c1.183-1.232,0.069-3.384-1.542-3.365c-0.753-0.653-2.003-0.504-2.743,0.131c-0.411,0.352-0.872,0.791-1.262,1.282
			c-0.201,0.046-0.404,0.084-0.609,0.122c-1.175-0.227-2.407-0.084-3.562,0.338c-2.057,0.752-1.852,3.988,0.536,3.961
			c0.859-0.01,1.715-0.065,2.556-0.164c0.479,0.188,0.942,0.526,1.566,0.951c1.099,0.75,2.221,0.817,3.289,0.461
			C245.392,145.47,246.701,144.634,246.487,143.253z"/>
		<path fill="#B5E58A" d="M142.974,121.169c-0.812-1.752-2.346-3.312-4.33-3.598c-2.332-0.333-4.159,0.851-5.476,2.694
			c-0.786,1.099,0.052,2.609,1.202,2.961c0.503,0.154,1.014,0.253,1.526,0.329c0.092,0.043,0.18,0.089,0.283,0.124
			c1.808,0.584,3.719,0.961,5.59,0.453C143.117,123.764,143.514,122.331,142.974,121.169z"/>
		<path fill="#B5E58A" d="M226.467,94.15c-0.814-1.751-2.347-3.312-4.335-3.598c-2.329-0.332-4.158,0.852-5.476,2.694
			c-0.786,1.099,0.055,2.611,1.208,2.963c0.501,0.153,1.009,0.252,1.523,0.328c0.092,0.044,0.18,0.09,0.281,0.124
			c1.809,0.583,3.718,0.96,5.592,0.453C226.606,96.748,227.003,95.313,226.467,94.15z"/>
		<path fill="#B5E58A" d="M198.172,108.844c-0.236-0.107-0.468-0.189-0.707-0.24c-0.428-0.204-0.939-0.221-1.41-0.091
			c-0.824-0.151-1.645,0.083-2.126,0.91c-0.494,0.841-0.293,2.269,0.673,2.729c0.043,0.146,0.098,0.29,0.169,0.431
			c0.766,1.547,2.533,1.083,3.726,0.502c0.607-0.292,1.025-1.081,0.998-1.74C199.46,110.381,199.135,109.282,198.172,108.844z"/>
		<path fill="#B5E58A" d="M184.103,111.444c-0.236-0.107-0.471-0.189-0.709-0.241c-0.429-0.202-0.938-0.22-1.41-0.09
			c-0.822-0.152-1.645,0.084-2.127,0.91c-0.491,0.841-0.29,2.268,0.674,2.729c0.045,0.146,0.099,0.289,0.17,0.431
			c0.767,1.548,2.531,1.084,3.723,0.503c0.607-0.294,1.024-1.081,1-1.741C185.388,112.979,185.064,111.882,184.103,111.444z"/>
		<path fill="#B5E58A" d="M196.799,101.18c-0.819-1.635-1.743-3.154-3.026-4.475c-1.819-1.866-4.666,0.987-2.854,2.854
			c1.046,1.071,1.732,2.327,2.396,3.656c0.492,0.983,1.859,1.251,2.758,0.724C197.068,103.356,197.291,102.164,196.799,101.18z"/>
		<path opacity="0.4" fill="#FFFFFF" enable-background="new    " d="M262.322,64.917c0.401-7.856,0.17-7.884-5.84-8.543
			c-6.722-0.743-124.146-6.383-124.146-6.383L261.63,77.477C261.63,77.476,262.187,67.517,262.322,64.917z"/>
		<path opacity="0.2" fill="#214D61" enable-background="new    " d="M241.636,120.154l3.389,49.466l4.064,7.454l0.68,11.519
			l10-5.138l0.317-9.222c0.716-0.218,1.234-0.376,1.465-0.448c3.041-0.964,4.223-3.366,4.633-8.33
			c0.772-9.371,1.554-22.08,2.305-35.499c-3.572-1.056-2.414-10.845-5.96-11.837L241.636,120.154z"/>
		<g>
			<path fill="#DECCA9" d="M315.723,187.467c-18.679,6.737-35.694,10.243-54.983,14.818c-6.487-27.451-13.16-54.972-19.4-82.374
				c-0.541-2.377,0.28-2.247,3.755-2.874c17.773-3.208,32.684-4.562,50.075-7.499C301.85,135.592,308.982,161.426,315.723,187.467z"
				/>
			<path fill="#2E447A" d="M317.139,188.982c-17.013,5.898-34.657,9.694-52.179,13.659c-2.981,0.677-4.841,0.49-5.134-0.793
				c-6.251-27.664-12.517-55.325-18.753-82.991c18.617-1.655,37.158-5.59,55.676-8.27
				C303.437,136.748,310.427,162.827,317.139,188.982z"/>
			<path fill="#5C81DB" d="M304.428,140.258c0,0-7.261-28.031-7.679-29.671c-14.992,2.167-29.996,5.142-45.043,7.08
				c16.81-1.578,44.139-5.192,44.139-5.192L304.428,140.258z"/>
			<g>
				<g>
					<path fill="#B88825" d="M253.321,127.529c-0.039-0.176-0.136-0.25-0.276-0.225c-0.158,0.027-0.241,0.042-0.399,0.071
						c-0.116-0.511-0.176-0.767-0.291-1.278c0.449-0.079,0.675-0.121,1.125-0.201c0.467-0.083,0.696,0.134,0.773,0.467
						c0.029,0.143,0.052,0.239,0.052,0.239l0.02-0.004c0,0,0.21-1.037,1.398-1.243c1.377-0.237,2.561,0.901,2.988,2.768
						c0.433,1.913-0.282,3.323-1.625,3.558c-1.012,0.178-1.64-0.533-1.64-0.533c-0.007,0.001-0.01,0.002-0.021,0.003
						c0,0,0.068,0.209,0.145,0.519c0.224,0.996,0.335,1.493,0.562,2.49c-0.503,0.09-0.753,0.137-1.254,0.228
						C254.254,131.649,253.943,130.277,253.321,127.529z M256.567,130.458c0.696-0.123,1.135-0.894,0.864-2.089
						c-0.258-1.145-0.949-1.803-1.698-1.674c-0.657,0.114-1.148,0.795-0.846,2.133C255.098,129.762,255.728,130.606,256.567,130.458
						z"/>
					<path fill="#B88825" d="M262.177,126.74c0.064-0.011,0.097-0.017,0.161-0.025c-0.005-0.021-0.003-0.026-0.007-0.043
						c-0.199-0.861-0.565-1.138-1.217-1.028c-0.234,0.037-0.669,0.186-0.596,0.516c0.03,0.128,0.047,0.193,0.075,0.32
						c-0.474,0.079-0.708,0.121-1.185,0.197c-0.059-0.254-0.081-0.38-0.142-0.638c-0.258-1.122,1.059-1.464,1.59-1.552
						c1.708-0.284,2.451,0.688,2.76,2.029c0.205,0.895,0.307,1.341,0.513,2.233c0.04,0.166,0.142,0.249,0.279,0.227
						c0.162-0.027,0.241-0.039,0.402-0.07c0.116,0.503,0.176,0.752,0.29,1.254c-0.461,0.077-0.689,0.118-1.146,0.194
						c-0.473,0.079-0.728-0.197-0.809-0.549c-0.034-0.151-0.045-0.259-0.045-0.259l-0.024,0.004c0,0-0.146,1.122-1.302,1.318
						c-0.914,0.156-1.901-0.368-2.178-1.572C259.173,127.41,261.342,126.881,262.177,126.74z M261.818,129.652
						c0.686-0.118,0.977-1.045,0.809-1.776c-0.012-0.057-0.02-0.081-0.033-0.138c-0.086,0.014-0.131,0.025-0.22,0.037
						c-0.661,0.113-1.694,0.395-1.505,1.231C260.961,129.404,261.298,129.741,261.818,129.652z"/>
					<path fill="#B88825" d="M265.715,128.084c0,0,0.859,0.771,1.737,0.629c0.391-0.062,0.654-0.298,0.562-0.696
						c-0.194-0.843-2.901-0.389-3.349-2.333c-0.276-1.198,0.521-1.903,1.587-2.074c0.692-0.108,1.864-0.011,2.089,0.963
						c0.062,0.247,0.087,0.375,0.144,0.624c-0.451,0.072-0.675,0.104-1.126,0.175c-0.026-0.114-0.043-0.175-0.072-0.291
						c-0.064-0.282-0.456-0.365-0.738-0.32c-0.454,0.072-0.725,0.312-0.643,0.664c0.215,0.941,2.905,0.311,3.366,2.3
						c0.263,1.124-0.435,1.966-1.552,2.15c-1.413,0.231-2.382-0.71-2.382-0.71C265.49,128.736,265.563,128.513,265.715,128.084z"/>
					<path fill="#B88825" d="M270.432,127.319c0,0,0.862,0.771,1.738,0.63c0.393-0.061,0.65-0.296,0.556-0.691
						c-0.192-0.839-2.896-0.397-3.346-2.332c-0.278-1.194,0.518-1.891,1.583-2.057c0.694-0.107,1.864-0.006,2.092,0.963
						c0.06,0.249,0.085,0.372,0.142,0.62c-0.451,0.071-0.674,0.104-1.125,0.176c-0.027-0.118-0.039-0.175-0.068-0.29
						c-0.066-0.281-0.459-0.369-0.74-0.325c-0.455,0.074-0.723,0.306-0.639,0.66c0.215,0.936,2.9,0.322,3.363,2.3
						c0.263,1.119-0.429,1.952-1.547,2.132c-1.41,0.228-2.387-0.715-2.387-0.715C270.206,127.962,270.283,127.743,270.432,127.319z"
						/>
					<path fill="#B88825" d="M274.529,124.041c-0.038-0.177-0.143-0.243-0.283-0.223c-0.159,0.026-0.243,0.039-0.401,0.064
						c-0.119-0.504-0.177-0.756-0.295-1.262c0.453-0.07,0.682-0.102,1.135-0.171c0.472-0.072,0.699,0.143,0.776,0.469
						c0.032,0.139,0.055,0.231,0.055,0.231h0.014c0,0,0.215-1.009,1.406-1.188c1.379-0.208,2.57,0.93,3.004,2.757
						c0.443,1.875-0.268,3.239-1.608,3.45c-1.011,0.16-1.648-0.542-1.648-0.542c-0.01,0.001-0.012,0-0.022,0.001
						c0,0,0.072,0.203,0.142,0.504c0.231,0.979,0.35,1.471,0.58,2.445c-0.506,0.078-0.756,0.121-1.262,0.202
						C275.483,128.093,275.166,126.744,274.529,124.041z M277.805,126.969c0.702-0.108,1.139-0.86,0.857-2.03
						c-0.265-1.124-0.957-1.779-1.708-1.663c-0.659,0.099-1.15,0.753-0.84,2.067C276.329,126.261,276.968,127.101,277.805,126.969z"
						/>
					<path fill="#B88825" d="M282.617,121.126c1.546-0.227,3.075,0.877,3.509,2.662c0.438,1.797-0.48,3.246-2.031,3.486
						c-1.543,0.237-3.083-0.839-3.516-2.653C280.152,122.818,281.078,121.347,282.617,121.126z M283.792,126.033
						c0.827-0.125,1.333-0.964,1.073-2.053c-0.266-1.081-1.127-1.731-1.948-1.61c-0.813,0.121-1.322,0.973-1.062,2.059
						C282.118,125.524,282.981,126.158,283.792,126.033z"/>
					<path fill="#B88825" d="M286.91,122.19c-0.04-0.172-0.139-0.235-0.277-0.216c-0.155,0.022-0.234,0.032-0.391,0.055
						c-0.122-0.496-0.182-0.744-0.3-1.241c0.456-0.064,0.684-0.097,1.138-0.162c0.443-0.065,0.718,0.118,0.838,0.612
						c0.032,0.137,0.053,0.202,0.088,0.34c0.052,0.216,0.068,0.374,0.068,0.374s0.007-0.006,0.017-0.007
						c0.022-0.866,0.461-1.615,1.222-1.723c0.107-0.017,0.228-0.008,0.228-0.008c0.142,0.572,0.21,0.861,0.35,1.43
						c0,0-0.132-0.009-0.307,0.019c-0.528,0.074-1.057,0.529-1.062,1.418c-0.002,0.294,0.041,0.618,0.126,0.962
						c0.226,0.92,0.337,1.381,0.564,2.298c-0.495,0.076-0.745,0.114-1.241,0.189C287.549,124.799,287.334,123.93,286.91,122.19z"/>
					<path fill="#B88825" d="M290.883,121.271c-0.255,0.039-0.385,0.055-0.64,0.092c-0.113-0.459-0.174-0.688-0.284-1.148
						c0.271-0.038,0.402-0.058,0.67-0.095c-0.153-0.635-0.236-0.953-0.387-1.59c0.478-0.065,0.723-0.097,1.199-0.166
						c0.158,0.636,0.23,0.95,0.387,1.585c0.449-0.065,0.675-0.096,1.119-0.16c0.115,0.458,0.174,0.684,0.286,1.142
						c-0.446,0.064-0.668,0.097-1.117,0.161c0.231,0.936,0.345,1.403,0.578,2.335c0.232,0.95,0.909,0.988,1.243,0.936
						c0.138-0.019,0.219-0.058,0.219-0.058c0.127,0.5,0.188,0.752,0.312,1.25c0,0-0.146,0.058-0.369,0.092
						c-0.687,0.104-2.117,0.078-2.594-1.858C291.25,122.786,291.131,122.281,290.883,121.271z"/>
				</g>
				<path fill="#B88825" d="M284.822,170.576c-5.92,1.281-11.999-3.2-13.562-9.94c-1.566-6.74,1.946-13.116,7.821-14.188
					c5.867-1.07,11.889,3.377,13.495,9.903C294.184,162.877,290.734,169.298,284.822,170.576z M279.327,147.496
					c-5.369,0.984-8.578,6.806-7.143,12.957c1.429,6.15,6.986,10.245,12.392,9.084c5.399-1.159,8.555-7.024,7.09-12.994
					C290.201,150.568,284.689,146.508,279.327,147.496z"/>
				<path fill="#B88825" d="M285.162,169.954c-0.373,0.082-0.56,0.122-0.931,0.204c-2.197-9.253-3.297-13.85-5.492-23.104
					c0.37-0.066,0.553-0.1,0.923-0.169C281.863,156.128,282.961,160.716,285.162,169.954z"/>
				<path fill="#B88825" d="M283.135,170.625c-3.2-1.062-5.786-4.697-7.104-9.938c-1.224-4.858-1.141-11.103,1.378-13.593
					c0.271,0.331,0.406,0.496,0.679,0.828c-1.991,1.967-2.474,7.268-1.135,12.562c1.202,4.771,3.592,8.19,6.399,9.123
					C283.268,170.014,283.221,170.218,283.135,170.625z"/>
				<path fill="#B88825" d="M286.382,169.926c-0.261-0.333-0.392-0.499-0.655-0.831c2.11-1.983,2.727-5.986,1.666-10.715
					c-1.179-5.248-4-9.838-6.714-10.932c0.099-0.397,0.148-0.597,0.243-0.992c3.433,1.392,6.317,6.953,7.396,11.754
					C289.485,163.385,288.784,167.656,286.382,169.926z"/>
				<path fill="#B88825" d="M282.802,163.753c-0.106,0.022-0.213,0.043-0.319,0.062c-4.688,0.919-8.753-0.27-11-3.157
					c0.28-0.266,0.419-0.398,0.693-0.664c1.975,2.535,5.749,3.572,10.081,2.771c0.112-0.018,0.224-0.039,0.331-0.061
					c4.665-0.961,8.5-3.702,9.204-6.543c0.366,0.143,0.548,0.209,0.912,0.352C291.822,160.096,287.123,162.861,282.802,163.753z"/>
				<path fill="#B88825" d="M280.763,156.502c-0.095,0.019-0.196,0.038-0.293,0.054c-3.867,0.671-7.163-0.286-9.008-2.668
					c0.277-0.264,0.413-0.39,0.689-0.652c1.583,2.035,4.616,2.864,8.087,2.273c3.89-0.662,7.099-2.88,7.679-5.205
					c0.366,0.146,0.553,0.219,0.919,0.365C288.172,153.303,284.889,155.693,280.763,156.502z"/>
				<g>
					<g>
						<path fill="#B88825" d="M295.033,175.751c0.087-0.001,0.175-0.034,0.248-0.094c4.568-3.7,6.964-9.703,6.404-15.984
							c-0.475-5.281-3.033-10.235-6.892-13.789c-0.203-0.191-0.496-0.175-0.647,0.035c-0.148,0.211-0.104,0.537,0.104,0.726
							c3.7,3.362,6.067,8.059,6.51,13.056c0.529,5.936-1.703,11.61-6.062,15.089c-0.212,0.169-0.245,0.5-0.086,0.741
							C294.718,175.682,294.877,175.761,295.033,175.751z"/>
					</g>
				</g>
				<g>
					<path fill="#B88825" d="M298.283,170.99c1.471,0.132,3.08,1.069,4.312,1.898c0.206,0.137,0.187,0.552-0.068,0.582
						c-1.438,0.17-3.344,0.079-4.623-0.938C297.296,172.047,297.504,170.918,298.283,170.99z"/>
					<path fill="#B88825" d="M299.858,168.316c1.37-0.369,3.08-0.033,4.441,0.333c0.222,0.062,0.316,0.459,0.097,0.572
						c-1.262,0.653-3.017,1.214-4.463,0.677C299.251,169.646,299.125,168.517,299.858,168.316z"/>
					<path fill="#B88825" d="M300.923,165.167c1.176-0.767,2.839-0.954,4.19-1.007c0.218-0.008,0.397,0.34,0.22,0.513
						c-1.006,0.985-2.476,2.055-3.947,1.981C300.695,166.62,300.299,165.573,300.923,165.167z"/>
					<path fill="#B88825" d="M301.32,161.722c0.91-1.056,2.415-1.702,3.658-2.124c0.203-0.068,0.454,0.217,0.331,0.435
						c-0.706,1.228-1.841,2.649-3.225,2.991C301.439,163.183,300.828,162.292,301.32,161.722z"/>
					<path fill="#B88825" d="M301.121,158.166c0.609-1.285,1.876-2.306,2.943-3.054c0.174-0.12,0.477,0.088,0.406,0.332
						c-0.375,1.386-1.107,3.07-2.327,3.772C301.574,159.546,300.8,158.848,301.121,158.166z"/>
					<path fill="#B88825" d="M300.24,154.601c0.266-1.425,1.192-2.79,2.013-3.805c0.132-0.166,0.463-0.062,0.458,0.203
						c-0.025,1.465-0.298,3.301-1.264,4.333C300.993,155.812,300.101,155.356,300.24,154.601z"/>
					<path fill="#B88825" d="M298.607,151.218c-0.124-1.466,0.39-3.082,0.882-4.347c0.083-0.205,0.415-0.187,0.477,0.069
						c0.347,1.44,0.574,3.321-0.055,4.623C299.618,152.169,298.674,151.994,298.607,151.218z"/>
					<path fill="#B88825" d="M296.034,148.15c-0.527-1.401-0.496-3.16-0.385-4.562c0.022-0.229,0.333-0.329,0.461-0.095
						c0.724,1.307,1.448,3.083,1.225,4.562C297.228,148.749,296.306,148.895,296.034,148.15z"/>
				</g>
				<g>
					<path fill="#B88825" d="M297.228,172.426c-1.19-1.027-2.098-2.812-2.719-4.268c-0.1-0.233,0.126-0.549,0.359-0.409
						c1.338,0.802,2.906,2.09,3.481,3.707C298.619,172.217,297.868,172.981,297.228,172.426z"/>
					<path fill="#B88825" d="M298.795,169.045c-1.2-0.896-2.166-2.519-2.861-3.879c-0.11-0.221,0.09-0.535,0.319-0.42
						c1.32,0.664,2.898,1.778,3.544,3.283C300.101,168.739,299.443,169.525,298.795,169.045z"/>
					<path fill="#B88825" d="M299.923,165.179c-1.202-0.771-2.237-2.271-2.99-3.533c-0.127-0.204,0.049-0.523,0.273-0.43
						c1.307,0.547,2.885,1.504,3.605,2.908C301.149,164.781,300.568,165.594,299.923,165.179z"/>
					<path fill="#B88825" d="M300.379,161.134c-1.226-0.626-2.377-1.974-3.203-3.134c-0.134-0.187,0.003-0.522,0.229-0.449
						c1.3,0.408,2.911,1.164,3.73,2.463C301.518,160.619,301.033,161.466,300.379,161.134z"/>
					<path fill="#B88825" d="M300.137,156.925c-1.269-0.419-2.55-1.565-3.522-2.581c-0.155-0.162-0.072-0.51,0.156-0.472
						c1.317,0.199,2.97,0.687,3.941,1.837C301.16,156.236,300.814,157.148,300.137,156.925z"/>
					<path fill="#B88825" d="M298.902,152.839c-1.302-0.13-2.747-0.986-3.877-1.786c-0.182-0.127-0.171-0.489,0.062-0.508
						c1.3-0.1,2.981,0.014,4.137,0.943C299.759,151.92,299.598,152.907,298.902,152.839z"/>
					<path fill="#B88825" d="M296.438,149.215c-1.287,0.197-2.88-0.303-4.139-0.812c-0.199-0.078-0.264-0.453-0.045-0.529
						c1.229-0.429,2.889-0.741,4.198-0.102C297.052,148.067,297.116,149.114,296.438,149.215z"/>
				</g>
				<g>
					<path fill="#B88825" d="M294.504,147.215c-1.229-0.68-2.339-2.08-3.188-3.284c-0.131-0.188,0.01-0.509,0.236-0.423
						c1.284,0.471,2.915,1.296,3.729,2.628C295.651,146.749,295.16,147.578,294.504,147.215z"/>
				</g>
				<g>
					<g>
						<path fill="#B88825" d="M278.009,179.608c-0.079,0.038-0.173,0.05-0.27,0.027c-5.815-1.367-10.742-5.912-13.201-12.116
							c-2.067-5.215-2.107-11.062-0.201-15.912c0.102-0.263,0.382-0.358,0.622-0.215c0.243,0.147,0.35,0.473,0.248,0.731
							c-1.831,4.596-1.768,10.1,0.191,15.022c2.322,5.85,6.959,10.146,12.469,11.432c0.268,0.064,0.451,0.352,0.417,0.643
							C278.26,179.404,278.148,179.551,278.009,179.608z"/>
					</g>
				</g>
				<g>
					<path fill="#B88825" d="M272.896,176.654c-1.264,0.768-2.283,2.362-2.999,3.699c-0.118,0.222,0.087,0.596,0.333,0.507
						c1.37-0.503,3.043-1.445,3.724-2.95C274.276,177.195,273.572,176.243,272.896,176.654z"/>
					<path fill="#B88825" d="M270.241,174.862c-1.405,0.257-2.788,1.339-3.847,2.31c-0.176,0.16-0.071,0.572,0.179,0.577
						c1.438,0.031,3.27-0.238,4.33-1.384C271.406,175.821,270.997,174.721,270.241,174.862z"/>
					<path fill="#B88825" d="M267.81,172.38c-1.423-0.206-3.02,0.358-4.26,0.924c-0.201,0.09-0.201,0.503,0.04,0.588
						c1.38,0.479,3.201,0.806,4.496,0.085C268.693,173.639,268.563,172.488,267.81,172.38z"/>
					<path fill="#B88825" d="M265.839,169.303c-1.334-0.607-2.999-0.553-4.335-0.397c-0.217,0.026-0.305,0.411-0.093,0.562
						c1.227,0.856,2.927,1.689,4.347,1.402C266.416,170.735,266.549,169.626,265.839,169.303z"/>
					<path fill="#B88825" d="M264.332,165.85c-1.159-0.958-2.807-1.395-4.144-1.65c-0.216-0.041-0.39,0.287-0.214,0.493
						c1.007,1.167,2.484,2.453,3.927,2.594C264.579,167.353,264.951,166.359,264.332,165.85z"/>
					<path fill="#B88825" d="M263.454,162.083c-0.917-1.248-2.427-2.168-3.671-2.811c-0.204-0.103-0.451,0.141-0.324,0.393
						c0.723,1.397,1.861,3.047,3.234,3.624C263.338,163.559,263.942,162.744,263.454,162.083z"/>
					<path fill="#B88825" d="M263.349,158.185c-0.582-1.453-1.831-2.786-2.889-3.809c-0.173-0.165-0.48-0.019-0.412,0.253
						c0.374,1.519,1.062,3.432,2.259,4.412C262.87,159.501,263.657,158.954,263.349,158.185z"/>
					<path fill="#B88825" d="M264.266,154.238c-0.179-1.541-1.043-3.193-1.809-4.506c-0.126-0.212-0.464-0.188-0.472,0.084
						c-0.052,1.53,0.124,3.51,1.035,4.839C263.444,155.28,264.363,155.054,264.266,154.238z"/>
				</g>
				<g>
					<path fill="#B88825" d="M274.509,177.512c0.604-1.472,0.596-3.498,0.49-5.114c-0.019-0.26-0.366-0.45-0.515-0.223
						c-0.84,1.31-1.668,3.188-1.432,4.937C273.161,177.931,274.188,178.303,274.509,177.512z"/>
					<path fill="#B88825" d="M271.54,175.069c0.669-1.357,0.786-3.274,0.786-4.842c0.002-0.252-0.326-0.461-0.48-0.256
						c-0.889,1.181-1.801,2.905-1.68,4.593C270.22,175.358,271.179,175.799,271.54,175.069z"/>
					<path fill="#B88825" d="M268.724,171.947c0.728-1.248,0.969-3.084,1.065-4.588c0.014-0.246-0.286-0.471-0.451-0.285
						c-0.933,1.063-1.919,2.644-1.914,4.277C267.427,172.116,268.332,172.62,268.724,171.947z"/>
					<path fill="#B88825" d="M266.416,168.342c0.826-1.117,1.219-2.866,1.441-4.312c0.034-0.229-0.241-0.486-0.42-0.324
						c-1,0.924-2.116,2.318-2.247,3.905C265.132,168.353,265.974,168.944,266.416,168.342z"/>
					<path fill="#B88825" d="M264.651,164.252c0.962-0.932,1.597-2.545,2.006-3.897c0.062-0.213-0.174-0.514-0.368-0.384
						c-1.106,0.72-2.4,1.865-2.747,3.369C263.385,164.031,264.14,164.749,264.651,164.252z"/>
					<path fill="#B88825" d="M263.844,159.849c1.136-0.657,2.058-2.044,2.727-3.243c0.104-0.189-0.075-0.534-0.298-0.46
						c-1.242,0.415-2.743,1.187-3.363,2.546C262.622,159.323,263.238,160.199,263.844,159.849z"/>
					<path fill="#B88825" d="M264.401,155.411c1.279-0.315,2.511-1.403,3.435-2.357c0.148-0.152,0.033-0.526-0.203-0.518
						c-1.335,0.056-3.017,0.391-3.929,1.51C263.283,154.562,263.724,155.578,264.401,155.411z"/>
				</g>
				<g>
					<path fill="#B88825" d="M265.242,152.758c0.817-1.112,1.197-2.859,1.415-4.302c0.033-0.226-0.251-0.483-0.423-0.321
						c-0.97,0.915-2.103,2.317-2.225,3.895C263.955,152.755,264.807,153.354,265.242,152.758z"/>
				</g>
			</g>
			<g>
				<g>
					<path fill="#E3A82E" d="M253.045,127.304c0.139-0.026,0.236,0.046,0.276,0.225c0.03,0.128,0.054,0.235,0.082,0.356
						c0.464,0.019,0.933,0.042,1.399,0.055c0.042-0.756,0.438-1.159,0.931-1.244c0.654-0.113,1.247,0.399,1.563,1.29
						c0.456,0.006,0.914,0.007,1.373,0.008c-0.451-1.787-1.604-2.869-2.948-2.639c-1.188,0.206-1.399,1.243-1.399,1.243
						l-0.019,0.004c0,0-0.022-0.096-0.052-0.239c-0.076-0.332-0.308-0.549-0.773-0.467c-0.451,0.081-0.676,0.122-1.125,0.201
						c0.116,0.511,0.176,0.767,0.291,1.278C252.803,127.345,252.887,127.332,253.045,127.304z"/>
					<path fill="#E3A82E" d="M259.411,126.678c0.477-0.077,0.712-0.118,1.186-0.197c-0.028-0.126-0.045-0.191-0.076-0.32
						c-0.073-0.33,0.361-0.479,0.596-0.516c0.651-0.111,1.019,0.167,1.217,1.028c0.005,0.018,0.002,0.023,0.007,0.043
						c-0.063,0.01-0.097,0.016-0.16,0.025c-0.594,0.099-1.853,0.406-2.38,1.25c0.605-0.002,1.21-0.008,1.814-0.018
						c0.253-0.098,0.529-0.159,0.761-0.2c0.088-0.013,0.133-0.023,0.22-0.037c0.016,0.058,0.022,0.082,0.033,0.138
						c0.007,0.025,0.005,0.053,0.01,0.077c0.437-0.007,0.871-0.016,1.306-0.027c-0.102-0.439-0.19-0.835-0.323-1.409
						c-0.307-1.341-1.051-2.313-2.759-2.029c-0.532,0.087-1.848,0.43-1.59,1.552C259.33,126.296,259.352,126.424,259.411,126.678z"
						/>
					<path fill="#E3A82E" d="M265.906,125.424c-0.081-0.352,0.188-0.593,0.643-0.664c0.282-0.045,0.676,0.037,0.738,0.32
						c0.028,0.117,0.045,0.177,0.072,0.291c0.451-0.071,0.675-0.103,1.126-0.175c-0.057-0.25-0.081-0.377-0.144-0.624
						c-0.225-0.973-1.396-1.071-2.089-0.962c-1.067,0.171-1.863,0.876-1.587,2.074c0.293,1.279,1.557,1.521,2.447,1.779
						c0.638-0.104,1.278-0.198,1.911-0.308C268.219,125.871,266.097,126.258,265.906,125.424z"/>
					<path fill="#E3A82E" d="M270.625,124.673c-0.083-0.354,0.184-0.585,0.639-0.66c0.281-0.043,0.675,0.042,0.74,0.325
						c0.028,0.116,0.04,0.173,0.068,0.29c0.451-0.072,0.674-0.105,1.125-0.176c-0.057-0.248-0.082-0.371-0.142-0.62
						c-0.228-0.969-1.396-1.07-2.092-0.963c-1.065,0.166-1.861,0.862-1.583,2.057c0.277,1.2,1.425,1.486,2.301,1.729
						c0.657-0.126,1.316-0.244,1.969-0.379C272.789,125.154,270.805,125.474,270.625,124.673z"/>
					<path fill="#E3A82E" d="M276.115,125.343c-0.311-1.313,0.181-1.968,0.84-2.067c0.751-0.116,1.443,0.54,1.708,1.663
						c0.025,0.088,0.015,0.159,0.028,0.242c0.426-0.097,0.849-0.2,1.276-0.298c-0.015-0.057-0.015-0.107-0.028-0.164
						c-0.434-1.829-1.626-2.965-3.004-2.757c-1.191,0.179-1.406,1.188-1.406,1.188h-0.014c0,0-0.022-0.092-0.055-0.231
						c-0.075-0.326-0.305-0.54-0.776-0.469c-0.453,0.07-0.682,0.102-1.135,0.171c0.118,0.505,0.176,0.757,0.295,1.262
						c0.158-0.025,0.242-0.037,0.4-0.064c0.142-0.021,0.246,0.046,0.284,0.223c0.174,0.732,0.321,1.362,0.458,1.949
						c0.416-0.086,0.833-0.176,1.245-0.266C276.185,125.601,276.144,125.474,276.115,125.343z"/>
					<path fill="#E3A82E" d="M281.855,124.427c-0.261-1.084,0.248-1.938,1.062-2.058c0.75-0.111,1.512,0.442,1.842,1.357
						c0.415-0.104,0.832-0.207,1.242-0.311c-0.543-1.559-1.951-2.5-3.386-2.292c-1.537,0.222-2.464,1.692-2.037,3.496
						c0.01,0.039,0.025,0.073,0.035,0.111c0.416-0.098,0.832-0.191,1.245-0.291C281.861,124.436,281.858,124.432,281.855,124.427z"
						/>
					<path fill="#E3A82E" d="M289.583,121.661c0.175-0.027,0.307-0.019,0.307-0.019c-0.14-0.569-0.208-0.859-0.35-1.431
						c0,0-0.12-0.008-0.228,0.008c-0.761,0.109-1.199,0.857-1.222,1.724c-0.01,0.001-0.017,0.007-0.017,0.007
						s-0.017-0.157-0.069-0.373c-0.034-0.138-0.055-0.203-0.087-0.34c-0.121-0.494-0.395-0.677-0.838-0.612
						c-0.454,0.065-0.682,0.098-1.138,0.162c0.118,0.498,0.178,0.746,0.299,1.242c0.157-0.023,0.236-0.033,0.392-0.056
						c0.138-0.02,0.236,0.044,0.277,0.216c0.082,0.344,0.159,0.652,0.229,0.942c0.479-0.122,0.954-0.246,1.433-0.368
						C288.689,122.094,289.125,121.726,289.583,121.661z"/>
					<path fill="#E3A82E" d="M292.115,121.093c0.449-0.064,0.671-0.097,1.117-0.161c-0.113-0.458-0.172-0.684-0.287-1.142
						c-0.443,0.063-0.67,0.094-1.118,0.159c-0.156-0.634-0.229-0.948-0.387-1.585c-0.479,0.068-0.722,0.1-1.2,0.165
						c0.151,0.637,0.233,0.955,0.388,1.59c-0.269,0.037-0.399,0.057-0.67,0.094c0.111,0.461,0.172,0.688,0.284,1.148
						c0.255-0.038,0.384-0.053,0.64-0.092c0.079,0.326,0.146,0.594,0.208,0.849c0.401-0.104,0.801-0.207,1.199-0.311
						C292.239,121.595,292.183,121.366,292.115,121.093z"/>
				</g>
				<path fill="#E3A82E" d="M288.997,151.323c0.432,0.001,0.864,0.051,1.292,0.13c-2.679-3.673-6.98-5.776-11.209-5.006
					c-3.576,0.651-6.27,3.277-7.481,6.747c0.248-0.104,0.498-0.206,0.761-0.274c0.15-0.038,0.307-0.063,0.46-0.1
					c1.228-2.747,3.532-4.78,6.507-5.326C282.899,146.838,286.53,148.427,288.997,151.323z"/>
				<path fill="#E3A82E" d="M281.175,153.235c-0.458-1.915-0.947-3.977-1.513-6.347c-0.37,0.069-0.553,0.102-0.923,0.169
					c0.513,2.154,0.964,4.052,1.382,5.819C280.477,152.979,280.83,153.094,281.175,153.235z"/>
				<path fill="#E3A82E" d="M276.336,152.381c0.251-1.968,0.842-3.562,1.751-4.46c-0.272-0.331-0.409-0.496-0.68-0.828
					c-1.159,1.146-1.796,3.093-2.034,5.327C275.693,152.397,276.015,152.386,276.336,152.381z"/>
				<path fill="#E3A82E" d="M285.247,152.485c0.132-0.081,0.272-0.15,0.402-0.234c0.126-0.081,0.265-0.142,0.399-0.214
					c-1.372-2.611-3.156-4.782-5.127-5.581c-0.095,0.396-0.145,0.594-0.243,0.992C282.287,148.095,283.927,149.973,285.247,152.485z
					"/>
				<g>
					<g>
						<path fill="#E3A82E" d="M300.395,157.378c0.288-0.092,0.58-0.186,0.873-0.271c-0.95-4.3-3.247-8.255-6.475-11.226
							c-0.203-0.191-0.496-0.175-0.647,0.036c-0.148,0.211-0.104,0.537,0.104,0.725
							C297.367,149.479,299.526,153.268,300.395,157.378z"/>
					</g>
				</g>
				<g>
					<path fill="#E3A82E" d="M300.24,154.601c0.266-1.425,1.192-2.79,2.013-3.805c0.132-0.166,0.463-0.062,0.458,0.203
						c-0.025,1.465-0.298,3.301-1.264,4.333C300.993,155.812,300.101,155.356,300.24,154.601z"/>
					<path fill="#E3A82E" d="M298.607,151.218c-0.124-1.466,0.39-3.082,0.882-4.347c0.083-0.205,0.415-0.187,0.477,0.069
						c0.347,1.44,0.574,3.321-0.055,4.623C299.618,152.169,298.674,151.994,298.607,151.218z"/>
					<path fill="#E3A82E" d="M295.989,143.377c-0.063,0.004-0.127,0.008-0.188,0.012c-0.077,0.034-0.142,0.1-0.151,0.197
						c-0.111,1.402-0.142,3.161,0.385,4.562c0.272,0.746,1.192,0.601,1.3-0.096c0.225-1.479-0.501-3.254-1.225-4.561
						C296.08,143.434,296.037,143.4,295.989,143.377z"/>
				</g>
				<g>
					<path fill="#E3A82E" d="M300.137,156.925c-1.269-0.419-2.55-1.565-3.522-2.581c-0.155-0.162-0.072-0.51,0.156-0.472
						c1.317,0.199,2.97,0.687,3.941,1.837C301.16,156.236,300.814,157.148,300.137,156.925z"/>
					<path fill="#E3A82E" d="M298.902,152.839c-1.302-0.13-2.747-0.986-3.877-1.786c-0.182-0.127-0.171-0.489,0.062-0.508
						c1.3-0.1,2.981,0.014,4.137,0.943C299.759,151.92,299.598,152.907,298.902,152.839z"/>
					<path fill="#E3A82E" d="M296.438,149.215c-1.287,0.197-2.88-0.303-4.139-0.812c-0.199-0.078-0.264-0.453-0.045-0.529
						c1.229-0.429,2.889-0.741,4.198-0.102C297.052,148.067,297.116,149.114,296.438,149.215z"/>
				</g>
				<g>
					<path fill="#E3A82E" d="M291.844,143.629c-0.185,0.013-0.372,0.024-0.553,0.033c-0.028,0.088-0.028,0.188,0.024,0.269
						c0.849,1.204,1.959,2.604,3.188,3.284c0.656,0.363,1.147-0.466,0.778-1.079C294.525,144.9,293.076,144.114,291.844,143.629z"/>
				</g>
				<g>
					<g>
						<path fill="#E3A82E" d="M264.674,167.813c0.48,0.313,0.971,0.623,1.46,0.93c-0.259-0.522-0.519-1.045-0.734-1.596
							c-1.959-4.923-2.022-10.427-0.191-15.022c0.102-0.259-0.005-0.583-0.248-0.73c-0.237-0.144-0.52-0.048-0.622,0.214
							c-1.906,4.852-1.866,10.697,0.201,15.914C264.579,167.622,264.631,167.711,264.674,167.813z"/>
					</g>
				</g>
				<g>
					<path fill="#E3A82E" d="M260.075,164.801c0.003,0.005,0.007,0.007,0.007,0.007c1.234,0.798,2.489,1.634,3.764,2.468
						c0.021,0.003,0.038,0.007,0.057,0.011c0.677,0.066,1.049-0.928,0.43-1.437c-1.159-0.958-2.807-1.395-4.144-1.65
						c-0.216-0.041-0.39,0.287-0.214,0.493C260.007,164.729,260.043,164.766,260.075,164.801z"/>
					<path fill="#E3A82E" d="M263.454,162.083c-0.917-1.248-2.427-2.168-3.671-2.811c-0.204-0.103-0.451,0.141-0.324,0.393
						c0.723,1.397,1.861,3.047,3.234,3.624C263.338,163.559,263.942,162.744,263.454,162.083z"/>
					<path fill="#E3A82E" d="M263.349,158.185c-0.582-1.453-1.831-2.786-2.889-3.809c-0.173-0.165-0.48-0.019-0.412,0.253
						c0.374,1.519,1.062,3.432,2.259,4.412C262.87,159.501,263.657,158.954,263.349,158.185z"/>
					<path fill="#E3A82E" d="M264.266,154.238c-0.179-1.541-1.043-3.193-1.809-4.506c-0.126-0.212-0.464-0.188-0.472,0.084
						c-0.052,1.53,0.124,3.51,1.035,4.839C263.444,155.28,264.363,155.054,264.266,154.238z"/>
				</g>
				<g>
					<path fill="#E3A82E" d="M265.861,168.573c0.198,0.037,0.401-0.021,0.555-0.23c0.826-1.117,1.219-2.866,1.441-4.312
						c0.034-0.229-0.241-0.486-0.42-0.324c-1,0.924-2.116,2.318-2.247,3.905c-0.021,0.256,0.07,0.493,0.215,0.672
						C265.556,168.379,265.71,168.476,265.861,168.573z"/>
					<path fill="#E3A82E" d="M264.651,164.252c0.962-0.932,1.597-2.545,2.006-3.897c0.062-0.213-0.174-0.514-0.368-0.384
						c-1.106,0.72-2.4,1.865-2.747,3.369C263.385,164.031,264.14,164.749,264.651,164.252z"/>
					<path fill="#E3A82E" d="M263.844,159.849c1.136-0.657,2.058-2.044,2.727-3.243c0.104-0.189-0.075-0.534-0.298-0.46
						c-1.242,0.415-2.743,1.187-3.363,2.546C262.622,159.323,263.238,160.199,263.844,159.849z"/>
					<path fill="#E3A82E" d="M264.401,155.411c1.279-0.315,2.511-1.403,3.435-2.357c0.148-0.152,0.033-0.526-0.203-0.518
						c-1.335,0.056-3.017,0.391-3.929,1.51C263.283,154.562,263.724,155.578,264.401,155.411z"/>
				</g>
				<g>
					<path fill="#E3A82E" d="M265.242,152.758c0.817-1.112,1.197-2.859,1.415-4.302c0.033-0.226-0.251-0.483-0.423-0.321
						c-0.97,0.915-2.103,2.317-2.225,3.895C263.955,152.755,264.807,153.354,265.242,152.758z"/>
				</g>
			</g>
		</g>
		<path fill="#253763" d="M246.047,118.342c-1.656,0.181-3.314,0.367-4.973,0.515c6.236,27.666,12.502,55.327,18.753,82.991
			c0.293,1.284,2.152,1.47,5.134,0.793c9.818-2.221,19.676-4.405,29.437-6.921c-7.485,0.485-16.404,1.702-23.299-0.324
			c-9.008-2.651-11.172-11.84-13.782-21.083C252.045,155.664,244.344,120.798,246.047,118.342z"/>
		<path opacity="0.2" fill="#4FB7E8" enable-background="new    " d="M197.695,215.435c-7.005-2.325-17.421-3.548-19.971-3.375
			c-3.596,0.242-22.302,2.64-22.297,8.08c0.005,3.235,6.247,8.209,24.43,8.209c20.268,0,24.422-4.977,24.422-8.213
			C204.281,218.276,201.488,216.693,197.695,215.435z"/>
		<path fill="#A33333" d="M198.273,212.16c-4.309,2.798-9.443,4.43-14.95,4.43c-5.602,0-10.811-1.684-15.163-4.564
			c-3.684,1.275-5.964,2.878-5.964,4.238c0,2.758,5.321,7.006,20.835,7.006c17.284,0,20.83-4.248,20.83-7.006
			C203.86,214.95,201.73,213.413,198.273,212.16z"/>
		<path fill="#DE4E4E" d="M226.1,186.82c-1.439-2.041-3.861-3.21-6.641-3.21c-0.513,0-0.981,0.076-1.437,0.185
			c0.017-0.452,0.035-0.907,0.035-1.363c0-9.701-17.734-12.483-35.299-12.39c-17.227,0.092-34.286,2.876-34.286,12.39
			c0,19.215,15.578,34.793,34.792,34.793c9.355,0,17.839-3.7,24.09-9.705c0.288,0.422,0.672,0.833,1.188,1.236
			c1.386,1.076,2.918,1.621,4.548,1.621c6.615,0,11.978-8.824,13.407-12.853C228.479,191.951,227.378,188.625,226.1,186.82z
			 M222.67,196.162c-1.434,4.04-5.988,10.148-9.577,10.148c-0.718,0-1.388-0.252-2.056-0.769c-0.205-0.159-0.275-0.258-0.289-0.258
			c0.012-0.373,0.696-1.441,1.152-2.152c0.867-1.353,1.898-3.027,2.466-5.105c1.41-2.812,2.455-5.836,3.062-9.019
			c0.584-0.806,1.255-1.334,2.032-1.334c0.846,0,2.402,0.193,3.319,1.491C223.799,190.61,223.76,193.095,222.67,196.162z"/>
		<path fill="#C43D3D" d="M211.903,206.051c-0.29-0.124-0.58-0.287-0.866-0.509c-0.205-0.159-0.275-0.258-0.289-0.258
			c0.012-0.373,0.696-1.441,1.152-2.152c0.867-1.353,1.898-3.027,2.466-5.105c1.214-2.424,2.14-5.013,2.767-7.716
			c-6.104,13.189-11.523,14.545-12.274,19.388c0.867-0.685,1.703-1.415,2.498-2.181c0.288,0.422,0.673,0.833,1.188,1.235
			c0.236,0.184,0.481,0.329,0.728,0.481C210.224,208.251,211.09,207.178,211.903,206.051z"/>
		<path fill="#DE4E4E" d="M213.093,210.376c1.472,0,2.88-0.455,4.198-1.182c-2.248,0.208-4.514,0.439-6.796,0.668
			C211.326,210.194,212.19,210.376,213.093,210.376z"/>
		<path fill="#C43D3D" d="M150.921,176.951c-1.559,1.513-2.445,3.321-2.445,5.479c0,19.215,15.578,34.793,34.792,34.793
			c7.699,0,14.806-2.51,20.565-6.744C164.386,211.633,150.407,188.163,150.921,176.951z"/>
		<path fill="#C43D3D" d="M217.049,204.4c-1.319,1.149-2.696,1.911-3.956,1.911c-0.718,0-1.388-0.252-2.056-0.769
			c-0.205-0.159-0.275-0.258-0.289-0.258c0.012-0.373,0.696-1.441,1.152-2.152c0.319-0.498,0.66-1.058,0.989-1.646
			c-2.322,1.957-4.052,4.074-5.309,6.311c0.26,0.324,0.561,0.645,0.964,0.959c1.386,1.076,2.918,1.622,4.548,1.622
			c5.919,0,10.825-7.055,12.819-11.428C223.105,201.371,220.294,203.498,217.049,204.4z"/>
		<path fill="#C43D3D" d="M153.332,179.973c0-8.341,41.654-9.724,55.471-4.153c2.748,1.108,5.129,3.16,4.543,5.997
			C211.311,191.644,153.332,189.972,153.332,179.973z"/>
		<path fill="#452908" d="M153.332,181.837c0-10.001,59.867-10.001,59.867,0C213.199,191.835,153.332,191.835,153.332,181.837z"/>
		<path fill="#824E0F" d="M207.627,181.113c-2.652-1.715-5.892-2.154-9.021-2.949c-0.456-0.116-0.68,0.451-0.258,0.614
			c2.527,0.983,5.041,1.571,7.31,2.881c-2.304,1.017-5.039,1.394-7.485,1.769c-4.47,0.684-9.001,0.933-13.507,0.993
			c-4.365,0.057-8.747-0.135-13.041-0.699c-2.584-0.34-6.64-0.881-8.625-2.732c5.322-2.469,12.545-2.092,18.127-1.772
			c2.95,0.166,5.869,0.538,8.716,1.164c-1.373,0.3-2.814,0.404-4.202,0.5c-2.181,0.149-4.347,0.026-6.516,0.027
			c-0.323-0.001-0.468,0.436-0.131,0.515c3.905,0.913,8.172,0.552,12.164-0.132c0.298-0.053,0.508-0.291,0.544-0.546
			c0.024-0.213,0.054-0.424,0.084-0.638c0.032-0.285-0.173-0.499-0.443-0.604c-4.71-1.827-10.331-2.031-15.478-2.062
			c-4.742-0.027-10.616,0.096-14.818,2.511c-0.436,0.253-0.79,0.773-0.488,1.213c1.55,2.252,4.633,3.113,7.399,3.726
			c4.812,1.069,9.935,1.25,14.921,1.231c4.973-0.023,9.989-0.376,14.929-1.074c3.298-0.469,7.026-1.061,9.87-2.799
			C208.136,181.962,208.002,181.355,207.627,181.113z"/>
		<path opacity="0.4" fill="#B8F7FF" enable-background="new    " d="M186.689,157.52c4.243-12.114,0.449-16.709-4.322-21.353
			c3.059,7.635,1.204,14.289-1.17,20.343c-4.604,11.739-3.056,17.665,2.615,22.647C182.296,172.156,183.354,167.04,186.689,157.52z"
			/>
		<path opacity="0.4" fill="#B8F7FF" enable-background="new    " d="M170.143,162.941c3.721-10.285,1.665-13.882-2.762-18.13
			c0.661,6.501-0.664,12.132-2.773,17.273c-4.097,9.964-2.295,14.996,3.593,19.227C166.382,175.366,167.219,171.022,170.143,162.941
			z"/>
		<path opacity="0.4" fill="#B8F7FF" enable-background="new    " d="M202.312,164.74c2.918-8.974,1.758-11.691-2.639-15.266
			c0.619,5.473-1.128,10.055-2.895,14.542c-2.545,6.47-0.721,13.534,3.387,16.784C198.51,174.858,200.276,170.99,202.312,164.74z"/>
		<path opacity="0.2" fill="#4FB7E8" enable-background="new    " d="M9.429,197.252c-6.554-1.217-5.071-5.507,5.458-4.315
			c13.269,1.499,66.964,7.749,78.008,10.011c6.032,1.234,14.626,4.417,12.155,5.723c-1.341,0.707-11.429,0.361-14.408-0.006
			C79.417,207.277,26.682,200.456,9.429,197.252z"/>
		<path fill="#5B6682" d="M16.786,193.09l10.886,2.37c0,0-2.295,0.722-1.628,0.851c7.295,1.414,16.488,3.199,19.389,3.812
			c2.826-0.79,3.943-0.278,5.338,0.574c1.387,0.85,0.246,1.583-1.531,1.388c-1.781-0.188-32.706-6.561-32.706-6.561L16.786,193.09z"
			/>
		<path fill="#1F2D52" d="M13.526,192.872c-5.79-1.516-5.105-10.547,1.875-9.683c13.461,1.664,69.838,11.299,81.148,14.204
			c9.525,2.445,6.888,9.847-1.708,8.651C83.439,204.458,28.77,196.847,13.526,192.872z"/>
		<path fill="#17223D" d="M102.581,202.281c-31.36-5.702-64.928-10.099-91.611-16.745c-0.851,1.386-0.871,3.12-0.169,4.575
			c26.579,5.873,59.461,10.028,90.84,14.381C102.272,203.849,102.605,203.087,102.581,202.281z"/>
		<path fill="#6F7C9E" d="M23.885,184.212c0.158,0.021,0.217-0.217,0.092-0.307c-1.826-1.268-4.312-0.803-5.925,0.385
			c-1.284,0.952-1.871,2.389-2.181,3.587c-0.716,2.764,1.417,7.7,5.677,6.968c0.262-0.047,0.47-0.358,0.217-0.466
			c-2.691-1.121-4.269-2.771-4.127-5.729C17.75,186.264,20.124,183.737,23.885,184.212z"/>
		<path fill="#8FA0CC" d="M23.885,184.212c0.158,0.021,0.217-0.217,0.092-0.307c-1.826-1.268-4.312-0.803-5.925,0.385
			c-0.867,0.641-1.398,1.501-1.755,2.362c1.582-1.122,3.186-1.945,4.822-2.211C21.924,184.185,22.852,184.081,23.885,184.212z"/>
		<path fill="#6F7C9E" d="M94.235,197.026c0.3,0.018,0.228-0.444,0.014-0.649c-1.401-1.338-4.094-0.175-5.257,0.89
			c-1.32,1.212-1.821,2.853-1.776,4.592c0.064,2.532,3.261,6.786,6.01,4.145c0.063-0.063,0.004-0.178-0.078-0.192
			c-1.046-0.176-2.181-0.231-2.948-1.037c-0.778-0.819-1.094-2.026-1.056-3.097C89.185,200.566,89.654,196.801,94.235,197.026z"/>
		<path fill="#8FA0CC" d="M94.235,197.026c0.3,0.018,0.228-0.444,0.014-0.649c-1.401-1.338-4.094-0.175-5.257,0.89
			c-0.257,0.233-0.476,0.489-0.672,0.759c1.381-0.482,2.823-0.778,4.289-0.888C93.086,197.041,93.619,196.993,94.235,197.026z"/>
		<path fill="#6F7C9E" d="M97.268,206.449c-7.834,0.127-5.687-11.101,1.902-8.328c3.348,1.223,6.283,2.839,9.195,4.559
			c1.954,1.152,1.205,2.801-0.587,3.1C104.627,206.301,102.451,206.363,97.268,206.449z"/>
		<path fill="#5B6682" d="M93.111,199.664c-0.615,0.943-0.875,2.102-0.729,3.196c2.183-0.045,12.877,1.979,16.242,2.626
			c0.811-0.435,1.136-1.223,0.652-1.981C103.913,202.626,98.527,201.343,93.111,199.664z"/>
		<path fill="#525C75" d="M108.681,204.033c0.056,0.812-0.49,1.505-1.224,1.547c-0.73,0.039-1.366-0.584-1.425-1.396
			c-0.057-0.814,0.489-1.504,1.224-1.545C107.985,202.596,108.624,203.224,108.681,204.033z"/>
		<path fill="#8FA0CC" d="M108.267,205.317c-1.856,0.028-1.349-2.637,0.449-1.978c0.796,0.292,1.498,0.676,2.191,1.082
			c0.461,0.276,0.282,0.663-0.142,0.735C110.016,205.283,109.5,205.297,108.267,205.317z"/>
		<path fill="#8FA0CC" d="M105.152,201.685c-2.515-1.245-5.836-2.395-8.612-3.455c-0.9-0.343-2.943,1.055-0.555,1.637
			c1.588,0.388,7.943,2.264,9.128,2.029C105.229,201.87,105.246,201.734,105.152,201.685z"/>
		<path fill="#4567BA" d="M87.445,196.478c-5.561-1.122-59.215-10.716-62.07-10.761c-0.126-0.005-0.162,0.176-0.049,0.206
			c10.107,2.393,54.594,10.579,60.533,11.878C86.847,198.019,88.439,196.678,87.445,196.478z"/>
		<path fill="#8FA0CC" d="M92.302,196.508c-0.116-0.18-0.364-0.209-0.572-0.166c-0.51,0.095-1.011,0.31-1.408,0.612
			c-0.176,0.131-0.319,0.278-0.451,0.447c-0.183,0.229-0.189,0.451-0.31,0.704c-0.052,0.105,0.095,0.191,0.185,0.111
			c0.246-0.224,0.641-0.39,0.934-0.565c0.417-0.24,0.907-0.344,1.376-0.483c0.224-0.072,0.319-0.247,0.33-0.44
			C92.392,196.64,92.347,196.578,92.302,196.508z"/>
		<path fill="#DE8A8A" d="M216.662,180.412c-0.523-2.075-2.003-3.454-4.202-4.574c-0.151-0.076-0.3,0.093-0.185,0.191
			c1.25,1.08,2.159,2.411,2.67,3.831c0.656,1.822-0.776,2.862-1.235,4.47c-0.077,0.28,0.235,0.591,0.615,0.489
			C216.407,184.268,217.061,181.99,216.662,180.412z"/>
		<path fill="#DE8A8A" d="M159.635,174.884c-2.986-0.481-9.192,3.681-6.508,7.013c0.047,0.062,0.173,0.028,0.184-0.049
			c0.255-1.711,0.737-2.939,2.191-3.972c1.309-0.934,3.128-1.268,4.308-2.329C160.015,175.36,159.927,174.93,159.635,174.884z"/>
		<path fill="#DE8A8A" d="M225.92,189.118c-0.923-1.965-2.324-2.815-4.222-3.661c-0.118-0.052-0.215,0.103-0.102,0.176
			c1.172,0.744,2.196,2.106,2.91,3.267c0.915,1.479,0.495,2.791,0.181,4.343c-0.074,0.363,0.323,0.588,0.601,0.35
			C226.554,192.514,226.594,190.551,225.92,189.118z"/>
		<path fill="#4C4F52" d="M95.433,62.133c0.178-0.586,0.754-1.041,1.231-1.386c0.161-0.118,0.071-0.428-0.149-0.349
			c-1.375,0.5-2.256,2.062-1.474,3.447c0.066,0.122,0.215,0.117,0.312,0.039c0.401-0.318,0.621-0.769,0.833-1.229
			c0.039-0.091-0.087-0.171-0.137-0.079c-0.189,0.336-0.372,0.631-0.669,0.842C95.337,62.986,95.298,62.576,95.433,62.133z"/>
		<path fill="#4C4F52" d="M99.727,62.661c-0.471,0-0.902,0.153-1.349,0.254c0.35-1.07,0.479-2.492-0.91-2.664
			c-0.127-0.017-0.126,0.167-0.026,0.208c1.133,0.465,0.631,1.886,0.219,2.683c-0.104,0.197,0.023,0.458,0.26,0.454
			c0.685-0.013,1.349-0.186,1.899-0.597C99.956,62.895,99.925,62.661,99.727,62.661z"/>
		<path fill="#4C4F52" d="M103.715,60.21c-0.898-0.899-3.253-1.169-3.7,0.329c-0.056,0.191,0.208,0.285,0.31,0.128
			c0.795-1.185,2.203-0.223,3.244-0.105C103.757,60.584,103.831,60.328,103.715,60.21z"/>
		<path fill="#4C4F52" d="M101.892,60.281c-0.072-0.161-0.305-0.04-0.273,0.116c0.106,0.487,0.174,0.975,0.224,1.471
			c0.04,0.395,0.009,0.729,0.17,1.092c0.09,0.206,0.364,0.107,0.426-0.056C102.748,62.108,102.205,61.014,101.892,60.281z"/>
		<path fill="#4C4F52" d="M106.89,60.675c-0.213-0.019-0.479,0.146-0.667,0.23c-0.375,0.175-0.568-0.091-0.806-0.369
			c-0.099-0.119-0.333-0.155-0.46-0.059c-0.352,0.262-0.66,0.547-0.86,0.941c-0.107,0.207-0.047,0.403-0.047,0.518
			c-0.002,0.16,0.225,0.276,0.334,0.138c0,0,0.151-0.062,0.208-0.118c0.199-0.198,0.352-0.411,0.539-0.609
			c0.267,0.26,0.585,0.458,0.985,0.398c0.302-0.047,1.063-0.256,1.219-0.527C107.54,60.88,107.182,60.699,106.89,60.675z"/>
		<path fill="#4C4F52" d="M110.486,62.374c-0.642-0.286-1.269-0.529-1.923-0.473c0.142-1.12-0.307-2.099-1.554-2.417
			c-0.222-0.057-0.345,0.246-0.154,0.367c0.936,0.598,1.205,1.386,0.875,2.439c-0.078,0.25,0.19,0.564,0.456,0.457
			c0.815-0.331,1.444,0.366,2.235,0.137C110.633,62.825,110.72,62.477,110.486,62.374z"/>
		<path fill="#4C4F52" d="M113.031,60.583c-0.002-0.203-0.132-0.344-0.314-0.413c-0.482-0.178-0.863-0.51-1.361-0.649
			c-0.162-0.044-0.378,0.023-0.451,0.182c-0.018,0.038-0.031,0.076-0.047,0.111c-0.011,0.017-0.015,0.031-0.02,0.047
			c-0.042,0.097-0.071,0.197-0.071,0.309v0.013c0,0.007-0.005,0.013-0.002,0.02l0.007-0.001c0.002,0.068,0.042,0.126,0.087,0.176
			c-0.057,0.048-0.135,0.099-0.154,0.174c-0.045,0.167-0.072,0.324-0.074,0.495c-0.002,0.294,0.187,0.486,0.26,0.571
			c0.062,0.074,0.198,0.074,0.262,0c0.072-0.084,0.261-0.276,0.259-0.571c-0.002-0.173-0.031-0.328-0.072-0.495
			c-0.014-0.052-0.063-0.095-0.111-0.13c0.023-0.013,0.049-0.02,0.071-0.033c0.293,0.156,0.583,0.311,0.882,0.457
			c0.012,0.495,0.085,1,0.55,1.258c0.109,0.061,0.249,0.008,0.28-0.114C113.136,61.541,113.035,61.045,113.031,60.583z"/>
		<path fill="#4C4F52" d="M115.412,60.008c-0.244-0.081-0.433,0.128-0.458,0.347c-0.033,0.286-0.109,0.558-0.177,0.833
			c-0.019-0.004-0.034-0.013-0.054-0.019c-0.194-0.057-0.42,0.103-0.411,0.315c0.02,0.387-0.05,0.661-0.307,0.949
			c-0.217,0.246,0.118,0.583,0.361,0.361c0.253-0.232,0.388-0.479,0.476-0.757c0.014,0.008,0.025,0.021,0.039,0.028
			c0.291,0.158,0.595-0.044,0.623-0.355c0.021-0.277,0.068-0.547,0.111-0.82c0.137,0.083,0.262,0.188,0.371,0.335
			c0.196,0.266,0.277,0.456,0.618,0.508c0.133,0.02,0.282-0.032,0.319-0.182C117.109,60.757,116.033,60.217,115.412,60.008z"/>
		<path fill="#4C4F52" d="M118.66,62.472c-0.348-0.104-0.679,0.094-0.932,0.344c-0.069-0.122-0.135-0.233-0.234-0.345
			c-0.156-0.177-0.447,0.052-0.324,0.25c0.014,0.023,0.217,0.37,0.189,0.444c-0.054,0.143,0.029,0.335,0.163,0.402
			c0.029,0.016,0.059,0.031,0.089,0.046c0.141,0.072,0.334,0.071,0.449-0.058c0.096-0.135,0.22-0.241,0.369-0.315
			c0.063,0.006,0.092,0.002,0.104-0.007c0.151,0.13,0.366,0.113,0.489-0.065C119.237,62.857,118.953,62.56,118.66,62.472z"/>
		<path fill="#4C4F52" d="M116.105,65.623c-6.373-2.884-14.09,0.138-20.836-0.589c-0.265-0.028-0.312,0.396-0.064,0.458
			c2.84,0.698,5.721,0.45,8.604,0.198c4.184-0.364,8.037-0.459,12.209,0.135C116.132,65.841,116.231,65.679,116.105,65.623z"/>
	</g>
</g>
<g id="Layer_3">
</g>
<g id="Layer_4">
</g>
<g id="Layer_5">
</g>
<g id="Layer_6">
</g>
<g id="Layer_7">
</g>
<g id="Layer_8">
</g>
<g id="Layer_9">
</g>
<g id="Layer_10">
</g>
<g id="Layer_11">
</g>
<g id="Layer_12">
</g>
</svg>
